{
    "name": "aipom",
    "nationalPokedexNumber": 190,
    "primaryType": "normal",
    "abilities": [
        "runaway",
        "pickup",
        "h:skilllink"
    ],
    "baseStats": {
        "hp": 55,
        "attack": 70,
        "defence": 55,
        "special_attack": 40,
        "special_defence": 55,
        "speed": 85
    },
    "catchRate": 45,
    "maleRatio": 0.5,
    "shoulderMountable": false,
    "forms": [],
    "baseExperienceYield": 72,
    "experienceGroup": "fast",
    "eggCycles": 20,
    "eggGroups": [
        "field"
    ],
    "moves": [
        "1:scratch",
        "1:tailwhip",
        "4:sandattack",
        "8:astonish",
        "11:batonpass",
        "15:tickle",
        "18:furyswipes",
        "22:swift",
        "25:screech",
        "29:agility",
        "32:doublehit",
        "36:fling",
        "39:nastyplot",
        "43:lastresort",
        "egg:agility",
        "egg:beatup",
        "egg:bounce",
        "egg:counter",
        "egg:covet",
        "egg:doubleslap",
        "egg:fakeout",
        "egg:pursuit",
        "egg:quickguard",
        "egg:revenge",
        "egg:screech",
        "egg:slam",
        "egg:spite",
        "egg:switcheroo",
        "egg:tailslap",
        "tm:acrobatics",
        "tm:aerialace",
        "tm:attract",
        "tm:brickbreak",
        "tm:captivate",
        "tm:confide",
        "tm:curse",
        "tm:cut",
        "tm:detect",
        "tm:dig",
        "tm:doubleteam",
        "tm:dreameater",
        "tm:endure",
        "tm:facade",
        "tm:fling",
        "tm:frustration",
        "tm:grassknot",
        "tm:hiddenpower",
        "tm:honeclaws",
        "tm:lowsweep",
        "tm:naturalgift",
        "tm:payback",
        "tm:poweruppunch",
        "tm:protect",
        "tm:raindance",
        "tm:rest",
        "tm:retaliate",
        "tm:return",
        "tm:rocksmash",
        "tm:round",
        "tm:secretpower",
        "tm:shadowball",
        "tm:shadowclaw",
        "tm:sleeptalk",
        "tm:solarbeam",
        "tm:strength",
        "tm:substitute",
        "tm:sunnyday",
        "tm:swagger",
        "tm:taunt",
        "tm:thief",
        "tm:thunder",
        "tm:thunderbolt",
        "tm:thunderwave",
        "tm:toxic",
        "tm:uturn",
        "tm:workup",
        "tm:zapcannon",
        "tutor:bodyslam",
        "tutor:bounce",
        "tutor:covet",
        "tutor:defensecurl",
        "tutor:doubleedge",
        "tutor:dynamicpunch",
        "tutor:firepunch",
        "tutor:focuspunch",
        "tutor:foulplay",
        "tutor:furycutter",
        "tutor:gunkshot",
        "tutor:headbutt",
        "tutor:icepunch",
        "tutor:irontail",
        "tutor:knockoff",
        "tutor:lastresort",
        "tutor:lowkick",
        "tutor:megakick",
        "tutor:megapunch",
        "tutor:metronome",
        "tutor:mimic",
        "tutor:mudslap",
        "tutor:nightmare",
        "tutor:roleplay",
        "tutor:seedbomb",
        "tutor:seismictoss",
        "tutor:shockwave",
        "tutor:snatch",
        "tutor:snore",
        "tutor:spite",
        "tutor:thunderpunch",
        "tutor:uproar",
        "tutor:waterpulse"
    ],
    "labels": [
        "gen2"
    ],
    "pokedex": [
        "cobblemon.species.aipom.desc1",
        "cobblemon.species.aipom.desc2"
    ],
    "evolutions": [
        {
            "id": "aipom_ambipom",
            "variant": "level_up",
            "result": "ambipom",
            "consumeHeldItem": false,
            "learnableMoves": [],
            "requirements": [
                {
                    "variant": "has_move",
                    "move": "doublehit"
                }
            ]
        }
    ],
    "baseScale": 1.0,
    "hitbox": {
        "width": 1.0,
        "height": 1.0,
        "fixed": false
    },
    "baseFriendship": 70,
    "evYield": {
        "speed": 1
    },
    "height": 8,
    "weight": 115
}