{
    "name": "ariados",
    "nationalPokedexNumber": 168,
    "primaryType": "bug",
    "secondaryType": "poison",
    "abilities": [
        "swarm",
        "insomnia",
        "h:sniper"
    ],
    "baseStats": {
        "hp": 70,
        "attack": 90,
        "defence": 70,
        "special_attack": 60,
        "special_defence": 70,
        "speed": 40
    },
    "catchRate": 90,
    "maleRatio": 0.5,
    "shoulderMountable": false,
    "forms": [],
    "baseExperienceYield": 140,
    "experienceGroup": "fast",
    "eggCycles": 15,
    "eggGroups": [
        "bug"
    ],
    "moves": [
        "0:swordsdance",
        "1:swordsdance",
        "1:poisonsting",
        "1:absorb",
        "1:stringshot",
        "1:focusenergy",
        "1:constrict",
        "1:bugbite",
        "1:fellstinger",
        "1:venomdrench",
        "5:absorb",
        "8:infestation",
        "12:scaryface",
        "15:nightshade",
        "19:shadowsneak",
        "23:furyswipes",
        "28:suckerpunch",
        "32:spiderweb",
        "37:agility",
        "41:pinmissile",
        "46:psychic",
        "50:poisonjab",
        "53:screech",
        "55:crosspoison",
        "58:stickyweb",
        "63:toxicthread",
        "tm:attract",
        "tm:captivate",
        "tm:confide",
        "tm:curse",
        "tm:dig",
        "tm:doubleteam",
        "tm:endure",
        "tm:facade",
        "tm:flash",
        "tm:frustration",
        "tm:gigaimpact",
        "tm:hiddenpower",
        "tm:honeclaws",
        "tm:hyperbeam",
        "tm:infestation",
        "tm:leechlife",
        "tm:naturalgift",
        "tm:poisonjab",
        "tm:protect",
        "tm:psychic",
        "tm:rest",
        "tm:return",
        "tm:round",
        "tm:secretpower",
        "tm:sleeptalk",
        "tm:sludgebomb",
        "tm:smartstrike",
        "tm:solarbeam",
        "tm:strugglebug",
        "tm:substitute",
        "tm:sunnyday",
        "tm:swagger",
        "tm:swordsdance",
        "tm:thief",
        "tm:toxic",
        "tm:venoshock",
        "tm:xscissor",
        "tutor:bodyslam",
        "tutor:bounce",
        "tutor:bugbite",
        "tutor:doubleedge",
        "tutor:electroweb",
        "tutor:foulplay",
        "tutor:gigadrain",
        "tutor:mimic",
        "tutor:signalbeam",
        "tutor:snore",
        "tutor:stompingtantrum",
        "tutor:throatchop"
    ],
    "labels": [
        "gen2"
    ],
    "pokedex": [
        "cobblemon.species.ariados.desc1",
        "cobblemon.species.ariados.desc2"
    ],
    "preEvolution": "spinarak",
    "evolutions": [],
    "baseScale": 1.0,
    "hitbox": {
        "width": 1.0,
        "height": 1.0,
        "fixed": false
    },
    "baseFriendship": 70,
    "evYield": {
        "attack": 2
    },
    "height": 11,
    "weight": 335
}