{
    "name": "azumarill",
    "nationalPokedexNumber": 184,
    "primaryType": "water",
    "secondaryType": "fairy",
    "abilities": [
        "thickfat",
        "hugepower",
        "h:sapsipper"
    ],
    "baseStats": {
        "hp": 100,
        "attack": 50,
        "defence": 80,
        "special_attack": 60,
        "special_defence": 80,
        "speed": 50
    },
    "catchRate": 75,
    "maleRatio": 0.5,
    "shoulderMountable": false,
    "forms": [],
    "baseExperienceYield": 210,
    "experienceGroup": "fast",
    "eggCycles": 10,
    "eggGroups": [
        "water_1",
        "fairy"
    ],
    "moves": [
        "1:tackle",
        "1:tailwhip",
        "1:watergun",
        "1:defensecurl",
        "1:rollout",
        "1:helpinghand",
        "1:watersport",
        "5:watersport",
        "6:bubblebeam",
        "7:bubble",
        "9:charm",
        "12:slam",
        "15:bounce",
        "21:aquatail",
        "25:playrough",
        "30:aquaring",
        "35:raindance",
        "40:hydropump",
        "45:doubleedge",
        "50:superpower",
        "tm:amnesia",
        "tm:attract",
        "tm:blizzard",
        "tm:bodyslam",
        "tm:bounce",
        "tm:brickbreak",
        "tm:brutalswing",
        "tm:bulldoze",
        "tm:captivate",
        "tm:charm",
        "tm:confide",
        "tm:curse",
        "tm:dig",
        "tm:dive",
        "tm:doubleteam",
        "tm:drainingkiss",
        "tm:encore",
        "tm:endure",
        "tm:facade",
        "tm:faketears",
        "tm:fling",
        "tm:focusblast",
        "tm:frustration",
        "tm:futuresight",
        "tm:gigaimpact",
        "tm:grassknot",
        "tm:hail",
        "tm:helpinghand",
        "tm:hiddenpower",
        "tm:hydropump",
        "tm:hyperbeam",
        "tm:hypervoice",
        "tm:icebeam",
        "tm:icepunch",
        "tm:icywind",
        "tm:irontail",
        "tm:lightscreen",
        "tm:liquidation",
        "tm:megakick",
        "tm:megapunch",
        "tm:mistyterrain",
        "tm:muddywater",
        "tm:mudshot",
        "tm:naturalgift",
        "tm:playrough",
        "tm:poweruppunch",
        "tm:protect",
        "tm:raindance",
        "tm:rest",
        "tm:return",
        "tm:rocksmash",
        "tm:round",
        "tm:scald",
        "tm:secretpower",
        "tm:sleeptalk",
        "tm:snore",
        "tm:strength",
        "tm:substitute",
        "tm:superpower",
        "tm:surf",
        "tm:swagger",
        "tm:swift",
        "tm:toxic",
        "tm:uproar",
        "tm:waterfall",
        "tm:whirlpool",
        "tm:workup",
        "tutor:covet",
        "tutor:dynamicpunch",
        "tutor:focuspunch",
        "tutor:headbutt",
        "tutor:knockoff",
        "tutor:mimic",
        "tutor:mistyexplosion",
        "tutor:mudslap",
        "tutor:seismictoss",
        "tutor:steelroller",
        "tutor:waterpulse"
    ],
    "labels": [
        "gen2"
    ],
    "pokedex": [
        "cobblemon.species.azumarill.desc1",
        "cobblemon.species.azumarill.desc2"
    ],
    "preEvolution": "marill",
    "evolutions": [],
    "baseScale": 1.0,
    "hitbox": {
        "width": 1.0,
        "height": 1.0,
        "fixed": false
    },
    "baseFriendship": 50,
    "evYield": {
        "hp": 3
    },
    "height": 8,
    "weight": 285
}