{
    "name": "chikorita",
    "nationalPokedexNumber": 152,
    "primaryType": "grass",
    "abilities": [
        "overgrow",
        "h:leafguard"
    ],
    "baseStats": {
        "hp": 45,
        "attack": 49,
        "defence": 65,
        "special_attack": 49,
        "special_defence": 65,
        "speed": 45
    },
    "catchRate": 45,
    "maleRatio": 0.875,
    "shoulderMountable": false,
    "forms": [],
    "baseExperienceYield": 64,
    "experienceGroup": "mediumslow",
    "eggCycles": 20,
    "eggGroups": [
        "monster",
        "grass"
    ],
    "moves": [
        "1:tackle",
        "1:growl",
        "6:razorleaf",
        "9:poisonpowder",
        "12:synthesis",
        "17:reflect",
        "20:magicalleaf",
        "23:naturalgift",
        "28:sweetscent",
        "31:lightscreen",
        "34:bodyslam",
        "39:safeguard",
        "42:aromatherapy",
        "45:solarbeam",
        "egg:ancientpower",
        "egg:aromatherapy",
        "egg:bodyslam",
        "egg:counter",
        "egg:flail",
        "egg:grasswhistle",
        "egg:grassyterrain",
        "egg:healpulse",
        "egg:ingrain",
        "egg:leafstorm",
        "egg:leechseed",
        "egg:naturepower",
        "egg:refresh",
        "egg:vinewhip",
        "egg:wringout",
        "tm:attract",
        "tm:bulletseed",
        "tm:captivate",
        "tm:confide",
        "tm:curse",
        "tm:cut",
        "tm:detect",
        "tm:doubleteam",
        "tm:echoedvoice",
        "tm:endure",
        "tm:energyball",
        "tm:facade",
        "tm:flash",
        "tm:frustration",
        "tm:grassknot",
        "tm:hiddenpower",
        "tm:lightscreen",
        "tm:naturepower",
        "tm:protect",
        "tm:reflect",
        "tm:rest",
        "tm:return",
        "tm:round",
        "tm:safeguard",
        "tm:secretpower",
        "tm:sleeptalk",
        "tm:solarbeam",
        "tm:substitute",
        "tm:sunnyday",
        "tm:swagger",
        "tm:swordsdance",
        "tm:toxic",
        "tm:workup",
        "tutor:doubleedge",
        "tutor:furycutter",
        "tutor:gigadrain",
        "tutor:grasspledge",
        "tutor:headbutt",
        "tutor:irontail",
        "tutor:magiccoat",
        "tutor:mimic",
        "tutor:mudslap",
        "tutor:seedbomb",
        "tutor:snore",
        "tutor:synthesis",
        "tutor:worryseed"
    ],
    "labels": [
        "gen2"
    ],
    "pokedex": [
        "cobblemon.species.chikorita.desc1",
        "cobblemon.species.chikorita.desc2"
    ],
    "evolutions": [
        {
            "id": "chikorita_bayleef",
            "variant": "level_up",
            "result": "bayleef",
            "consumeHeldItem": false,
            "learnableMoves": [],
            "requirements": [
                {
                    "variant": "level",
                    "minLevel": 16
                }
            ]
        }
    ],
    "baseScale": 1.0,
    "hitbox": {
        "width": 1.0,
        "height": 1.0,
        "fixed": false
    },
    "baseFriendship": 70,
    "evYield": {
        "special_defence": 1
    },
    "height": 9,
    "weight": 64
}