{
    "name": "delibird",
    "nationalPokedexNumber": 225,
    "primaryType": "ice",
    "secondaryType": "flying",
    "abilities": [
        "vitalspirit",
        "hustle",
        "h:insomnia"
    ],
    "baseStats": {
        "hp": 45,
        "attack": 55,
        "defence": 45,
        "special_attack": 65,
        "special_defence": 45,
        "speed": 75
    },
    "catchRate": 45,
    "maleRatio": 0.5,
    "shoulderMountable": false,
    "forms": [],
    "baseExperienceYield": 116,
    "experienceGroup": "fast",
    "eggCycles": 20,
    "eggGroups": [
        "water_1",
        "field"
    ],
    "moves": [
        "1:present",
        "25:drillpeck",
        "egg:aurorabeam",
        "egg:auroraveil",
        "egg:bestow",
        "egg:counter",
        "egg:destinybond",
        "egg:fakeout",
        "egg:freezedry",
        "egg:iceball",
        "egg:iceshard",
        "egg:memento",
        "egg:quickattack",
        "egg:rapidspin",
        "egg:splash",
        "tm:aerialace",
        "tm:agility",
        "tm:assurance",
        "tm:attract",
        "tm:avalanche",
        "tm:batonpass",
        "tm:blizzard",
        "tm:bodyslam",
        "tm:bounce",
        "tm:bravebird",
        "tm:brickbreak",
        "tm:brutalswing",
        "tm:captivate",
        "tm:confide",
        "tm:curse",
        "tm:detect",
        "tm:doubleteam",
        "tm:drillrun",
        "tm:endure",
        "tm:facade",
        "tm:fling",
        "tm:fly",
        "tm:frostbreath",
        "tm:frustration",
        "tm:futuresight",
        "tm:gunkshot",
        "tm:hail",
        "tm:helpinghand",
        "tm:hiddenpower",
        "tm:icebeam",
        "tm:icepunch",
        "tm:iciclespear",
        "tm:icywind",
        "tm:megakick",
        "tm:megapunch",
        "tm:naturalgift",
        "tm:pluck",
        "tm:poweruppunch",
        "tm:protect",
        "tm:raindance",
        "tm:rest",
        "tm:return",
        "tm:round",
        "tm:secretpower",
        "tm:seedbomb",
        "tm:sleeptalk",
        "tm:snore",
        "tm:spikes",
        "tm:steelwing",
        "tm:substitute",
        "tm:swagger",
        "tm:swift",
        "tm:thief",
        "tm:toxic",
        "tm:weatherball",
        "tutor:defog",
        "tutor:doubleedge",
        "tutor:dualwingbeat",
        "tutor:focuspunch",
        "tutor:headbutt",
        "tutor:mimic",
        "tutor:mudslap",
        "tutor:recycle",
        "tutor:rollout",
        "tutor:seismictoss",
        "tutor:signalbeam",
        "tutor:skyattack",
        "tutor:tripleaxel",
        "tutor:waterpulse"
    ],
    "labels": [
        "gen2"
    ],
    "pokedex": [
        "cobblemon.species.delibird.desc1",
        "cobblemon.species.delibird.desc2"
    ],
    "evolutions": [],
    "baseScale": 1.0,
    "hitbox": {
        "width": 1.0,
        "height": 1.0,
        "fixed": false
    },
    "baseFriendship": 50,
    "evYield": {
        "speed": 1
    },
    "height": 9,
    "weight": 160
}