{
    "name": "flaaffy",
    "nationalPokedexNumber": 180,
    "primaryType": "electric",
    "abilities": [
        "static",
        "h:plus"
    ],
    "baseStats": {
        "hp": 70,
        "attack": 55,
        "defence": 55,
        "special_attack": 80,
        "special_defence": 60,
        "speed": 45
    },
    "catchRate": 120,
    "maleRatio": 0.5,
    "shoulderMountable": false,
    "forms": [],
    "baseExperienceYield": 128,
    "experienceGroup": "mediumslow",
    "eggCycles": 20,
    "eggGroups": [
        "monster",
        "field"
    ],
    "moves": [
        "1:tackle",
        "1:growl",
        "1:thundershock",
        "1:thunderwave",
        "4:thunderwave",
        "8:thundershock",
        "11:cottonspore",
        "16:charge",
        "20:takedown",
        "25:electroball",
        "29:confuseray",
        "34:powergem",
        "38:discharge",
        "43:cottonguard",
        "47:signalbeam",
        "52:lightscreen",
        "56:thunder",
        "tm:attract",
        "tm:brickbreak",
        "tm:captivate",
        "tm:chargebeam",
        "tm:confide",
        "tm:curse",
        "tm:doubleteam",
        "tm:echoedvoice",
        "tm:endure",
        "tm:facade",
        "tm:flash",
        "tm:fling",
        "tm:frustration",
        "tm:hiddenpower",
        "tm:lightscreen",
        "tm:naturalgift",
        "tm:poweruppunch",
        "tm:protect",
        "tm:raindance",
        "tm:rest",
        "tm:return",
        "tm:rocksmash",
        "tm:round",
        "tm:safeguard",
        "tm:secretpower",
        "tm:sleeptalk",
        "tm:strength",
        "tm:substitute",
        "tm:swagger",
        "tm:thunder",
        "tm:thunderbolt",
        "tm:thunderwave",
        "tm:toxic",
        "tm:voltswitch",
        "tm:wildcharge",
        "tm:zapcannon",
        "tutor:afteryou",
        "tutor:bodyslam",
        "tutor:counter",
        "tutor:defensecurl",
        "tutor:doubleedge",
        "tutor:dynamicpunch",
        "tutor:electroweb",
        "tutor:firepunch",
        "tutor:focuspunch",
        "tutor:headbutt",
        "tutor:healbell",
        "tutor:irontail",
        "tutor:magnetrise",
        "tutor:megakick",
        "tutor:megapunch",
        "tutor:mimic",
        "tutor:seismictoss",
        "tutor:shockwave",
        "tutor:signalbeam",
        "tutor:snore",
        "tutor:swift",
        "tutor:thunderpunch"
    ],
    "labels": [
        "gen2"
    ],
    "pokedex": [
        "cobblemon.species.flaaffy.desc1",
        "cobblemon.species.flaaffy.desc2"
    ],
    "preEvolution": "mareep",
    "evolutions": [
        {
            "id": "flaaffy_ampharos",
            "variant": "level_up",
            "result": "ampharos",
            "consumeHeldItem": false,
            "learnableMoves": [],
            "requirements": [
                {
                    "variant": "level",
                    "minLevel": 30
                }
            ]
        }
    ],
    "baseScale": 1.0,
    "hitbox": {
        "width": 1.0,
        "height": 1.0,
        "fixed": false
    },
    "baseFriendship": 70,
    "evYield": {
        "special_attack": 2
    },
    "height": 8,
    "weight": 133
}