{
    "implemented": true,
    "name": "hitmontop",
    "nationalPokedexNumber": 237,
    "primaryType": "fighting",
    "abilities": [
        "intimidate",
        "technician",
        "h:steadfast"
    ],
    "baseStats": {
        "hp": 50,
        "attack": 95,
        "defence": 95,
        "special_attack": 35,
        "special_defence": 110,
        "speed": 70
    },
    "catchRate": 45,
    "maleRatio": 1.0,
    "shoulderMountable": false,
    "forms": [],
    "baseExperienceYield": 159,
    "experienceGroup": "mediumfast",
    "eggCycles": 25,
    "eggGroups": [
        "human_like"
    ],
    "moves": [
        "0:rollingkick",
        "0:triplekick",
        "1:rollingkick",
        "1:tackle",
        "1:focusenergy",
        "1:triplekick",
        "1:pursuit",
        "1:rapidspin",
        "1:fakeout",
        "1:helpinghand",
        "1:feint",
        "4:quickattack",
        "8:gyroball",
        "10:pursuit",
        "12:detect",
        "16:revenge",
        "21:wideguard",
        "21:quickguard",
        "24:suckerpunch",
        "28:agility",
        "32:dig",
        "36:closecombat",
        "40:counter",
        "44:endeavor",
        "tm:aerialace",
        "tm:agility",
        "tm:attract",
        "tm:bodyslam",
        "tm:brickbreak",
        "tm:brutalswing",
        "tm:bulkup",
        "tm:bulldoze",
        "tm:captivate",
        "tm:closecombat",
        "tm:confide",
        "tm:curse",
        "tm:dig",
        "tm:doubleteam",
        "tm:drillrun",
        "tm:earthquake",
        "tm:endure",
        "tm:facade",
        "tm:focusblast",
        "tm:focusenergy",
        "tm:frustration",
        "tm:gyroball",
        "tm:helpinghand",
        "tm:hiddenpower",
        "tm:lowkick",
        "tm:lowsweep",
        "tm:megakick",
        "tm:megapunch",
        "tm:naturalgift",
        "tm:protect",
        "tm:raindance",
        "tm:rest",
        "tm:retaliate",
        "tm:return",
        "tm:revenge",
        "tm:rockslide",
        "tm:rocksmash",
        "tm:round",
        "tm:sandstorm",
        "tm:secretpower",
        "tm:sleeptalk",
        "tm:snore",
        "tm:stoneedge",
        "tm:strength",
        "tm:substitute",
        "tm:sunnyday",
        "tm:swagger",
        "tm:swift",
        "tm:thief",
        "tm:toxic",
        "tm:uproar",
        "tm:workup",
        "tutor:coaching",
        "tutor:covet",
        "tutor:doubleedge",
        "tutor:headbutt",
        "tutor:laserfocus",
        "tutor:mimic",
        "tutor:mudslap",
        "tutor:roleplay",
        "tutor:rollout",
        "tutor:seismictoss",
        "tutor:tripleaxel",
        "tutor:twister",
        "tutor:vacuumwave"
    ],
    "labels": [
        "gen2"
    ],
    "pokedex": [
        "cobblemon.species.hitmontop.desc1",
        "cobblemon.species.hitmontop.desc2"
    ],
    "preEvolution": "tyrogue",
    "evolutions": [],
    "baseScale": 1.0,
    "hitbox": {
        "width": 0.6,
        "height": 1.4,
        "fixed": false
    },
    "baseFriendship": 50,
    "evYield": {
        "special_defence": 2
    },
    "height": 14,
    "weight": 480
}