{
    "name": "miltank",
    "nationalPokedexNumber": 241,
    "primaryType": "normal",
    "abilities": [
        "thickfat",
        "scrappy",
        "h:sapsipper"
    ],
    "baseStats": {
        "hp": 95,
        "attack": 80,
        "defence": 105,
        "special_attack": 40,
        "special_defence": 70,
        "speed": 100
    },
    "catchRate": 45,
    "maleRatio": 0.0,
    "shoulderMountable": false,
    "forms": [],
    "baseExperienceYield": 172,
    "experienceGroup": "slow",
    "eggCycles": 20,
    "eggGroups": [
        "field"
    ],
    "moves": [
        "1:tackle",
        "1:growl",
        "5:rollout",
        "10:defensecurl",
        "15:stomp",
        "15:bide",
        "20:healbell",
        "25:headbutt",
        "30:zenheadbutt",
        "35:milkdrink",
        "35:captivate",
        "40:bodyslam",
        "45:playrough",
        "50:charm",
        "50:wakeupslap",
        "55:highhorsepower",
        "egg:belch",
        "egg:curse",
        "egg:dizzypunch",
        "egg:doubleedge",
        "egg:focuspunch",
        "egg:hammerarm",
        "egg:heartstamp",
        "egg:naturalgift",
        "egg:present",
        "egg:punishment",
        "egg:seismictoss",
        "tm:attract",
        "tm:blizzard",
        "tm:bodypress",
        "tm:bodyslam",
        "tm:brickbreak",
        "tm:bulldoze",
        "tm:charm",
        "tm:confide",
        "tm:doubleteam",
        "tm:earthquake",
        "tm:echoedvoice",
        "tm:endure",
        "tm:facade",
        "tm:firepunch",
        "tm:fling",
        "tm:focusblast",
        "tm:frustration",
        "tm:gigaimpact",
        "tm:gyroball",
        "tm:heavyslam",
        "tm:helpinghand",
        "tm:hiddenpower",
        "tm:highhorsepower",
        "tm:hyperbeam",
        "tm:icebeam",
        "tm:icepunch",
        "tm:icywind",
        "tm:ironhead",
        "tm:irontail",
        "tm:megakick",
        "tm:megapunch",
        "tm:metronome",
        "tm:playrough",
        "tm:poweruppunch",
        "tm:protect",
        "tm:psychup",
        "tm:raindance",
        "tm:rest",
        "tm:retaliate",
        "tm:return",
        "tm:reversal",
        "tm:rockslide",
        "tm:rocksmash",
        "tm:rocktomb",
        "tm:round",
        "tm:sandstorm",
        "tm:secretpower",
        "tm:shadowball",
        "tm:sleeptalk",
        "tm:snore",
        "tm:solarbeam",
        "tm:stealthrock",
        "tm:stompingtantrum",
        "tm:strength",
        "tm:substitute",
        "tm:sunnyday",
        "tm:surf",
        "tm:swagger",
        "tm:sweetscent",
        "tm:thunder",
        "tm:thunderbolt",
        "tm:thunderpunch",
        "tm:thunderwave",
        "tm:toxic",
        "tm:whirlpool",
        "tm:workup",
        "tm:zapcannon",
        "tm:zenheadbutt",
        "tutor:afteryou",
        "tutor:block",
        "tutor:counter",
        "tutor:dynamicpunch",
        "tutor:mimic",
        "tutor:mudslap",
        "tutor:shockwave",
        "tutor:steelroller",
        "tutor:waterpulse"
    ],
    "labels": [
        "gen2"
    ],
    "pokedex": [
        "cobblemon.species.miltank.desc1",
        "cobblemon.species.miltank.desc2"
    ],
    "evolutions": [],
    "baseScale": 1.0,
    "hitbox": {
        "width": 1.0,
        "height": 1.0,
        "fixed": false
    },
    "baseFriendship": 50,
    "evYield": {
        "defence": 2
    },
    "height": 12,
    "weight": 755
}