{
  "implemented": true,
  "name": "slowking",
  "nationalPokedexNumber": 199,
  "primaryType": "water",
  "secondaryType": "psychic",
  "abilities": ["oblivious", "owntempo", "h:regenerator"],
  "baseStats": {
    "hp": 95,
    "attack": 75,
    "defence": 80,
    "special_attack": 100,
    "special_defence": 110,
    "speed": 30
  },
  "catchRate": 70,
  "maleRatio": 0.5,
  "shoulderMountable": false,
  "forms": [
    {
      "name": "normal"
    },
    {
      "name": "galar",
      "primaryType": "poison",
      "abilities": ["curiousmedicine", "owntempo", "h:regenerator"],
      "baseStats": {
        "hp": 95,
        "attack": 65,
        "defence": 80,
        "special_attack": 110,
        "special_defence": 110,
        "speed": 30
      },
      "moves": [
        "0:eeriespell",
        "1:tackle",
        "1:growl",
        "1:acid",
        "1:curse",
        "1:swagger",
        "1:powergem",
        "1:nastyplot",
        "1:eeriespell",
        "9:yawn",
        "12:confusion",
        "15:disable",
        "18:waterpulse",
        "21:headbutt",
        "24:zenheadbutt",
        "27:amnesia",
        "30:surf",
        "33:slackoff",
        "36:psychic",
        "39:psychup",
        "42:raindance",
        "45:healpulse",
        "tm:amnesia",
        "tm:attract",
        "tm:avalanche",
        "tm:blizzard",
        "tm:bodyslam",
        "tm:brickbreak",
        "tm:brine",
        "tm:bulldoze",
        "tm:calmmind",
        "tm:dig",
        "tm:dive",
        "tm:drainpunch",
        "tm:earthquake",
        "tm:endure",
        "tm:facade",
        "tm:fireblast",
        "tm:flamethrower",
        "tm:fling",
        "tm:focusblast",
        "tm:foulplay",
        "tm:futuresight",
        "tm:gigaimpact",
        "tm:grassknot",
        "tm:hail",
        "tm:hex",
        "tm:hydropump",
        "tm:hyperbeam",
        "tm:icebeam",
        "tm:icepunch",
        "tm:icywind",
        "tm:imprison",
        "tm:irondefense",
        "tm:irontail",
        "tm:lightscreen",
        "tm:liquidation",
        "tm:megakick",
        "tm:megapunch",
        "tm:muddywater",
        "tm:mudshot",
        "tm:nastyplot",
        "tm:payday",
        "tm:powergem",
        "tm:protect",
        "tm:psychic",
        "tm:psychicterrain",
        "tm:psyshock",
        "tm:raindance",
        "tm:razorshell",
        "tm:rest",
        "tm:round",
        "tm:safeguard",
        "tm:scald",
        "tm:shadowball",
        "tm:skillswap",
        "tm:sleeptalk",
        "tm:sludgebomb",
        "tm:sludgewave",
        "tm:snore",
        "tm:storedpower",
        "tm:substitute",
        "tm:sunnyday",
        "tm:surf",
        "tm:swift",
        "tm:thunderwave",
        "tm:triattack",
        "tm:trick",
        "tm:trickroom",
        "tm:venomdrench",
        "tm:venoshock",
        "tm:weatherball",
        "tm:whirlpool",
        "tm:wonderroom",
        "tm:zenheadbutt",
        "tutor:expandingforce"
      ],
      "pokedex": [
        "cobblemon.form.slowking-galar.desc1",
        "cobblemon.form.slowking-galar.desc2"
      ],
      "height": 18,
      "labels": ["gen2", "galar_regional", "regional"],
      "preEvolution": "slowpoke form=galar"
    }
  ],
  "baseExperienceYield": 172,
  "experienceGroup": "mediumfast",
  "eggCycles": 20,
  "eggGroups": ["monster", "water_1"],
  "behaviour": {
    "moving": {
      "swim": {
        "canSwimInWater": true,
        "canBreatheUnderwater": true
      }
    }
  },
  "moves": [
    "1:tackle",
    "1:growl",
    "1:watergun",
    "1:curse",
    "1:swagger",
    "1:hiddenpower",
    "1:powergem",
    "1:nastyplot",
    "9:yawn",
    "12:confusion",
    "15:disable",
    "18:waterpulse",
    "21:headbutt",
    "24:zenheadbutt",
    "27:amnesia",
    "30:surf",
    "33:slackoff",
    "36:psychic",
    "39:psychup",
    "42:raindance",
    "45:healpulse",
    "49:trumpcard",
    "tm:amnesia",
    "tm:attract",
    "tm:avalanche",
    "tm:blizzard",
    "tm:bodyslam",
    "tm:brickbreak",
    "tm:brine",
    "tm:bulldoze",
    "tm:calmmind",
    "tm:captivate",
    "tm:confide",
    "tm:dig",
    "tm:dive",
    "tm:doubleteam",
    "tm:dragontail",
    "tm:drainpunch",
    "tm:dreameater",
    "tm:earthquake",
    "tm:echoedvoice",
    "tm:endure",
    "tm:facade",
    "tm:fireblast",
    "tm:flamethrower",
    "tm:flash",
    "tm:fling",
    "tm:focusblast",
    "tm:foulplay",
    "tm:frustration",
    "tm:futuresight",
    "tm:gigaimpact",
    "tm:grassknot",
    "tm:hail",
    "tm:hiddenpower",
    "tm:hydropump",
    "tm:hyperbeam",
    "tm:icebeam",
    "tm:icepunch",
    "tm:icywind",
    "tm:imprison",
    "tm:incinerate",
    "tm:irondefense",
    "tm:irontail",
    "tm:lightscreen",
    "tm:liquidation",
    "tm:megakick",
    "tm:megapunch",
    "tm:muddywater",
    "tm:mudshot",
    "tm:nastyplot",
    "tm:naturalgift",
    "tm:payday",
    "tm:powergem",
    "tm:poweruppunch",
    "tm:protect",
    "tm:psychic",
    "tm:psychicterrain",
    "tm:psyshock",
    "tm:quash",
    "tm:raindance",
    "tm:razorshell",
    "tm:rest",
    "tm:return",
    "tm:rocksmash",
    "tm:round",
    "tm:safeguard",
    "tm:scald",
    "tm:secretpower",
    "tm:shadowball",
    "tm:skillswap",
    "tm:sleeptalk",
    "tm:snore",
    "tm:storedpower",
    "tm:strength",
    "tm:substitute",
    "tm:sunnyday",
    "tm:surf",
    "tm:swift",
    "tm:thunderwave",
    "tm:toxic",
    "tm:triattack",
    "tm:trick",
    "tm:trickroom",
    "tm:weatherball",
    "tm:whirlpool",
    "tm:wonderroom",
    "tm:zapcannon",
    "tm:zenheadbutt",
    "tutor:afteryou",
    "tutor:allyswitch",
    "tutor:aquatail",
    "tutor:block",
    "tutor:counter",
    "tutor:doubleedge",
    "tutor:dynamicpunch",
    "tutor:expandingforce",
    "tutor:focuspunch",
    "tutor:furycutter",
    "tutor:laserfocus",
    "tutor:magiccoat",
    "tutor:mimic",
    "tutor:mudslap",
    "tutor:nightmare",
    "tutor:recycle",
    "tutor:seismictoss",
    "tutor:signalbeam",
    "tutor:telekinesis"
  ],
  "labels": ["gen2", "johto_regional", "regional"],
  "pokedex": [
    "cobblemon.species.slowking.desc1",
    "cobblemon.species.slowking.desc2"
  ],
  "preEvolution": "slowpoke",
  "evolutions": [],
  "baseScale": 1.3,
  "hitbox": {
    "width": 0.8,
    "height": 1.8,
    "fixed": false
  },
  "baseFriendship": 50,
  "evYield": {
    "special_defence": 2
  },
  "height": 20,
  "weight": 795
}
