{
    "name": "suicune",
    "nationalPokedexNumber": 245,
    "primaryType": "water",
    "abilities": [
        "pressure",
        "h:innerfocus"
    ],
    "baseStats": {
        "hp": 100,
        "attack": 75,
        "defence": 115,
        "special_attack": 90,
        "special_defence": 115,
        "speed": 85
    },
    "catchRate": 3,
    "maleRatio": -1,
    "shoulderMountable": false,
    "forms": [],
    "baseExperienceYield": 290,
    "experienceGroup": "slow",
    "eggCycles": 80,
    "eggGroups": [
        "undiscovered"
    ],
    "moves": [
        "1:gust",
        "1:leer",
        "1:mist",
        "1:watergun",
        "1:bubblebeam",
        "1:extremespeed",
        "1:sheercold",
        "6:waterpulse",
        "8:bubblebeam",
        "12:bite",
        "18:calmmind",
        "24:roar",
        "29:aurorabeam",
        "30:icefang",
        "36:tailwind",
        "42:crunch",
        "48:extrasensory",
        "54:surf",
        "60:mirrorcoat",
        "66:raindance",
        "72:hydropump",
        "78:blizzard",
        "tm:agility",
        "tm:airslash",
        "tm:avalanche",
        "tm:blizzard",
        "tm:bodyslam",
        "tm:brine",
        "tm:bulldoze",
        "tm:calmmind",
        "tm:confide",
        "tm:crunch",
        "tm:curse",
        "tm:cut",
        "tm:detect",
        "tm:dig",
        "tm:dive",
        "tm:doubleteam",
        "tm:endure",
        "tm:facade",
        "tm:frustration",
        "tm:gigaimpact",
        "tm:hail",
        "tm:helpinghand",
        "tm:hiddenpower",
        "tm:hydropump",
        "tm:hyperbeam",
        "tm:icebeam",
        "tm:icefang",
        "tm:icywind",
        "tm:ironhead",
        "tm:irontail",
        "tm:liquidation",
        "tm:naturalgift",
        "tm:protect",
        "tm:psychup",
        "tm:quash",
        "tm:raindance",
        "tm:reflect",
        "tm:rest",
        "tm:return",
        "tm:rockclimb",
        "tm:rocksmash",
        "tm:round",
        "tm:sandstorm",
        "tm:scald",
        "tm:secretpower",
        "tm:shadowball",
        "tm:sleeptalk",
        "tm:snarl",
        "tm:snore",
        "tm:substitute",
        "tm:sunnyday",
        "tm:surf",
        "tm:swagger",
        "tm:swift",
        "tm:toxic",
        "tm:waterfall",
        "tm:weatherball",
        "tm:whirlpool",
        "tutor:doubleedge",
        "tutor:headbutt",
        "tutor:laserfocus",
        "tutor:mimic",
        "tutor:mudslap",
        "tutor:ominouswind",
        "tutor:signalbeam"
    ],
    "labels": [
        "gen2",
        "legendary"
    ],
    "pokedex": [
        "cobblemon.species.suicune.desc1",
        "cobblemon.species.suicune.desc2"
    ],
    "evolutions": [],
    "baseScale": 1.0,
    "hitbox": {
        "width": 1.0,
        "height": 1.0,
        "fixed": false
    },
    "baseFriendship": 35,
    "evYield": {
        "defence": 1,
        "special_defence": 2
    },
    "height": 20,
    "weight": 1870
}