{
    "name": "togetic",
    "nationalPokedexNumber": 176,
    "primaryType": "fairy",
    "secondaryType": "flying",
    "abilities": [
        "hustle",
        "serenegrace",
        "h:superluck"
    ],
    "baseStats": {
        "hp": 55,
        "attack": 40,
        "defence": 85,
        "special_attack": 80,
        "special_defence": 105,
        "speed": 40
    },
    "catchRate": 75,
    "maleRatio": 0.875,
    "shoulderMountable": false,
    "forms": [],
    "baseExperienceYield": 142,
    "experienceGroup": "fast",
    "eggCycles": 10,
    "eggGroups": [
        "flying",
        "fairy"
    ],
    "moves": [
        "0:fairywind",
        "1:pound",
        "1:growl",
        "1:sweetkiss",
        "1:fairywind",
        "1:lifedew",
        "12:charm",
        "16:ancientpower",
        "20:yawn",
        "24:metronome",
        "25:bestow",
        "28:afteryou",
        "32:doubleedge",
        "36:safeguard",
        "40:followme",
        "44:batonpass",
        "48:lastresort",
        "52:wish",
        "tm:aerialace",
        "tm:attract",
        "tm:batonpass",
        "tm:bodyslam",
        "tm:brickbreak",
        "tm:captivate",
        "tm:charm",
        "tm:confide",
        "tm:curse",
        "tm:dazzlinggleam",
        "tm:detect",
        "tm:doubleteam",
        "tm:drainingkiss",
        "tm:drainpunch",
        "tm:dreameater",
        "tm:echoedvoice",
        "tm:encore",
        "tm:endure",
        "tm:facade",
        "tm:fireblast",
        "tm:flamethrower",
        "tm:flash",
        "tm:fling",
        "tm:fly",
        "tm:frustration",
        "tm:futuresight",
        "tm:gigaimpact",
        "tm:grassknot",
        "tm:heatwave",
        "tm:helpinghand",
        "tm:hiddenpower",
        "tm:hyperbeam",
        "tm:hypervoice",
        "tm:imprison",
        "tm:incinerate",
        "tm:lightscreen",
        "tm:magicalleaf",
        "tm:megakick",
        "tm:megapunch",
        "tm:metronome",
        "tm:mysticalfire",
        "tm:nastyplot",
        "tm:naturalgift",
        "tm:playrough",
        "tm:protect",
        "tm:psychic",
        "tm:psychup",
        "tm:psyshock",
        "tm:raindance",
        "tm:reflect",
        "tm:rest",
        "tm:retaliate",
        "tm:return",
        "tm:rocksmash",
        "tm:roost",
        "tm:round",
        "tm:safeguard",
        "tm:secretpower",
        "tm:shadowball",
        "tm:silverwind",
        "tm:sleeptalk",
        "tm:smartstrike",
        "tm:snore",
        "tm:solarbeam",
        "tm:steelwing",
        "tm:storedpower",
        "tm:substitute",
        "tm:sunnyday",
        "tm:swagger",
        "tm:swift",
        "tm:thunderwave",
        "tm:toxic",
        "tm:triattack",
        "tm:trick",
        "tm:uproar",
        "tm:workup",
        "tm:zapcannon",
        "tm:zenheadbutt",
        "tutor:aircutter",
        "tutor:counter",
        "tutor:covet",
        "tutor:defensecurl",
        "tutor:defog",
        "tutor:dualwingbeat",
        "tutor:endeavor",
        "tutor:focuspunch",
        "tutor:headbutt",
        "tutor:healbell",
        "tutor:magiccoat",
        "tutor:mimic",
        "tutor:mudslap",
        "tutor:ominouswind",
        "tutor:rollout",
        "tutor:seismictoss",
        "tutor:shockwave",
        "tutor:signalbeam",
        "tutor:skyattack",
        "tutor:softboiled",
        "tutor:tailwind",
        "tutor:telekinesis",
        "tutor:twister",
        "tutor:waterpulse"
    ],
    "labels": [
        "gen2"
    ],
    "pokedex": [
        "cobblemon.species.togetic.desc1",
        "cobblemon.species.togetic.desc2"
    ],
    "preEvolution": "togepi",
    "evolutions": [
        {
            "id": "togetic_togekiss",
            "variant": "item_interact",
            "result": "togekiss",
            "consumeHeldItem": false,
            "learnableMoves": [],
            "requirements": [],
            "requiredContext": "cobblemon:shiny_stone"
        }
    ],
    "baseScale": 1.0,
    "hitbox": {
        "width": 1.0,
        "height": 1.0,
        "fixed": false
    },
    "baseFriendship": 50,
    "evYield": {
        "special_defence": 2
    },
    "height": 6,
    "weight": 32
}