{
    "implemented": true,
    "name": "tyrogue",
    "nationalPokedexNumber": 236,
    "primaryType": "fighting",
    "abilities": [
        "guts",
        "steadfast",
        "h:vitalspirit"
    ],
    "baseStats": {
        "hp": 35,
        "attack": 35,
        "defence": 35,
        "special_attack": 35,
        "special_defence": 35,
        "speed": 35
    },
    "catchRate": 75,
    "maleRatio": 1.0,
    "shoulderMountable": false,
    "forms": [],
    "baseExperienceYield": 42,
    "experienceGroup": "mediumfast",
    "eggCycles": 25,
    "eggGroups": [
        "undiscovered"
    ],
    "moves": [
        "1:tackle",
        "1:focusenergy",
        "1:foresight",
        "1:fakeout",
        "1:helpinghand",
        "egg:allyswitch",
        "egg:bulletpunch",
        "egg:counter",
        "egg:feint",
        "egg:highjumpkick",
        "egg:machpunch",
        "egg:mindreader",
        "egg:pursuit",
        "egg:rapidspin",
        "egg:vacuumwave",
        "tm:attract",
        "tm:bodyslam",
        "tm:brickbreak",
        "tm:bulkup",
        "tm:bulldoze",
        "tm:captivate",
        "tm:confide",
        "tm:curse",
        "tm:detect",
        "tm:doubleteam",
        "tm:earthquake",
        "tm:endure",
        "tm:facade",
        "tm:focusenergy",
        "tm:frustration",
        "tm:helpinghand",
        "tm:hiddenpower",
        "tm:lowkick",
        "tm:lowsweep",
        "tm:megakick",
        "tm:megapunch",
        "tm:naturalgift",
        "tm:protect",
        "tm:raindance",
        "tm:rest",
        "tm:retaliate",
        "tm:return",
        "tm:rockslide",
        "tm:rocksmash",
        "tm:round",
        "tm:secretpower",
        "tm:sleeptalk",
        "tm:snore",
        "tm:strength",
        "tm:substitute",
        "tm:sunnyday",
        "tm:swagger",
        "tm:swift",
        "tm:thief",
        "tm:toxic",
        "tm:uproar",
        "tm:workup",
        "tutor:covet",
        "tutor:doubleedge",
        "tutor:headbutt",
        "tutor:laserfocus",
        "tutor:mimic",
        "tutor:mudslap",
        "tutor:roleplay",
        "tutor:seismictoss"
    ],
    "labels": [
        "baby",
        "gen2"
    ],
    "pokedex": [
        "cobblemon.species.tyrogue.desc1",
        "cobblemon.species.tyrogue.desc2"
    ],
    "evolutions": [
        {
            "id": "tyrogue_hitmonlee",
            "variant": "level_up",
            "result": "hitmonlee",
            "consumeHeldItem": false,
            "learnableMoves": [],
            "requirements": [
                {
                    "variant": "attack_defence_ratio",
                    "ratio": "ATTACK_HIGHER"
                },
                {
                    "variant": "level",
                    "minLevel": 20
                }
            ]
        },
        {
            "id": "tyrogue_hitmonchan",
            "variant": "level_up",
            "result": "hitmonchan",
            "consumeHeldItem": false,
            "learnableMoves": [],
            "requirements": [
                {
                    "variant": "attack_defence_ratio",
                    "ratio": "DEFENCE_HIGHER"
                },
                {
                    "variant": "level",
                    "minLevel": 20
                }
            ]
        },
        {
            "id": "tyrogue_hitmontop",
            "variant": "level_up",
            "result": "hitmontop",
            "consumeHeldItem": false,
            "learnableMoves": [],
            "requirements": [
                {
                    "variant": "attack_defence_ratio",
                    "ratio": "EQUAL"
                },
                {
                    "variant": "level",
                    "minLevel": 20
                }
            ]
        }
    ],
    "baseScale": 0.6,
    "hitbox": {
        "width": 0.5,
        "height": 1.3,
        "fixed": false
    },
    "baseFriendship": 50,
    "evYield": {
        "attack": 1
    },
    "height": 7,
    "weight": 210
}