{
    "implemented": true,
    "name": "umbreon",
    "nationalPokedexNumber": 197,
    "primaryType": "dark",
    "abilities": [
        "synchronize",
        "h:innerfocus"
    ],
    "baseStats": {
        "hp": 95,
        "attack": 65,
        "defence": 110,
        "special_attack": 60,
        "special_defence": 130,
        "speed": 65
    },
    "catchRate": 45,
    "maleRatio": 0.875,
    "shoulderMountable": false,
    "forms": [],
    "baseExperienceYield": 184,
    "experienceGroup": "mediumfast",
    "eggCycles": 35,
    "eggGroups": [
        "field"
    ],
    "moves": [
        "0:pursuit",
        "0:snarl",
        "1:tackle",
        "1:takedown",
        "1:doubleedge",
        "1:tailwhip",
        "1:bite",
        "1:growl",
        "1:swift",
        "1:charm",
        "1:batonpass",
        "1:pursuit",
        "1:helpinghand",
        "1:covet",
        "1:copycat",
        "1:snarl",
        "5:sandattack",
        "10:quickattack",
        "15:babydolleyes",
        "20:confuseray",
        "20:feintattack",
        "25:assurance",
        "30:moonlight",
        "35:guardswap",
        "40:darkpulse",
        "45:screech",
        "50:meanlook",
        "55:lastresort",
        "tm:assurance",
        "tm:attract",
        "tm:batonpass",
        "tm:bodyslam",
        "tm:captivate",
        "tm:charm",
        "tm:confide",
        "tm:crunch",
        "tm:curse",
        "tm:cut",
        "tm:darkpulse",
        "tm:detect",
        "tm:dig",
        "tm:doubleteam",
        "tm:dreameater",
        "tm:echoedvoice",
        "tm:endure",
        "tm:facade",
        "tm:faketears",
        "tm:flash",
        "tm:focusenergy",
        "tm:foulplay",
        "tm:frustration",
        "tm:gigaimpact",
        "tm:guardswap",
        "tm:helpinghand",
        "tm:hiddenpower",
        "tm:hyperbeam",
        "tm:hypervoice",
        "tm:irontail",
        "tm:naturalgift",
        "tm:payback",
        "tm:payday",
        "tm:protect",
        "tm:psychic",
        "tm:psychup",
        "tm:raindance",
        "tm:rest",
        "tm:retaliate",
        "tm:return",
        "tm:round",
        "tm:screech",
        "tm:secretpower",
        "tm:shadowball",
        "tm:sleeptalk",
        "tm:snarl",
        "tm:snore",
        "tm:storedpower",
        "tm:substitute",
        "tm:sunnyday",
        "tm:swagger",
        "tm:swift",
        "tm:taunt",
        "tm:thief",
        "tm:throatchop",
        "tm:torment",
        "tm:toxic",
        "tm:weatherball",
        "tm:wonderroom",
        "tm:workup",
        "tm:zapcannon",
        "tutor:headbutt",
        "tutor:healbell",
        "tutor:laserfocus",
        "tutor:lashout",
        "tutor:mimic",
        "tutor:mudslap",
        "tutor:nightmare",
        "tutor:snatch",
        "tutor:spite",
        "tutor:suckerpunch"
    ],
    "labels": [
        "gen2"
    ],
    "pokedex": [
        "cobblemon.species.umbreon.desc1",
        "cobblemon.species.umbreon.desc2"
    ],
    "preEvolution": "eevee",
    "evolutions": [],
    "baseScale": 0.8,
    "hitbox": {
        "width": 0.9,
        "height": 1.1,
        "fixed": false
    },
    "baseFriendship": 35,
    "evYield": {
        "special_defence": 2
    },
    "height": 10,
    "weight": 270
}