{
    "name": "wobbuffet",
    "nationalPokedexNumber": 202,
    "primaryType": "psychic",
    "abilities": [
        "shadowtag",
        "h:telepathy"
    ],
    "baseStats": {
        "hp": 190,
        "attack": 33,
        "defence": 58,
        "special_attack": 33,
        "special_defence": 58,
        "speed": 33
    },
    "catchRate": 45,
    "maleRatio": 0.5,
    "shoulderMountable": false,
    "forms": [],
    "baseExperienceYield": 142,
    "experienceGroup": "mediumfast",
    "eggCycles": 20,
    "eggGroups": [
        "amorphous"
    ],
    "moves": [
        "0:counter",
        "0:destinybond",
        "0:safeguard",
        "0:mirrorcoat",
        "1:counter",
        "1:amnesia",
        "1:splash",
        "1:destinybond",
        "1:charm",
        "1:safeguard",
        "1:encore",
        "1:mirrorcoat",
        "tm:amnesia",
        "tm:charm",
        "tm:encore",
        "tm:safeguard"
    ],
    "labels": [
        "gen2"
    ],
    "pokedex": [
        "cobblemon.species.wobbuffet.desc1",
        "cobblemon.species.wobbuffet.desc2"
    ],
    "preEvolution": "wynaut",
    "evolutions": [],
    "baseScale": 1.0,
    "hitbox": {
        "width": 1.0,
        "height": 1.0,
        "fixed": false
    },
    "baseFriendship": 50,
    "evYield": {
        "hp": 2
    },
    "height": 13,
    "weight": 285
}