{
	"format_version": "1.8.0",
	"animations": {
		"animation.poliwhirl.ground_idle": {
			"loop": true,
			"bones": {
				"arm_right": {
					"rotation": [0, 0, -45]
				},
				"hand_right": {
					"rotation": [0, -30, 0]
				},
				"fingers_right2": {
					"rotation": [0, 0, -60]
				},
				"arm_left": {
					"rotation": [0, 0, 45]
				},
				"hand_left": {
					"rotation": [0, 30, 0]
				},
				"fingers_left2": {
					"rotation": [0, 0, 60]
				}
			}
		},
		"animation.poliwhirl.water_idle": {
			"loop": true,
			"bones": {
				"arm_right": {
					"rotation": [0, 0, -30]
				},
				"hand_right": {
					"rotation": [0, -30, 0]
				},
				"fingers_right2": {
					"rotation": [0, 0, -15]
				},
				"arm_left": {
					"rotation": [0, 0, 30]
				},
				"hand_left": {
					"rotation": [0, 30, 0]
				},
				"fingers_left2": {
					"rotation": [0, 0, 15]
				},
				"body": {
					"rotation": [15, 0, 0]
				},
				"thumb_right": {
					"rotation": [0, -30, 0]
				},
				"thumb_left": {
					"rotation": [0, 30, 0]
				},
				"leg_right": {
					"rotation": [15, 0, 0]
				},
				"leg_left": {
					"rotation": [15, 0, 0]
				},
				"foot_right1": {
					"rotation": [15, 0, 0]
				},
				"foot_left1": {
					"rotation": [15, 0, 0]
				}
			}
		},
		"animation.poliwhirl.water_swim": {
			"loop": true,
			"bones": {
				"arm_right": {
					"rotation": [10, 15, -55]
				},
				"hand_right": {
					"rotation": [0, -15, 0]
				},
				"fingers_right2": {
					"rotation": [0, 0, -60]
				},
				"arm_left": {
					"rotation": [10, -15, 55]
				},
				"hand_left": {
					"rotation": [0, 15, 0]
				},
				"fingers_left2": {
					"rotation": [0, 0, 60]
				},
				"body": {
					"rotation": [45, 0, 0]
				},
				"leg_right": {
					"rotation": [15, 0, 0]
				},
				"leg_left": {
					"rotation": [15, 0, 0]
				},
				"foot_right1": {
					"rotation": [15, 0, 0]
				},
				"foot_left1": {
					"rotation": [15, 0, 0]
				}
			}
		}
	}
}