{
	"format_version": "1.8.0",
	"animations": {
		"animation.hitmonlee.ground_idle": {
			"loop": true,
			"bones": {
				"leftarm": {
					"rotation": [0, 0, 60]
				},
				"rightarm": {
					"rotation": [0, 0, -60]
				}
			}
		}
	}
}