{
  "name": "avalugg",
  "nationalPokedexNumber": 713,
  "primaryType": "ice",
  "abilities": ["owntempo", "icebody", "h:sturdy"],
  "baseStats": {
    "hp": 95,
    "attack": 117,
    "defence": 184,
    "special_attack": 44,
    "special_defence": 46,
    "speed": 28
  },
  "catchRate": 55,
  "maleRatio": 0.5,
  "shoulderMountable": false,
  "forms": [
    {
      "name": "normal"
    },
    {
      "name": "hisui",
      "secondaryType": "rock",
      "abilities": ["strongjaw", "icebody", "h:sturdy"],
      "baseStats": {
        "hp": 95,
        "attack": 127,
        "defence": 184,
        "special_attack": 34,
        "special_defence": 36,
        "speed": 38
      },
      "moves": [
        "1:rockslide",
        "1:tackle",
        "5:powdersnow",
        "9:iceshard",
        "15:bite",
        "21:irondefense",
        "29:crunch",
        "29:earthpower",
        "37:blizzard",
        "37:mountaingale",
        "47:doubleedge",
        "tutor:bulldoze",
        "tutor:earthpower",
        "tutor:flashcannon",
        "tutor:gigaimpact",
        "tutor:highhorsepower",
        "tutor:hyperbeam",
        "tutor:iceball",
        "tutor:icebeam",
        "tutor:icefang",
        "tutor:icywind",
        "tutor:ironhead",
        "tutor:powershift",
        "tutor:rest",
        "tutor:rockslide",
        "tutor:rocksmash",
        "tutor:stealthrock",
        "tutor:stoneedge",
        "tutor:waterpulse"
      ],
      "pokedex": [
        "cobblemon.form.avalugg-hisui.desc1",
        "cobblemon.form.avalugg-hisui.desc2"
      ],
      "height": 14,
      "weight": 2624,
      "labels": ["gen6", "kalos_regional", "regional"]
    }
  ],
  "baseExperienceYield": 180,
  "experienceGroup": "mediumfast",
  "eggCycles": 20,
  "eggGroups": ["monster", "mineral"],
  "moves": [
    "0:bodyslam",
    "1:tackle",
    "1:bodyslam",
    "1:harden",
    "1:powdersnow",
    "1:rapidspin",
    "1:wideguard",
    "9:curse",
    "12:icywind",
    "15:protect",
    "18:avalanche",
    "20:sharpen",
    "21:bite",
    "24:icefang",
    "27:irondefense",
    "30:recover",
    "30:iceball",
    "33:crunch",
    "36:takedown",
    "41:blizzard",
    "46:doubleedge",
    "51:skullbash",
    "tm:attract",
    "tm:avalanche",
    "tm:blizzard",
    "tm:bodypress",
    "tm:bodyslam",
    "tm:bulldoze",
    "tm:confide",
    "tm:crunch",
    "tm:doubleteam",
    "tm:earthquake",
    "tm:endure",
    "tm:facade",
    "tm:flash",
    "tm:flashcannon",
    "tm:frostbreath",
    "tm:frustration",
    "tm:gigaimpact",
    "tm:gyroball",
    "tm:hail",
    "tm:heavyslam",
    "tm:hiddenpower",
    "tm:highhorsepower",
    "tm:hydropump",
    "tm:hyperbeam",
    "tm:icebeam",
    "tm:icefang",
    "tm:iciclespear",
    "tm:icywind",
    "tm:irondefense",
    "tm:ironhead",
    "tm:protect",
    "tm:raindance",
    "tm:rest",
    "tm:return",
    "tm:roar",
    "tm:rockpolish",
    "tm:rockslide",
    "tm:rocksmash",
    "tm:rocktomb",
    "tm:round",
    "tm:safeguard",
    "tm:secretpower",
    "tm:sleeptalk",
    "tm:snore",
    "tm:stompingtantrum",
    "tm:stoneedge",
    "tm:strength",
    "tm:substitute",
    "tm:superpower",
    "tm:surf",
    "tm:swagger",
    "tm:toxic",
    "tutor:afteryou",
    "tutor:block",
    "tutor:waterpulse"
  ],
  "labels": ["gen6", "kalos_regional", "regional"],
  "pokedex": ["cobblemon.species.avalugg.desc1", "cobblemon.species.avalugg.desc2"],
  "preEvolution": "bergmite",
  "evolutions": [],
  "baseScale": 1.0,
  "hitbox": {
    "width": 1.0,
    "height": 1.0,
    "fixed": false
  },
  "baseFriendship": 50,
  "evYield": {
    "defence": 2
  },
  "height": 20,
  "weight": 5050
}
