{
    "name": "bunnelby",
    "nationalPokedexNumber": 659,
    "primaryType": "normal",
    "abilities": [
        "pickup",
        "cheekpouch",
        "h:hugepower"
    ],
    "baseStats": {
        "hp": 38,
        "attack": 36,
        "defence": 38,
        "special_attack": 32,
        "special_defence": 36,
        "speed": 57
    },
    "catchRate": 255,
    "maleRatio": 0.5,
    "shoulderMountable": false,
    "forms": [],
    "baseExperienceYield": 47,
    "experienceGroup": "mediumfast",
    "eggCycles": 15,
    "eggGroups": [
        "field"
    ],
    "moves": [
        "1:leer",
        "1:mudslap",
        "3:tackle",
        "6:laserfocus",
        "9:quickattack",
        "10:doubleslap",
        "12:mudshot",
        "15:flail",
        "18:doublekick",
        "21:bulldoze",
        "24:dig",
        "25:odorsleuth",
        "27:bounce",
        "30:takedown",
        "33:swordsdance",
        "36:earthquake",
        "39:superfang",
        "egg:defensecurl",
        "egg:rollout",
        "tm:agility",
        "tm:attract",
        "tm:bounce",
        "tm:brickbreak",
        "tm:bulkup",
        "tm:bulldoze",
        "tm:confide",
        "tm:cut",
        "tm:dig",
        "tm:doubleteam",
        "tm:earthquake",
        "tm:endure",
        "tm:facade",
        "tm:fling",
        "tm:frustration",
        "tm:grassknot",
        "tm:hiddenpower",
        "tm:ironhead",
        "tm:irontail",
        "tm:mudshot",
        "tm:naturepower",
        "tm:payback",
        "tm:poweruppunch",
        "tm:protect",
        "tm:rest",
        "tm:return",
        "tm:rockslide",
        "tm:rocksmash",
        "tm:rocktomb",
        "tm:round",
        "tm:sandstorm",
        "tm:secretpower",
        "tm:sleeptalk",
        "tm:sludgebomb",
        "tm:smackdown",
        "tm:snore",
        "tm:spikes",
        "tm:stoneedge",
        "tm:strength",
        "tm:substitute",
        "tm:surf",
        "tm:swagger",
        "tm:swordsdance",
        "tm:thief",
        "tm:torment",
        "tm:toxic",
        "tm:uturn",
        "tm:wildcharge",
        "tm:workup",
        "tutor:endeavor",
        "tutor:lastresort",
        "tutor:recycle"
    ],
    "labels": [
        "gen6"
    ],
    "pokedex": [
        "cobblemon.species.bunnelby.desc1",
        "cobblemon.species.bunnelby.desc2"
    ],
    "evolutions": [
        {
            "id": "bunnelby_diggersby",
            "variant": "level_up",
            "result": "diggersby",
            "consumeHeldItem": false,
            "learnableMoves": [],
            "requirements": [
                {
                    "variant": "level",
                    "minLevel": 20
                }
            ]
        }
    ],
    "baseScale": 1.0,
    "hitbox": {
        "width": 1.0,
        "height": 1.0,
        "fixed": false
    },
    "baseFriendship": 50,
    "evYield": {
        "speed": 1
    },
    "height": 4,
    "weight": 50
}