{
    "name": "flabebe",
    "nationalPokedexNumber": 669,
    "primaryType": "fairy",
    "abilities": [
        "flowerveil",
        "h:symbiosis"
    ],
    "baseStats": {
        "hp": 44,
        "attack": 38,
        "defence": 39,
        "special_attack": 61,
        "special_defence": 79,
        "speed": 42
    },
    "catchRate": 225,
    "maleRatio": 0.0,
    "shoulderMountable": false,
    "forms": [],
    "baseExperienceYield": 61,
    "experienceGroup": "mediumfast",
    "eggCycles": 20,
    "eggGroups": [
        "fairy"
    ],
    "moves": [
        "1:vinewhip",
        "1:tackle",
        "6:fairywind",
        "10:luckychant",
        "15:razorleaf",
        "20:wish",
        "22:magicalleaf",
        "24:grassyterrain",
        "28:petalblizzard",
        "33:aromatherapy",
        "37:mistyterrain",
        "41:moonblast",
        "45:petaldance",
        "48:solarbeam",
        "egg:camouflage",
        "egg:captivate",
        "egg:copycat",
        "egg:tearfullook",
        "tm:attract",
        "tm:calmmind",
        "tm:confide",
        "tm:dazzlinggleam",
        "tm:doubleteam",
        "tm:echoedvoice",
        "tm:energyball",
        "tm:facade",
        "tm:flash",
        "tm:frustration",
        "tm:grassknot",
        "tm:hiddenpower",
        "tm:naturepower",
        "tm:protect",
        "tm:psychic",
        "tm:raindance",
        "tm:rest",
        "tm:return",
        "tm:round",
        "tm:safeguard",
        "tm:secretpower",
        "tm:sleeptalk",
        "tm:solarbeam",
        "tm:substitute",
        "tm:sunnyday",
        "tm:swagger",
        "tm:toxic",
        "tutor:afteryou",
        "tutor:allyswitch",
        "tutor:covet",
        "tutor:endeavor",
        "tutor:gigadrain",
        "tutor:healbell",
        "tutor:helpinghand",
        "tutor:magiccoat",
        "tutor:seedbomb",
        "tutor:snore",
        "tutor:synthesis",
        "tutor:worryseed"
    ],
    "labels": [
        "gen6"
    ],
    "pokedex": [
        "cobblemon.species.flabebe.desc1",
        "cobblemon.species.flabebe.desc2"
    ],
    "evolutions": [
        {
            "id": "flabebe_floette",
            "variant": "level_up",
            "result": "floette",
            "consumeHeldItem": false,
            "learnableMoves": [],
            "requirements": [
                {
                    "variant": "level",
                    "minLevel": 19
                }
            ]
        }
    ],
    "baseScale": 1.0,
    "hitbox": {
        "width": 1.0,
        "height": 1.0,
        "fixed": false
    },
    "baseFriendship": 70,
    "evYield": {
        "special_defence": 1
    },
    "height": 1,
    "weight": 1
}