{
    "name": "fletchinder",
    "nationalPokedexNumber": 662,
    "primaryType": "fire",
    "secondaryType": "flying",
    "abilities": [
        "flamebody",
        "h:galewings"
    ],
    "baseStats": {
        "hp": 62,
        "attack": 73,
        "defence": 55,
        "special_attack": 56,
        "special_defence": 52,
        "speed": 84
    },
    "catchRate": 120,
    "maleRatio": 0.5,
    "shoulderMountable": false,
    "forms": [],
    "baseExperienceYield": 134,
    "experienceGroup": "mediumslow",
    "eggCycles": 15,
    "eggGroups": [
        "flying"
    ],
    "moves": [
        "0:flamecharge",
        "1:tackle",
        "1:growl",
        "1:ember",
        "1:peck",
        "1:quickattack",
        "1:feint",
        "1:flamecharge",
        "15:flail",
        "22:acrobatics",
        "27:razorwind",
        "29:agility",
        "31:naturalgift",
        "36:aerialace",
        "43:tailwind",
        "46:mefirst",
        "50:steelwing",
        "57:roost",
        "64:fly",
        "tm:acrobatics",
        "tm:agility",
        "tm:attract",
        "tm:confide",
        "tm:doubleteam",
        "tm:endure",
        "tm:facade",
        "tm:fireblast",
        "tm:firespin",
        "tm:flamethrower",
        "tm:fly",
        "tm:frustration",
        "tm:heatwave",
        "tm:hiddenpower",
        "tm:incinerate",
        "tm:overheat",
        "tm:protect",
        "tm:rest",
        "tm:return",
        "tm:round",
        "tm:secretpower",
        "tm:sleeptalk",
        "tm:snore",
        "tm:steelwing",
        "tm:substitute",
        "tm:sunnyday",
        "tm:swagger",
        "tm:swift",
        "tm:swordsdance",
        "tm:taunt",
        "tm:thief",
        "tm:toxic",
        "tm:uturn",
        "tm:willowisp",
        "tm:workup",
        "tutor:defog",
        "tutor:dualwingbeat",
        "tutor:snatch"
    ],
    "labels": [
        "gen6"
    ],
    "pokedex": [
        "cobblemon.species.fletchinder.desc1",
        "cobblemon.species.fletchinder.desc2"
    ],
    "preEvolution": "fletchling",
    "evolutions": [
        {
            "id": "fletchinder_talonflame",
            "variant": "level_up",
            "result": "talonflame",
            "consumeHeldItem": false,
            "learnableMoves": [],
            "requirements": [
                {
                    "variant": "level",
                    "minLevel": 35
                }
            ]
        }
    ],
    "baseScale": 1.0,
    "hitbox": {
        "width": 1.0,
        "height": 1.0,
        "fixed": false
    },
    "baseFriendship": 50,
    "evYield": {
        "speed": 2
    },
    "height": 7,
    "weight": 160
}