{
    "name": "froakie",
    "nationalPokedexNumber": 656,
    "primaryType": "water",
    "abilities": [
        "torrent",
        "h:protean"
    ],
    "baseStats": {
        "hp": 41,
        "attack": 56,
        "defence": 40,
        "special_attack": 62,
        "special_defence": 44,
        "speed": 71
    },
    "catchRate": 45,
    "maleRatio": 0.875,
    "shoulderMountable": false,
    "forms": [],
    "baseExperienceYield": 63,
    "experienceGroup": "mediumslow",
    "eggCycles": 20,
    "eggGroups": [
        "water_1"
    ],
    "moves": [
        "1:pound",
        "1:growl",
        "5:bubble",
        "8:quickattack",
        "10:lick",
        "14:waterpulse",
        "18:smokescreen",
        "21:round",
        "25:fling",
        "29:smackdown",
        "35:substitute",
        "39:bounce",
        "43:doubleteam",
        "48:hydropump",
        "egg:bestow",
        "egg:camouflage",
        "egg:mindreader",
        "egg:mudsport",
        "egg:poweruppunch",
        "egg:toxicspikes",
        "egg:watersport",
        "tm:acrobatics",
        "tm:aerialace",
        "tm:attract",
        "tm:blizzard",
        "tm:confide",
        "tm:cut",
        "tm:dig",
        "tm:dive",
        "tm:doubleteam",
        "tm:echoedvoice",
        "tm:facade",
        "tm:fling",
        "tm:frustration",
        "tm:grassknot",
        "tm:hiddenpower",
        "tm:icebeam",
        "tm:protect",
        "tm:raindance",
        "tm:rest",
        "tm:return",
        "tm:rockslide",
        "tm:rocksmash",
        "tm:rocktomb",
        "tm:round",
        "tm:scald",
        "tm:secretpower",
        "tm:sleeptalk",
        "tm:smackdown",
        "tm:strength",
        "tm:substitute",
        "tm:surf",
        "tm:swagger",
        "tm:taunt",
        "tm:thief",
        "tm:toxic",
        "tm:uturn",
        "tm:waterfall",
        "tm:workup",
        "tutor:bounce",
        "tutor:icywind",
        "tutor:roleplay",
        "tutor:snatch",
        "tutor:snore",
        "tutor:spite",
        "tutor:waterpledge",
        "tutor:waterpulse"
    ],
    "labels": [
        "gen6"
    ],
    "pokedex": [
        "cobblemon.species.froakie.desc1",
        "cobblemon.species.froakie.desc2"
    ],
    "evolutions": [
        {
            "id": "froakie_frogadier",
            "variant": "level_up",
            "result": "frogadier",
            "consumeHeldItem": false,
            "learnableMoves": [],
            "requirements": [
                {
                    "variant": "level",
                    "minLevel": 16
                }
            ]
        }
    ],
    "baseScale": 1.0,
    "hitbox": {
        "width": 1.0,
        "height": 1.0,
        "fixed": false
    },
    "baseFriendship": 70,
    "evYield": {
        "speed": 1
    },
    "height": 3,
    "weight": 70
}