{
    "name": "furfrou",
    "nationalPokedexNumber": 676,
    "primaryType": "normal",
    "abilities": [
        "furcoat"
    ],
    "baseStats": {
        "hp": 75,
        "attack": 80,
        "defence": 60,
        "special_attack": 65,
        "special_defence": 90,
        "speed": 102
    },
    "catchRate": 160,
    "maleRatio": 0.5,
    "shoulderMountable": false,
    "forms": [],
    "baseExperienceYield": 165,
    "experienceGroup": "mediumfast",
    "eggCycles": 20,
    "eggGroups": [
        "field"
    ],
    "moves": [
        "1:tackle",
        "1:growl",
        "5:sandattack",
        "9:babydolleyes",
        "12:headbutt",
        "15:tailwhip",
        "22:bite",
        "27:odorsleuth",
        "33:retaliate",
        "35:takedown",
        "38:charm",
        "42:suckerpunch",
        "48:cottonguard",
        "egg:captivate",
        "egg:mimic",
        "egg:refresh",
        "egg:roleplay",
        "egg:workup",
        "tm:attract",
        "tm:chargebeam",
        "tm:confide",
        "tm:darkpulse",
        "tm:dig",
        "tm:doubleteam",
        "tm:echoedvoice",
        "tm:facade",
        "tm:flash",
        "tm:frustration",
        "tm:gigaimpact",
        "tm:grassknot",
        "tm:hiddenpower",
        "tm:protect",
        "tm:raindance",
        "tm:rest",
        "tm:return",
        "tm:roar",
        "tm:rocksmash",
        "tm:round",
        "tm:secretpower",
        "tm:sleeptalk",
        "tm:snarl",
        "tm:substitute",
        "tm:sunnyday",
        "tm:surf",
        "tm:swagger",
        "tm:thunderwave",
        "tm:toxic",
        "tm:uturn",
        "tm:wildcharge",
        "tm:workup",
        "tutor:endeavor",
        "tutor:helpinghand",
        "tutor:hypervoice",
        "tutor:irontail",
        "tutor:lastresort",
        "tutor:roleplay",
        "tutor:snore",
        "tutor:uproar",
        "tutor:zenheadbutt"
    ],
    "labels": [
        "gen6"
    ],
    "pokedex": [
        "cobblemon.species.furfrou.desc1",
        "cobblemon.species.furfrou.desc2"
    ],
    "evolutions": [],
    "baseScale": 1.0,
    "hitbox": {
        "width": 1.0,
        "height": 1.0,
        "fixed": false
    },
    "baseFriendship": 70,
    "evYield": {
        "speed": 1
    },
    "height": 12,
    "weight": 280
}