{
    "name": "slurpuff",
    "nationalPokedexNumber": 685,
    "primaryType": "fairy",
    "abilities": [
        "sweetveil",
        "h:unburden"
    ],
    "baseStats": {
        "hp": 82,
        "attack": 80,
        "defence": 86,
        "special_attack": 85,
        "special_defence": 75,
        "speed": 72
    },
    "catchRate": 140,
    "maleRatio": 0.5,
    "shoulderMountable": false,
    "forms": [],
    "baseExperienceYield": 168,
    "experienceGroup": "mediumfast",
    "eggCycles": 20,
    "eggGroups": [
        "fairy"
    ],
    "moves": [
        "1:tackle",
        "1:sweetscent",
        "1:fairywind",
        "1:playnice",
        "9:aromatherapy",
        "12:drainingkiss",
        "15:faketears",
        "18:round",
        "21:stringshot",
        "24:cottonspore",
        "27:energyball",
        "30:wish",
        "33:playrough",
        "36:cottonguard",
        "39:endeavor",
        "42:stickyweb",
        "tm:amnesia",
        "tm:attract",
        "tm:calmmind",
        "tm:charm",
        "tm:confide",
        "tm:dazzlinggleam",
        "tm:doubleteam",
        "tm:drainingkiss",
        "tm:drainpunch",
        "tm:dreameater",
        "tm:endure",
        "tm:energyball",
        "tm:facade",
        "tm:faketears",
        "tm:flamethrower",
        "tm:flash",
        "tm:frustration",
        "tm:gigaimpact",
        "tm:helpinghand",
        "tm:hiddenpower",
        "tm:hyperbeam",
        "tm:lightscreen",
        "tm:metronome",
        "tm:playrough",
        "tm:protect",
        "tm:psychic",
        "tm:psychup",
        "tm:raindance",
        "tm:rest",
        "tm:return",
        "tm:round",
        "tm:safeguard",
        "tm:secretpower",
        "tm:sleeptalk",
        "tm:snore",
        "tm:substitute",
        "tm:sunnyday",
        "tm:surf",
        "tm:swagger",
        "tm:thief",
        "tm:thunder",
        "tm:thunderbolt",
        "tm:toxic",
        "tutor:afteryou",
        "tutor:covet",
        "tutor:gastroacid",
        "tutor:healbell",
        "tutor:magiccoat",
        "tutor:mistyexplosion"
    ],
    "labels": [
        "gen6"
    ],
    "pokedex": [
        "cobblemon.species.slurpuff.desc1",
        "cobblemon.species.slurpuff.desc2"
    ],
    "preEvolution": "swirlix",
    "evolutions": [],
    "baseScale": 1.0,
    "hitbox": {
        "width": 1.0,
        "height": 1.0,
        "fixed": false
    },
    "baseFriendship": 50,
    "evYield": {
        "defence": 2
    },
    "height": 8,
    "weight": 50
}