{
    "name": "talonflame",
    "nationalPokedexNumber": 663,
    "primaryType": "fire",
    "secondaryType": "flying",
    "abilities": [
        "flamebody",
        "h:galewings"
    ],
    "baseStats": {
        "hp": 78,
        "attack": 81,
        "defence": 71,
        "special_attack": 74,
        "special_defence": 69,
        "speed": 126
    },
    "catchRate": 45,
    "maleRatio": 0.5,
    "shoulderMountable": false,
    "forms": [],
    "baseExperienceYield": 175,
    "experienceGroup": "mediumslow",
    "eggCycles": 15,
    "eggGroups": [
        "flying"
    ],
    "moves": [
        "1:tackle",
        "1:growl",
        "1:ember",
        "1:peck",
        "1:quickattack",
        "1:feint",
        "1:flareblitz",
        "1:flamecharge",
        "15:flail",
        "22:acrobatics",
        "27:razorwind",
        "29:agility",
        "31:naturalgift",
        "38:aerialace",
        "47:tailwind",
        "49:mefirst",
        "56:steelwing",
        "65:roost",
        "74:fly",
        "83:bravebird",
        "tm:acrobatics",
        "tm:agility",
        "tm:attract",
        "tm:bravebird",
        "tm:bulkup",
        "tm:confide",
        "tm:doubleteam",
        "tm:endure",
        "tm:facade",
        "tm:fireblast",
        "tm:firespin",
        "tm:flamethrower",
        "tm:flareblitz",
        "tm:fly",
        "tm:frustration",
        "tm:gigaimpact",
        "tm:heatwave",
        "tm:hiddenpower",
        "tm:honeclaws",
        "tm:hurricane",
        "tm:hyperbeam",
        "tm:incinerate",
        "tm:overheat",
        "tm:protect",
        "tm:rest",
        "tm:return",
        "tm:round",
        "tm:secretpower",
        "tm:sleeptalk",
        "tm:snore",
        "tm:solarbeam",
        "tm:steelwing",
        "tm:substitute",
        "tm:sunnyday",
        "tm:swagger",
        "tm:swift",
        "tm:swordsdance",
        "tm:taunt",
        "tm:thief",
        "tm:toxic",
        "tm:uturn",
        "tm:willowisp",
        "tm:workup",
        "tutor:defog",
        "tutor:dualwingbeat",
        "tutor:snatch"
    ],
    "labels": [
        "gen6"
    ],
    "pokedex": [
        "cobblemon.species.talonflame.desc1",
        "cobblemon.species.talonflame.desc2"
    ],
    "preEvolution": "fletchinder",
    "evolutions": [],
    "baseScale": 1.0,
    "hitbox": {
        "width": 1.0,
        "height": 1.0,
        "fixed": false
    },
    "baseFriendship": 50,
    "evYield": {
        "speed": 3
    },
    "height": 12,
    "weight": 245
}