{
    "name": "trevenant",
    "nationalPokedexNumber": 709,
    "primaryType": "ghost",
    "secondaryType": "grass",
    "abilities": [
        "naturalcure",
        "frisk",
        "h:harvest"
    ],
    "baseStats": {
        "hp": 85,
        "attack": 110,
        "defence": 76,
        "special_attack": 65,
        "special_defence": 82,
        "speed": 56
    },
    "catchRate": 60,
    "maleRatio": 0.5,
    "shoulderMountable": false,
    "forms": [],
    "baseExperienceYield": 166,
    "experienceGroup": "mediumfast",
    "eggCycles": 20,
    "eggGroups": [
        "grass",
        "amorphous"
    ],
    "moves": [
        "0:shadowclaw",
        "1:tackle",
        "1:leechseed",
        "1:astonish",
        "1:shadowclaw",
        "1:branchpoke",
        "12:confuseray",
        "16:willowisp",
        "19:feintattack",
        "20:hex",
        "24:growth",
        "28:hornleech",
        "32:curse",
        "36:phantomforce",
        "40:ingrain",
        "44:woodhammer",
        "48:destinybond",
        "52:forestscurse",
        "tm:allyswitch",
        "tm:attract",
        "tm:brutalswing",
        "tm:bulldoze",
        "tm:calmmind",
        "tm:confide",
        "tm:cut",
        "tm:darkpulse",
        "tm:dig",
        "tm:doubleteam",
        "tm:drainpunch",
        "tm:dreameater",
        "tm:earthquake",
        "tm:endure",
        "tm:energyball",
        "tm:facade",
        "tm:focusblast",
        "tm:foulplay",
        "tm:frustration",
        "tm:gigadrain",
        "tm:gigaimpact",
        "tm:grassknot",
        "tm:hex",
        "tm:hiddenpower",
        "tm:honeclaws",
        "tm:hyperbeam",
        "tm:imprison",
        "tm:leafstorm",
        "tm:magicalleaf",
        "tm:naturepower",
        "tm:phantomforce",
        "tm:poisonjab",
        "tm:poweruppunch",
        "tm:protect",
        "tm:psychic",
        "tm:reflect",
        "tm:rest",
        "tm:return",
        "tm:rockslide",
        "tm:rocksmash",
        "tm:round",
        "tm:safeguard",
        "tm:secretpower",
        "tm:seedbomb",
        "tm:shadowball",
        "tm:shadowclaw",
        "tm:skillswap",
        "tm:sleeptalk",
        "tm:snore",
        "tm:solarbeam",
        "tm:strength",
        "tm:substitute",
        "tm:sunnyday",
        "tm:swagger",
        "tm:thief",
        "tm:toxic",
        "tm:trick",
        "tm:trickroom",
        "tm:venomdrench",
        "tm:willowisp",
        "tm:xscissor",
        "tutor:block",
        "tutor:grassyglide",
        "tutor:magiccoat",
        "tutor:painsplit",
        "tutor:poltergeist",
        "tutor:roleplay",
        "tutor:skittersmack",
        "tutor:spite",
        "tutor:telekinesis",
        "tutor:worryseed"
    ],
    "labels": [
        "gen6"
    ],
    "pokedex": [
        "cobblemon.species.trevenant.desc1",
        "cobblemon.species.trevenant.desc2"
    ],
    "preEvolution": "phantump",
    "evolutions": [],
    "baseScale": 1.0,
    "hitbox": {
        "width": 1.0,
        "height": 1.0,
        "fixed": false
    },
    "baseFriendship": 50,
    "evYield": {
        "attack": 2
    },
    "height": 15,
    "weight": 710
}