{
	"format_version": "1.8.0",
	"animations": {
		"animation.scizor.ground_idle": {
			"loop": true,
			"bones": {
				"body": {
					"position": [0, -0.75, 3]
				},
				"torso_middle": {
					"rotation": [5, 0, 0]
				},
				"torso_top": {
					"rotation": [10, 0, 0]
				},
				"neck": {
					"rotation": [-5, 0, 0]
				},
				"forearm_right": {
					"rotation": [30, -30, -60]
				},
				"forearm_right2": {
					"rotation": [0, -15, 30]
				},
				"claw_jaw_right": {
					"rotation": [0, 0, -30]
				},
				"forearm_left": {
					"rotation": [30, 30, 60]
				},
				"forearm_left2": {
					"rotation": [0, 15, -30]
				},
				"claw_jaw_left": {
					"rotation": [0, 0, 30]
				},
				"wing_top_right": {
					"rotation": [45, -45, 0]
				},
				"wing_bottom_right": {
					"rotation": [0, -45, 0]
				},
				"wing_top_left": {
					"rotation": [40, 45, 0]
				},
				"wing_bottom_left": {
					"rotation": [0, 45, 0]
				},
				"knee_right": {
					"rotation": [-30, 15, 0]
				},
				"foot_right": {
					"rotation": [30, 0, 0]
				},
				"knee_left": {
					"rotation": [-30, -15, 0]
				},
				"foot_left": {
					"rotation": [30, 0, 0]
				}
			}
		},
		"animation.scizor.air_idle": {
			"loop": true,
			"bones": {
				"body": {
					"rotation": [5, 0, 0],
					"position": [0, -0.75, 3]
				},
				"torso_middle": {
					"rotation": [5, 0, 0]
				},
				"torso_top": {
					"rotation": [10, 0, 0]
				},
				"neck": {
					"rotation": [-10, 0, 0]
				},
				"forearm_right": {
					"rotation": [45, -15, -55]
				},
				"forearm_right2": {
					"rotation": [0, -15, 15]
				},
				"claw_jaw_right": {
					"rotation": [0, 0, -17.5]
				},
				"forearm_left": {
					"rotation": [45, 15, 55]
				},
				"forearm_left2": {
					"rotation": [0, 15, -15]
				},
				"claw_jaw_left": {
					"rotation": [0, 0, 15]
				},
				"wing_top_right": {
					"rotation": [45, -45, 0]
				},
				"wing_bottom_right": {
					"rotation": [-30, -45, 0]
				},
				"wing_top_left": {
					"rotation": [40, 45, 0]
				},
				"wing_bottom_left": {
					"rotation": [-30, 45, 0]
				},
				"knee_right": {
					"rotation": [-15, 15, 0]
				},
				"foot_right": {
					"rotation": [30, 0, 0]
				},
				"knee_left": {
					"rotation": [-15, -15, 0]
				},
				"foot_left": {
					"rotation": [30, 0, 0]
				},
				"head": {
					"rotation": [-5, 0, 0]
				}
			}
		},
		"animation.scizor.air_fly": {
			"loop": true,
			"bones": {
				"body": {
					"rotation": [30, 0, 0],
					"position": [0, -0.75, 3]
				},
				"torso_middle": {
					"rotation": [5, 0, 0]
				},
				"torso_top": {
					"rotation": [10, 0, 0]
				},
				"neck": {
					"rotation": [-15, 0, 0]
				},
				"forearm_right": {
					"rotation": [75, 0, -55]
				},
				"forearm_right2": {
					"rotation": [0, -15, 15]
				},
				"claw_jaw_right": {
					"rotation": [0, 0, -17.5]
				},
				"forearm_left": {
					"rotation": [75, 0, 55]
				},
				"forearm_left2": {
					"rotation": [0, 15, -15]
				},
				"claw_jaw_left": {
					"rotation": [0, 0, 15]
				},
				"wing_top_right": {
					"rotation": [30, -45, 0]
				},
				"wing_bottom_right": {
					"rotation": [-30, -45, 0]
				},
				"wing_top_left": {
					"rotation": [30, 45, 0]
				},
				"wing_bottom_left": {
					"rotation": [-30, 45, 0]
				},
				"knee_right": {
					"rotation": [0, 15, 0]
				},
				"foot_right": {
					"rotation": [30, 0, 0]
				},
				"knee_left": {
					"rotation": [0, -15, 0]
				},
				"foot_left": {
					"rotation": [30, 0, 0]
				},
				"head": {
					"rotation": [-25, 0, 0]
				}
			}
		}
	}
}