{
    "name": "amoonguss",
    "nationalPokedexNumber": 591,
    "primaryType": "grass",
    "secondaryType": "poison",
    "abilities": [
        "effectspore",
        "h:regenerator"
    ],
    "baseStats": {
        "hp": 114,
        "attack": 85,
        "defence": 70,
        "special_attack": 85,
        "special_defence": 80,
        "speed": 30
    },
    "catchRate": 75,
    "maleRatio": 0.5,
    "shoulderMountable": false,
    "forms": [],
    "baseExperienceYield": 162,
    "experienceGroup": "mediumfast",
    "eggCycles": 20,
    "eggGroups": [
        "grass"
    ],
    "moves": [
        "1:absorb",
        "1:growth",
        "1:stunspore",
        "1:bide",
        "1:astonish",
        "12:megadrain",
        "12:bide",
        "16:synthesis",
        "20:feintattack",
        "20:clearsmog",
        "24:sweetscent",
        "28:gigadrain",
        "32:ingrain",
        "36:toxic",
        "42:ragepowder",
        "48:solarbeam",
        "54:spore",
        "tm:attract",
        "tm:bodyslam",
        "tm:confide",
        "tm:doubleteam",
        "tm:endure",
        "tm:energyball",
        "tm:facade",
        "tm:flash",
        "tm:foulplay",
        "tm:frustration",
        "tm:gigadrain",
        "tm:gigaimpact",
        "tm:grassknot",
        "tm:grassyterrain",
        "tm:hex",
        "tm:hiddenpower",
        "tm:hyperbeam",
        "tm:naturepower",
        "tm:payback",
        "tm:pollenpuff",
        "tm:protect",
        "tm:raindance",
        "tm:rest",
        "tm:return",
        "tm:round",
        "tm:secretpower",
        "tm:seedbomb",
        "tm:sleeptalk",
        "tm:sludgebomb",
        "tm:snore",
        "tm:solarbeam",
        "tm:stompingtantrum",
        "tm:substitute",
        "tm:sunnyday",
        "tm:swagger",
        "tm:venoshock",
        "tutor:afteryou",
        "tutor:gastroacid",
        "tutor:worryseed"
    ],
    "labels": [
        "gen5"
    ],
    "pokedex": [
        "cobblemon.species.amoonguss.desc1",
        "cobblemon.species.amoonguss.desc2"
    ],
    "preEvolution": "foongus",
    "evolutions": [],
    "baseScale": 1.0,
    "hitbox": {
        "width": 1.0,
        "height": 1.0,
        "fixed": false
    },
    "baseFriendship": 50,
    "evYield": {
        "hp": 2
    },
    "height": 6,
    "weight": 105
}