{
    "name": "bisharp",
    "nationalPokedexNumber": 625,
    "primaryType": "dark",
    "secondaryType": "steel",
    "abilities": [
        "defiant",
        "innerfocus",
        "h:pressure"
    ],
    "baseStats": {
        "hp": 65,
        "attack": 125,
        "defence": 100,
        "special_attack": 60,
        "special_defence": 70,
        "speed": 70
    },
    "catchRate": 45,
    "maleRatio": 0.5,
    "shoulderMountable": false,
    "forms": [],
    "baseExperienceYield": 172,
    "experienceGroup": "mediumfast",
    "eggCycles": 20,
    "eggGroups": [
        "human_like"
    ],
    "moves": [
        "1:scratch",
        "1:leer",
        "1:furycutter",
        "1:metalclaw",
        "1:metalburst",
        "15:torment",
        "17:feintattack",
        "20:scaryface",
        "25:assurance",
        "30:metalsound",
        "35:slash",
        "40:nightslash",
        "41:embargo",
        "45:irondefense",
        "50:laserfocus",
        "57:ironhead",
        "64:swordsdance",
        "71:guillotine",
        "tm:aerialace",
        "tm:airslash",
        "tm:assurance",
        "tm:attract",
        "tm:beatup",
        "tm:brickbreak",
        "tm:confide",
        "tm:cut",
        "tm:darkpulse",
        "tm:dig",
        "tm:doubleteam",
        "tm:embargo",
        "tm:endure",
        "tm:facade",
        "tm:falseswipe",
        "tm:fling",
        "tm:focusblast",
        "tm:foulplay",
        "tm:frustration",
        "tm:gigaimpact",
        "tm:grassknot",
        "tm:hiddenpower",
        "tm:honeclaws",
        "tm:hyperbeam",
        "tm:irondefense",
        "tm:ironhead",
        "tm:lowkick",
        "tm:lowsweep",
        "tm:payback",
        "tm:poisonjab",
        "tm:poweruppunch",
        "tm:protect",
        "tm:psychocut",
        "tm:raindance",
        "tm:rest",
        "tm:retaliate",
        "tm:return",
        "tm:revenge",
        "tm:rockpolish",
        "tm:rocksmash",
        "tm:rocktomb",
        "tm:round",
        "tm:sandstorm",
        "tm:scaryface",
        "tm:screech",
        "tm:secretpower",
        "tm:shadowclaw",
        "tm:sleeptalk",
        "tm:snarl",
        "tm:snore",
        "tm:stealthrock",
        "tm:stoneedge",
        "tm:substitute",
        "tm:swagger",
        "tm:swordsdance",
        "tm:taunt",
        "tm:thief",
        "tm:throatchop",
        "tm:thunderwave",
        "tm:toxic",
        "tm:xscissor",
        "tutor:dualchop",
        "tutor:knockoff",
        "tutor:lashout",
        "tutor:magnetrise",
        "tutor:roleplay",
        "tutor:snatch",
        "tutor:spite",
        "tutor:steelbeam"
    ],
    "labels": [
        "gen5"
    ],
    "pokedex": [
        "cobblemon.species.bisharp.desc1",
        "cobblemon.species.bisharp.desc2"
    ],
    "preEvolution": "pawniard",
    "evolutions": [],
    "baseScale": 1.0,
    "hitbox": {
        "width": 1.0,
        "height": 1.0,
        "fixed": false
    },
    "baseFriendship": 35,
    "evYield": {
        "attack": 2
    },
    "height": 16,
    "weight": 700
}