{
  "name": "braviary",
  "nationalPokedexNumber": 628,
  "primaryType": "normal",
  "secondaryType": "flying",
  "abilities": ["keeneye", "sheerforce", "h:defiant"],
  "baseStats": {
    "hp": 100,
    "attack": 123,
    "defence": 75,
    "special_attack": 57,
    "special_defence": 75,
    "speed": 80
  },
  "catchRate": 60,
  "maleRatio": 1.0,
  "shoulderMountable": false,
  "forms": [
    {
      "name": "normal"
    },
    {
      "name": "hisui",
      "primaryType": "psychic",
      "baseStats": {
        "hp": 110,
        "attack": 83,
        "defence": 70,
        "special_attack": 112,
        "special_defence": 70,
        "speed": 65
      },
      "moves": [
        "1:quickattack",
        "6:aerialace",
        "11:twister",
        "18:slash",
        "20:airslash",
        "25:esperwing",
        "25:roost",
        "34:doubleedge",
        "43:bravebird",
        "52:hurricane",
        "tutor:aerialace",
        "tutor:bulkup",
        "tutor:dazzlinggleam",
        "tutor:gigaimpact",
        "tutor:hyperbeam",
        "tutor:mysticalfire",
        "tutor:ominouswind",
        "tutor:powershift",
        "tutor:psychic",
        "tutor:rest",
        "tutor:rockslide",
        "tutor:rocksmash",
        "tutor:shadowclaw",
        "tutor:swift",
        "tutor:zenheadbutt"
      ],
      "pokedex": [
        "cobblemon.form.braviary-hisui.desc1",
        "cobblemon.form.braviary-hisui.desc2"
      ],
      "height": 17,
      "weight": 434,
      "labels": ["gen5", "hisui_regional", "regional"]
    }
  ],
  "baseExperienceYield": 179,
  "experienceGroup": "slow",
  "eggCycles": 20,
  "eggGroups": ["flying"],
  "moves": [
    "0:superpower",
    "1:wingattack",
    "1:furyattack",
    "1:leer",
    "1:peck",
    "1:skyattack",
    "1:superpower",
    "1:honeclaws",
    "5:furyattack",
    "18:tailwind",
    "24:scaryface",
    "30:aerialace",
    "36:slash",
    "42:whirlwind",
    "48:crushclaw",
    "50:skydrop",
    "57:airslash",
    "64:defog",
    "72:thrash",
    "80:bravebird",
    "tm:agility",
    "tm:airslash",
    "tm:assurance",
    "tm:attract",
    "tm:bravebird",
    "tm:bulkup",
    "tm:closecombat",
    "tm:confide",
    "tm:cut",
    "tm:doubleteam",
    "tm:endure",
    "tm:facade",
    "tm:fly",
    "tm:frustration",
    "tm:gigaimpact",
    "tm:heatwave",
    "tm:hiddenpower",
    "tm:hurricane",
    "tm:hyperbeam",
    "tm:ironhead",
    "tm:pluck",
    "tm:protect",
    "tm:raindance",
    "tm:rest",
    "tm:retaliate",
    "tm:return",
    "tm:rockslide",
    "tm:rocksmash",
    "tm:rocktomb",
    "tm:roost",
    "tm:round",
    "tm:scaryface",
    "tm:secretpower",
    "tm:shadowclaw",
    "tm:skydrop",
    "tm:sleeptalk",
    "tm:snore",
    "tm:steelwing",
    "tm:strength",
    "tm:substitute",
    "tm:sunnyday",
    "tm:superpower",
    "tm:swagger",
    "tm:swift",
    "tm:toxic",
    "tm:uturn",
    "tm:workup",
    "tm:zenheadbutt",
    "tutor:dualwingbeat",
    "tutor:laserfocus"
  ],
  "labels": ["gen5", "unova_regional", "regional"],
  "pokedex": [
    "cobblemon.species.braviary.desc1",
    "cobblemon.species.braviary.desc2"
  ],
  "preEvolution": "rufflet",
  "evolutions": [],
  "baseScale": 1.0,
  "hitbox": {
    "width": 1.0,
    "height": 1.0,
    "fixed": false
  },
  "baseFriendship": 50,
  "evYield": {
    "attack": 2
  },
  "height": 15,
  "weight": 410
}
