{
    "name": "cobalion",
    "nationalPokedexNumber": 638,
    "primaryType": "steel",
    "secondaryType": "fighting",
    "abilities": [
        "justified"
    ],
    "baseStats": {
        "hp": 91,
        "attack": 90,
        "defence": 129,
        "special_attack": 90,
        "special_defence": 72,
        "speed": 108
    },
    "catchRate": 3,
    "maleRatio": -1,
    "shoulderMountable": false,
    "forms": [],
    "baseExperienceYield": 290,
    "experienceGroup": "slow",
    "eggCycles": 80,
    "eggGroups": [
        "undiscovered"
    ],
    "moves": [
        "1:leer",
        "1:quickattack",
        "1:helpinghand",
        "1:workup",
        "7:metalclaw",
        "14:quickguard",
        "21:doublekick",
        "28:retaliate",
        "35:metalburst",
        "42:takedown",
        "49:sacredsword",
        "56:swordsdance",
        "63:ironhead",
        "70:closecombat",
        "tm:aerialace",
        "tm:airslash",
        "tm:bounce",
        "tm:brickbreak",
        "tm:calmmind",
        "tm:closecombat",
        "tm:confide",
        "tm:cut",
        "tm:doubleteam",
        "tm:endure",
        "tm:facade",
        "tm:falseswipe",
        "tm:flashcannon",
        "tm:focusblast",
        "tm:frustration",
        "tm:gigaimpact",
        "tm:helpinghand",
        "tm:hiddenpower",
        "tm:honeclaws",
        "tm:hyperbeam",
        "tm:irondefense",
        "tm:ironhead",
        "tm:megahorn",
        "tm:poisonjab",
        "tm:protect",
        "tm:psychup",
        "tm:reflect",
        "tm:rest",
        "tm:retaliate",
        "tm:return",
        "tm:revenge",
        "tm:reversal",
        "tm:roar",
        "tm:rockpolish",
        "tm:rocksmash",
        "tm:round",
        "tm:safeguard",
        "tm:sandstorm",
        "tm:scaryface",
        "tm:secretpower",
        "tm:sleeptalk",
        "tm:smartstrike",
        "tm:snore",
        "tm:stealthrock",
        "tm:stoneedge",
        "tm:strength",
        "tm:substitute",
        "tm:superpower",
        "tm:swagger",
        "tm:swift",
        "tm:swordsdance",
        "tm:taunt",
        "tm:thunderwave",
        "tm:toxic",
        "tm:voltswitch",
        "tm:workup",
        "tm:xscissor",
        "tm:zenheadbutt",
        "tutor:block",
        "tutor:coaching",
        "tutor:laserfocus",
        "tutor:magnetrise",
        "tutor:steelbeam"
    ],
    "labels": [
        "gen5",
        "legendary"
    ],
    "pokedex": [
        "cobblemon.species.cobalion.desc1",
        "cobblemon.species.cobalion.desc2"
    ],
    "evolutions": [],
    "baseScale": 1.0,
    "hitbox": {
        "width": 1.0,
        "height": 1.0,
        "fixed": false
    },
    "baseFriendship": 35,
    "evYield": {
        "defence": 3
    },
    "height": 21,
    "weight": 2500
}