{
    "name": "cottonee",
    "nationalPokedexNumber": 546,
    "primaryType": "grass",
    "secondaryType": "fairy",
    "abilities": [
        "prankster",
        "infiltrator",
        "h:chlorophyll"
    ],
    "baseStats": {
        "hp": 40,
        "attack": 27,
        "defence": 60,
        "special_attack": 37,
        "special_defence": 50,
        "speed": 66
    },
    "catchRate": 190,
    "maleRatio": 0.5,
    "shoulderMountable": false,
    "forms": [],
    "baseExperienceYield": 56,
    "experienceGroup": "mediumfast",
    "eggCycles": 20,
    "eggGroups": [
        "fairy",
        "grass"
    ],
    "moves": [
        "1:absorb",
        "1:helpinghand",
        "3:fairywind",
        "6:stunspore",
        "12:megadrain",
        "15:razorleaf",
        "18:growth",
        "21:poisonpowder",
        "24:gigadrain",
        "27:charm",
        "30:leechseed",
        "33:cottonspore",
        "36:energyball",
        "39:sunnyday",
        "42:endeavor",
        "45:cottonguard",
        "48:solarbeam",
        "egg:captivate",
        "egg:grasswhistle",
        "egg:memento",
        "egg:naturalgift",
        "egg:naturepower",
        "egg:switcheroo",
        "egg:tickle",
        "egg:worryseed",
        "tm:attract",
        "tm:beatup",
        "tm:charm",
        "tm:confide",
        "tm:dazzlinggleam",
        "tm:doubleteam",
        "tm:dreameater",
        "tm:encore",
        "tm:endure",
        "tm:energyball",
        "tm:facade",
        "tm:faketears",
        "tm:flash",
        "tm:frustration",
        "tm:gigadrain",
        "tm:grassknot",
        "tm:grassyterrain",
        "tm:helpinghand",
        "tm:hiddenpower",
        "tm:mistyterrain",
        "tm:protect",
        "tm:rest",
        "tm:return",
        "tm:round",
        "tm:safeguard",
        "tm:secretpower",
        "tm:seedbomb",
        "tm:sleeptalk",
        "tm:snore",
        "tm:solarbeam",
        "tm:substitute",
        "tm:sunnyday",
        "tm:swagger",
        "tm:swift",
        "tm:taunt",
        "tm:toxic",
        "tutor:covet",
        "tutor:defog",
        "tutor:grassyglide",
        "tutor:knockoff",
        "tutor:tailwind"
    ],
    "labels": [
        "gen5"
    ],
    "pokedex": [
        "cobblemon.species.cottonee.desc1",
        "cobblemon.species.cottonee.desc2"
    ],
    "evolutions": [
        {
            "id": "cottonee_whimsicott",
            "variant": "item_interact",
            "result": "whimsicott",
            "consumeHeldItem": false,
            "learnableMoves": [],
            "requirements": [],
            "requiredContext": "cobblemon:sun_stone"
        }
    ],
    "baseScale": 1.0,
    "hitbox": {
        "width": 1.0,
        "height": 1.0,
        "fixed": false
    },
    "baseFriendship": 50,
    "evYield": {
        "speed": 1
    },
    "height": 3,
    "weight": 6
}