{
    "name": "drilbur",
    "nationalPokedexNumber": 529,
    "primaryType": "ground",
    "abilities": [
        "sandrush",
        "sandforce",
        "h:moldbreaker"
    ],
    "baseStats": {
        "hp": 60,
        "attack": 85,
        "defence": 40,
        "special_attack": 30,
        "special_defence": 45,
        "speed": 68
    },
    "catchRate": 120,
    "maleRatio": 0.5,
    "shoulderMountable": false,
    "forms": [],
    "baseExperienceYield": 66,
    "experienceGroup": "mediumfast",
    "eggCycles": 20,
    "eggGroups": [
        "field"
    ],
    "moves": [
        "1:mudslap",
        "1:rapidspin",
        "1:mudsport",
        "4:scratch",
        "8:honeclaws",
        "12:furyswipes",
        "16:metalclaw",
        "20:sandstorm",
        "24:crushclaw",
        "28:rockslide",
        "32:dig",
        "36:swordsdance",
        "40:drillrun",
        "44:earthquake",
        "48:fissure",
        "egg:metalsound",
        "egg:rockclimb",
        "egg:skullbash",
        "egg:slash",
        "egg:submission",
        "tm:aerialace",
        "tm:attract",
        "tm:brickbreak",
        "tm:bulldoze",
        "tm:confide",
        "tm:cut",
        "tm:dig",
        "tm:doubleteam",
        "tm:drillrun",
        "tm:earthpower",
        "tm:earthquake",
        "tm:endure",
        "tm:facade",
        "tm:fling",
        "tm:frustration",
        "tm:hiddenpower",
        "tm:highhorsepower",
        "tm:irondefense",
        "tm:mudshot",
        "tm:poisonjab",
        "tm:protect",
        "tm:rest",
        "tm:return",
        "tm:rockslide",
        "tm:rocksmash",
        "tm:rocktomb",
        "tm:round",
        "tm:sandstorm",
        "tm:sandtomb",
        "tm:secretpower",
        "tm:shadowclaw",
        "tm:sleeptalk",
        "tm:sludgebomb",
        "tm:snore",
        "tm:stealthrock",
        "tm:strength",
        "tm:substitute",
        "tm:swagger",
        "tm:swordsdance",
        "tm:toxic",
        "tm:xscissor",
        "tutor:scorchingsands"
    ],
    "labels": [
        "gen5"
    ],
    "pokedex": [
        "cobblemon.species.drilbur.desc1",
        "cobblemon.species.drilbur.desc2"
    ],
    "evolutions": [
        {
            "id": "drilbur_excadrill",
            "variant": "level_up",
            "result": "excadrill",
            "consumeHeldItem": false,
            "learnableMoves": [],
            "requirements": [
                {
                    "variant": "level",
                    "minLevel": 31
                }
            ]
        }
    ],
    "baseScale": 1.0,
    "hitbox": {
        "width": 1.0,
        "height": 1.0,
        "fixed": false
    },
    "baseFriendship": 50,
    "evYield": {
        "attack": 1
    },
    "height": 3,
    "weight": 85
}