{
    "name": "duosion",
    "nationalPokedexNumber": 578,
    "primaryType": "psychic",
    "abilities": [
        "overcoat",
        "magicguard",
        "h:regenerator"
    ],
    "baseStats": {
        "hp": 65,
        "attack": 40,
        "defence": 50,
        "special_attack": 125,
        "special_defence": 60,
        "speed": 30
    },
    "catchRate": 100,
    "maleRatio": 0.5,
    "shoulderMountable": false,
    "forms": [],
    "baseExperienceYield": 130,
    "experienceGroup": "mediumslow",
    "eggCycles": 20,
    "eggGroups": [
        "amorphous"
    ],
    "moves": [
        "1:confusion",
        "1:recover",
        "1:psywave",
        "1:protect",
        "1:rollout",
        "1:endeavor",
        "1:snatch",
        "7:rollout",
        "10:snatch",
        "12:psybeam",
        "14:hiddenpower",
        "16:charm",
        "20:psyshock",
        "24:lightscreen",
        "24:reflect",
        "28:allyswitch",
        "35:painsplit",
        "40:psychic",
        "46:skillswap",
        "50:healblock",
        "52:futuresight",
        "58:wonderroom",
        "tm:allyswitch",
        "tm:attract",
        "tm:calmmind",
        "tm:charm",
        "tm:confide",
        "tm:doubleteam",
        "tm:dreameater",
        "tm:embargo",
        "tm:encore",
        "tm:endure",
        "tm:energyball",
        "tm:explosion",
        "tm:facade",
        "tm:flash",
        "tm:flashcannon",
        "tm:frustration",
        "tm:futuresight",
        "tm:guardswap",
        "tm:gyroball",
        "tm:helpinghand",
        "tm:hiddenpower",
        "tm:imprison",
        "tm:infestation",
        "tm:irondefense",
        "tm:lightscreen",
        "tm:powerswap",
        "tm:protect",
        "tm:psychic",
        "tm:psychicterrain",
        "tm:psychup",
        "tm:psyshock",
        "tm:raindance",
        "tm:reflect",
        "tm:rest",
        "tm:return",
        "tm:rockslide",
        "tm:rocktomb",
        "tm:round",
        "tm:safeguard",
        "tm:secretpower",
        "tm:shadowball",
        "tm:skillswap",
        "tm:sleeptalk",
        "tm:snore",
        "tm:storedpower",
        "tm:substitute",
        "tm:swagger",
        "tm:thunder",
        "tm:thunderwave",
        "tm:toxic",
        "tm:trick",
        "tm:trickroom",
        "tm:wonderroom",
        "tm:zenheadbutt",
        "tutor:afteryou",
        "tutor:expandingforce",
        "tutor:gravity",
        "tutor:magiccoat",
        "tutor:roleplay",
        "tutor:shockwave",
        "tutor:signalbeam",
        "tutor:snatch",
        "tutor:steelroller",
        "tutor:telekinesis"
    ],
    "labels": [
        "gen5"
    ],
    "pokedex": [
        "cobblemon.species.duosion.desc1",
        "cobblemon.species.duosion.desc2"
    ],
    "preEvolution": "solosis",
    "evolutions": [
        {
            "id": "duosion_reuniclus",
            "variant": "level_up",
            "result": "reuniclus",
            "consumeHeldItem": false,
            "learnableMoves": [],
            "requirements": [
                {
                    "variant": "level",
                    "minLevel": 41
                }
            ]
        }
    ],
    "baseScale": 1.0,
    "hitbox": {
        "width": 1.0,
        "height": 1.0,
        "fixed": false
    },
    "baseFriendship": 50,
    "evYield": {
        "special_attack": 2
    },
    "height": 6,
    "weight": 80
}