{
    "name": "eelektrik",
    "nationalPokedexNumber": 603,
    "primaryType": "electric",
    "abilities": [
        "levitate"
    ],
    "baseStats": {
        "hp": 65,
        "attack": 85,
        "defence": 70,
        "special_attack": 75,
        "special_defence": 70,
        "speed": 40
    },
    "catchRate": 60,
    "maleRatio": 0.5,
    "shoulderMountable": false,
    "forms": [],
    "baseExperienceYield": 142,
    "experienceGroup": "slow",
    "eggCycles": 20,
    "eggGroups": [
        "amorphous"
    ],
    "moves": [
        "0:crunch",
        "1:headbutt",
        "1:thunderwave",
        "1:spark",
        "1:crunch",
        "1:chargebeam",
        "9:bind",
        "19:acid",
        "29:discharge",
        "44:thunderbolt",
        "49:acidspray",
        "54:coil",
        "59:wildcharge",
        "64:gastroacid",
        "69:zapcannon",
        "74:thrash",
        "tm:acrobatics",
        "tm:attract",
        "tm:chargebeam",
        "tm:confide",
        "tm:doubleteam",
        "tm:facade",
        "tm:flash",
        "tm:flashcannon",
        "tm:frustration",
        "tm:hiddenpower",
        "tm:lightscreen",
        "tm:protect",
        "tm:raindance",
        "tm:rest",
        "tm:return",
        "tm:round",
        "tm:secretpower",
        "tm:sleeptalk",
        "tm:substitute",
        "tm:swagger",
        "tm:thunder",
        "tm:thunderbolt",
        "tm:thunderwave",
        "tm:toxic",
        "tm:uturn",
        "tm:voltswitch",
        "tm:wildcharge",
        "tutor:aquatail",
        "tutor:bind",
        "tutor:bounce",
        "tutor:gastroacid",
        "tutor:gigadrain",
        "tutor:irontail",
        "tutor:knockoff",
        "tutor:magnetrise",
        "tutor:shockwave",
        "tutor:signalbeam",
        "tutor:snore",
        "tutor:superfang",
        "tutor:throatchop"
    ],
    "labels": [
        "gen5"
    ],
    "pokedex": [
        "cobblemon.species.eelektrik.desc1",
        "cobblemon.species.eelektrik.desc2"
    ],
    "preEvolution": "tynamo",
    "evolutions": [
        {
            "id": "eelektrik_eelektross",
            "variant": "item_interact",
            "result": "eelektross",
            "consumeHeldItem": false,
            "learnableMoves": [],
            "requirements": [],
            "requiredContext": "cobblemon:thunder_stone"
        }
    ],
    "baseScale": 1.0,
    "hitbox": {
        "width": 1.0,
        "height": 1.0,
        "fixed": false
    },
    "baseFriendship": 70,
    "evYield": {
        "attack": 2
    },
    "height": 12,
    "weight": 220
}