{
    "implemented": true,
    "name": "emolga",
    "nationalPokedexNumber": 587,
    "primaryType": "electric",
    "secondaryType": "flying",
    "abilities": [
        "static",
        "h:motordrive"
    ],
    "baseStats": {
        "hp": 55,
        "attack": 75,
        "defence": 60,
        "special_attack": 75,
        "special_defence": 60,
        "speed": 103
    },
    "catchRate": 200,
    "maleRatio": 0.5,
    "shoulderMountable": false,
    "forms": [],
    "baseExperienceYield": 150,
    "experienceGroup": "mediumfast",
    "eggCycles": 20,
    "eggGroups": [
        "field"
    ],
    "behaviour": {
        "moving": {
            "fly": {
                "canFly": true
            }
        }
    },
    "moves": [
        "1:tailwhip",
        "1:nuzzle",
        "5:doubleteam",
        "10:quickattack",
        "15:thundershock",
        "16:pursuit",
        "20:charge",
        "25:acrobatics",
        "30:spark",
        "35:encore",
        "40:voltswitch",
        "45:lightscreen",
        "50:discharge",
        "55:agility",
        "egg:astonish",
        "egg:covet",
        "egg:defog",
        "egg:iondeluge",
        "egg:roost",
        "egg:shockwave",
        "egg:tickle",
        "tm:acrobatics",
        "tm:aerialace",
        "tm:agility",
        "tm:airslash",
        "tm:attract",
        "tm:batonpass",
        "tm:chargebeam",
        "tm:charm",
        "tm:confide",
        "tm:cut",
        "tm:eerieimpulse",
        "tm:electroball",
        "tm:electroweb",
        "tm:encore",
        "tm:endure",
        "tm:energyball",
        "tm:facade",
        "tm:flash",
        "tm:fling",
        "tm:frustration",
        "tm:helpinghand",
        "tm:hiddenpower",
        "tm:irontail",
        "tm:lightscreen",
        "tm:protect",
        "tm:raindance",
        "tm:rest",
        "tm:return",
        "tm:round",
        "tm:secretpower",
        "tm:sleeptalk",
        "tm:snore",
        "tm:solarbeam",
        "tm:speedswap",
        "tm:substitute",
        "tm:swagger",
        "tm:swift",
        "tm:taunt",
        "tm:thunder",
        "tm:thunderbolt",
        "tm:thunderwave",
        "tm:toxic",
        "tm:uturn",
        "tm:voltswitch",
        "tm:wildcharge",
        "tutor:dualwingbeat",
        "tutor:knockoff",
        "tutor:lastresort",
        "tutor:risingvoltage",
        "tutor:signalbeam",
        "tutor:tailwind"
    ],
    "labels": [
        "gen5"
    ],
    "pokedex": [
        "cobblemon.species.emolga.desc1",
        "cobblemon.species.emolga.desc2"
    ],
    "evolutions": [],
    "baseScale": 0.5,
    "hitbox": {
        "width": 0.9,
        "height": 1.0,
        "fixed": false
    },
    "baseFriendship": 50,
    "evYield": {
        "speed": 2
    },
    "height": 4,
    "weight": 50
}