{
    "name": "excadrill",
    "nationalPokedexNumber": 530,
    "primaryType": "ground",
    "secondaryType": "steel",
    "abilities": [
        "sandrush",
        "sandforce",
        "h:moldbreaker"
    ],
    "baseStats": {
        "hp": 110,
        "attack": 135,
        "defence": 60,
        "special_attack": 50,
        "special_defence": 65,
        "speed": 88
    },
    "catchRate": 60,
    "maleRatio": 0.5,
    "shoulderMountable": false,
    "forms": [],
    "baseExperienceYield": 178,
    "experienceGroup": "mediumfast",
    "eggCycles": 20,
    "eggGroups": [
        "field"
    ],
    "moves": [
        "0:horndrill",
        "1:scratch",
        "1:horndrill",
        "1:mudslap",
        "1:rapidspin",
        "1:mudsport",
        "1:honeclaws",
        "1:rototiller",
        "12:furyswipes",
        "16:metalclaw",
        "20:sandstorm",
        "24:crushclaw",
        "26:slash",
        "28:rockslide",
        "34:dig",
        "40:swordsdance",
        "46:drillrun",
        "52:earthquake",
        "58:fissure",
        "tm:aerialace",
        "tm:attract",
        "tm:brickbreak",
        "tm:brutalswing",
        "tm:bulldoze",
        "tm:confide",
        "tm:cut",
        "tm:dig",
        "tm:doubleteam",
        "tm:drillrun",
        "tm:earthpower",
        "tm:earthquake",
        "tm:endure",
        "tm:facade",
        "tm:fling",
        "tm:focusblast",
        "tm:frustration",
        "tm:gigaimpact",
        "tm:hiddenpower",
        "tm:highhorsepower",
        "tm:hyperbeam",
        "tm:irondefense",
        "tm:ironhead",
        "tm:mudshot",
        "tm:poisonjab",
        "tm:protect",
        "tm:rest",
        "tm:return",
        "tm:rockblast",
        "tm:rockslide",
        "tm:rocksmash",
        "tm:rocktomb",
        "tm:round",
        "tm:sandstorm",
        "tm:sandtomb",
        "tm:secretpower",
        "tm:shadowclaw",
        "tm:sleeptalk",
        "tm:sludgebomb",
        "tm:smartstrike",
        "tm:snore",
        "tm:stealthrock",
        "tm:stompingtantrum",
        "tm:strength",
        "tm:substitute",
        "tm:swagger",
        "tm:swordsdance",
        "tm:toxic",
        "tm:xscissor",
        "tutor:magnetrise",
        "tutor:scorchingsands",
        "tutor:steelbeam"
    ],
    "labels": [
        "gen5"
    ],
    "pokedex": [
        "cobblemon.species.excadrill.desc1",
        "cobblemon.species.excadrill.desc2"
    ],
    "preEvolution": "drilbur",
    "evolutions": [],
    "baseScale": 1.0,
    "hitbox": {
        "width": 1.0,
        "height": 1.0,
        "fixed": false
    },
    "baseFriendship": 50,
    "evYield": {
        "attack": 2
    },
    "height": 7,
    "weight": 404
}