{
    "name": "galvantula",
    "nationalPokedexNumber": 596,
    "primaryType": "bug",
    "secondaryType": "electric",
    "abilities": [
        "compoundeyes",
        "unnerve",
        "h:swarm"
    ],
    "baseStats": {
        "hp": 70,
        "attack": 77,
        "defence": 60,
        "special_attack": 97,
        "special_defence": 60,
        "speed": 108
    },
    "catchRate": 75,
    "maleRatio": 0.5,
    "shoulderMountable": false,
    "forms": [],
    "baseExperienceYield": 165,
    "experienceGroup": "mediumfast",
    "eggCycles": 20,
    "eggGroups": [
        "bug"
    ],
    "moves": [
        "0:stickyweb",
        "1:absorb",
        "1:spiderweb",
        "1:furycutter",
        "1:bugbite",
        "1:electroweb",
        "1:stickyweb",
        "12:stringshot",
        "16:thunderwave",
        "20:electroball",
        "24:agility",
        "28:suckerpunch",
        "32:slash",
        "34:signalbeam",
        "39:discharge",
        "44:screech",
        "50:gastroacid",
        "56:bugbuzz",
        "tm:agility",
        "tm:attract",
        "tm:bounce",
        "tm:bugbuzz",
        "tm:chargebeam",
        "tm:confide",
        "tm:crosspoison",
        "tm:cut",
        "tm:doubleteam",
        "tm:electroball",
        "tm:electroweb",
        "tm:endure",
        "tm:energyball",
        "tm:facade",
        "tm:flash",
        "tm:frustration",
        "tm:gigadrain",
        "tm:gigaimpact",
        "tm:hiddenpower",
        "tm:hyperbeam",
        "tm:infestation",
        "tm:leechlife",
        "tm:lightscreen",
        "tm:pinmissile",
        "tm:poisonjab",
        "tm:protect",
        "tm:raindance",
        "tm:rest",
        "tm:return",
        "tm:round",
        "tm:screech",
        "tm:secretpower",
        "tm:sleeptalk",
        "tm:snore",
        "tm:speedswap",
        "tm:strugglebug",
        "tm:substitute",
        "tm:swagger",
        "tm:swift",
        "tm:thief",
        "tm:throatchop",
        "tm:thunder",
        "tm:thunderbolt",
        "tm:thunderwave",
        "tm:toxic",
        "tm:voltswitch",
        "tm:wildcharge",
        "tm:xscissor",
        "tutor:magnetrise",
        "tutor:risingvoltage",
        "tutor:shockwave",
        "tutor:signalbeam",
        "tutor:skittersmack"
    ],
    "labels": [
        "gen5"
    ],
    "pokedex": [
        "cobblemon.species.galvantula.desc1",
        "cobblemon.species.galvantula.desc2"
    ],
    "preEvolution": "joltik",
    "evolutions": [],
    "baseScale": 1.0,
    "hitbox": {
        "width": 1.0,
        "height": 1.0,
        "fixed": false
    },
    "baseFriendship": 50,
    "evYield": {
        "speed": 2
    },
    "height": 8,
    "weight": 143
}