{
    "name": "gothita",
    "nationalPokedexNumber": 574,
    "primaryType": "psychic",
    "abilities": [
        "frisk",
        "competitive",
        "h:shadowtag"
    ],
    "baseStats": {
        "hp": 45,
        "attack": 30,
        "defence": 50,
        "special_attack": 55,
        "special_defence": 65,
        "speed": 45
    },
    "catchRate": 200,
    "maleRatio": 0.25,
    "shoulderMountable": false,
    "forms": [],
    "baseExperienceYield": 58,
    "experienceGroup": "mediumslow",
    "eggCycles": 20,
    "eggGroups": [
        "human_like"
    ],
    "moves": [
        "1:pound",
        "1:confusion",
        "4:playnice",
        "8:tickle",
        "12:psybeam",
        "14:doubleslap",
        "16:charm",
        "19:embargo",
        "20:psyshock",
        "24:hypnosis",
        "24:feintattack",
        "28:faketears",
        "33:psychup",
        "33:healblock",
        "36:psychic",
        "40:flatter",
        "40:telekinesis",
        "44:futuresight",
        "48:magicroom",
        "egg:captivate",
        "egg:fakeout",
        "egg:healpulse",
        "egg:meanlook",
        "egg:miracleeye",
        "egg:mirrorcoat",
        "egg:torment",
        "tm:allyswitch",
        "tm:attract",
        "tm:calmmind",
        "tm:chargebeam",
        "tm:charm",
        "tm:confide",
        "tm:darkpulse",
        "tm:doubleteam",
        "tm:dreameater",
        "tm:embargo",
        "tm:endure",
        "tm:energyball",
        "tm:facade",
        "tm:faketears",
        "tm:flash",
        "tm:fling",
        "tm:foulplay",
        "tm:frustration",
        "tm:futuresight",
        "tm:grassknot",
        "tm:guardswap",
        "tm:helpinghand",
        "tm:hiddenpower",
        "tm:lightscreen",
        "tm:magicroom",
        "tm:nastyplot",
        "tm:payback",
        "tm:protect",
        "tm:psychic",
        "tm:psyshock",
        "tm:raindance",
        "tm:reflect",
        "tm:rest",
        "tm:return",
        "tm:rockslide",
        "tm:rocktomb",
        "tm:round",
        "tm:safeguard",
        "tm:secretpower",
        "tm:shadowball",
        "tm:skillswap",
        "tm:sleeptalk",
        "tm:snore",
        "tm:storedpower",
        "tm:substitute",
        "tm:swagger",
        "tm:taunt",
        "tm:thief",
        "tm:thunderbolt",
        "tm:thunderwave",
        "tm:toxic",
        "tm:trick",
        "tm:trickroom",
        "tm:uproar",
        "tm:zenheadbutt",
        "tutor:covet",
        "tutor:expandingforce",
        "tutor:gravity",
        "tutor:healbell",
        "tutor:magiccoat",
        "tutor:recycle",
        "tutor:roleplay",
        "tutor:shockwave",
        "tutor:signalbeam",
        "tutor:snatch",
        "tutor:telekinesis"
    ],
    "labels": [
        "gen5"
    ],
    "pokedex": [
        "cobblemon.species.gothita.desc1",
        "cobblemon.species.gothita.desc2"
    ],
    "evolutions": [
        {
            "id": "gothita_gothorita",
            "variant": "level_up",
            "result": "gothorita",
            "consumeHeldItem": false,
            "learnableMoves": [],
            "requirements": [
                {
                    "variant": "level",
                    "minLevel": 32
                }
            ]
        }
    ],
    "baseScale": 1.0,
    "hitbox": {
        "width": 1.0,
        "height": 1.0,
        "fixed": false
    },
    "baseFriendship": 50,
    "evYield": {
        "special_defence": 1
    },
    "height": 4,
    "weight": 58
}