{
    "name": "krookodile",
    "nationalPokedexNumber": 553,
    "primaryType": "ground",
    "secondaryType": "dark",
    "abilities": [
        "intimidate",
        "moxie",
        "h:angerpoint"
    ],
    "baseStats": {
        "hp": 95,
        "attack": 117,
        "defence": 80,
        "special_attack": 65,
        "special_defence": 70,
        "speed": 92
    },
    "catchRate": 45,
    "maleRatio": 0.5,
    "shoulderMountable": false,
    "forms": [],
    "baseExperienceYield": 260,
    "experienceGroup": "mediumslow",
    "eggCycles": 20,
    "eggGroups": [
        "field"
    ],
    "moves": [
        "1:sandattack",
        "1:leer",
        "1:rage",
        "1:honeclaws",
        "1:powertrip",
        "9:sandtomb",
        "12:scaryface",
        "15:bite",
        "18:torment",
        "19:mudslap",
        "21:dig",
        "22:embargo",
        "24:swagger",
        "27:crunch",
        "32:sandstorm",
        "35:foulplay",
        "44:earthquake",
        "51:thrash",
        "58:outrage",
        "tm:aerialace",
        "tm:assurance",
        "tm:attract",
        "tm:beatup",
        "tm:bodyslam",
        "tm:brickbreak",
        "tm:brutalswing",
        "tm:bulkup",
        "tm:bulldoze",
        "tm:closecombat",
        "tm:confide",
        "tm:crunch",
        "tm:cut",
        "tm:darkestlariat",
        "tm:darkpulse",
        "tm:dig",
        "tm:doubleteam",
        "tm:dragonclaw",
        "tm:dragonpulse",
        "tm:dragontail",
        "tm:earthpower",
        "tm:earthquake",
        "tm:embargo",
        "tm:endure",
        "tm:facade",
        "tm:firefang",
        "tm:fling",
        "tm:focusblast",
        "tm:focusenergy",
        "tm:foulplay",
        "tm:frustration",
        "tm:gigaimpact",
        "tm:grassknot",
        "tm:hiddenpower",
        "tm:highhorsepower",
        "tm:hyperbeam",
        "tm:incinerate",
        "tm:irontail",
        "tm:lowkick",
        "tm:lowsweep",
        "tm:megakick",
        "tm:megapunch",
        "tm:outrage",
        "tm:payback",
        "tm:poweruppunch",
        "tm:protect",
        "tm:rest",
        "tm:retaliate",
        "tm:return",
        "tm:revenge",
        "tm:roar",
        "tm:rockslide",
        "tm:rocksmash",
        "tm:rocktomb",
        "tm:round",
        "tm:sandstorm",
        "tm:sandtomb",
        "tm:scaryface",
        "tm:secretpower",
        "tm:shadowclaw",
        "tm:sleeptalk",
        "tm:sludgebomb",
        "tm:smackdown",
        "tm:snarl",
        "tm:snore",
        "tm:stealthrock",
        "tm:stompingtantrum",
        "tm:stoneedge",
        "tm:strength",
        "tm:substitute",
        "tm:superpower",
        "tm:taunt",
        "tm:thief",
        "tm:throatchop",
        "tm:thunderfang",
        "tm:toxic",
        "tm:uproar",
        "tutor:aquatail",
        "tutor:block",
        "tutor:focuspunch",
        "tutor:knockoff",
        "tutor:lashout",
        "tutor:scaleshot",
        "tutor:scorchingsands",
        "tutor:skittersmack",
        "tutor:snatch",
        "tutor:spite"
    ],
    "labels": [
        "gen5"
    ],
    "pokedex": [
        "cobblemon.species.krookodile.desc1",
        "cobblemon.species.krookodile.desc2"
    ],
    "preEvolution": "krokorok",
    "evolutions": [],
    "baseScale": 1.0,
    "hitbox": {
        "width": 1.0,
        "height": 1.0,
        "fixed": false
    },
    "baseFriendship": 50,
    "evYield": {
        "attack": 3
    },
    "height": 15,
    "weight": 963
}