{
    "name": "liepard",
    "nationalPokedexNumber": 510,
    "primaryType": "dark",
    "abilities": [
        "limber",
        "unburden",
        "h:prankster"
    ],
    "baseStats": {
        "hp": 64,
        "attack": 88,
        "defence": 50,
        "special_attack": 88,
        "special_defence": 50,
        "speed": 106
    },
    "catchRate": 90,
    "maleRatio": 0.5,
    "shoulderMountable": false,
    "forms": [],
    "baseExperienceYield": 156,
    "experienceGroup": "mediumfast",
    "eggCycles": 20,
    "eggGroups": [
        "field"
    ],
    "moves": [
        "1:scratch",
        "1:sandattack",
        "1:growl",
        "1:fakeout",
        "1:assist",
        "6:assist",
        "12:furyswipes",
        "15:pursuit",
        "16:torment",
        "23:assurance",
        "28:honeclaws",
        "34:slash",
        "34:suckerpunch",
        "40:nastyplot",
        "46:nightslash",
        "47:snatch",
        "52:playrough",
        "tm:aerialace",
        "tm:assurance",
        "tm:attract",
        "tm:batonpass",
        "tm:charm",
        "tm:confide",
        "tm:cut",
        "tm:darkpulse",
        "tm:doubleteam",
        "tm:dreameater",
        "tm:echoedvoice",
        "tm:embargo",
        "tm:encore",
        "tm:endure",
        "tm:facade",
        "tm:faketears",
        "tm:foulplay",
        "tm:frustration",
        "tm:gigaimpact",
        "tm:grassknot",
        "tm:gunkshot",
        "tm:hiddenpower",
        "tm:hyperbeam",
        "tm:hypervoice",
        "tm:irontail",
        "tm:nastyplot",
        "tm:payback",
        "tm:payday",
        "tm:playrough",
        "tm:protect",
        "tm:psychocut",
        "tm:psychup",
        "tm:raindance",
        "tm:rest",
        "tm:return",
        "tm:rocksmash",
        "tm:round",
        "tm:screech",
        "tm:secretpower",
        "tm:seedbomb",
        "tm:shadowball",
        "tm:shadowclaw",
        "tm:sleeptalk",
        "tm:snarl",
        "tm:snore",
        "tm:substitute",
        "tm:sunnyday",
        "tm:swagger",
        "tm:swift",
        "tm:taunt",
        "tm:thief",
        "tm:throatchop",
        "tm:thunderwave",
        "tm:toxic",
        "tm:trick",
        "tm:uturn",
        "tutor:burningjealousy",
        "tutor:covet",
        "tutor:knockoff",
        "tutor:laserfocus",
        "tutor:lashout",
        "tutor:roleplay",
        "tutor:skittersmack",
        "tutor:snatch",
        "tutor:spite"
    ],
    "labels": [
        "gen5"
    ],
    "pokedex": [
        "cobblemon.species.liepard.desc1",
        "cobblemon.species.liepard.desc2"
    ],
    "preEvolution": "purrloin",
    "evolutions": [],
    "baseScale": 1.0,
    "hitbox": {
        "width": 1.0,
        "height": 1.0,
        "fixed": false
    },
    "baseFriendship": 50,
    "evYield": {
        "speed": 2
    },
    "height": 11,
    "weight": 375
}