{
    "name": "reshiram",
    "nationalPokedexNumber": 643,
    "primaryType": "dragon",
    "secondaryType": "fire",
    "abilities": [
        "turboblaze"
    ],
    "baseStats": {
        "hp": 100,
        "attack": 120,
        "defence": 100,
        "special_attack": 150,
        "special_defence": 120,
        "speed": 90
    },
    "catchRate": 3,
    "maleRatio": -1,
    "shoulderMountable": false,
    "forms": [],
    "baseExperienceYield": 340,
    "experienceGroup": "slow",
    "eggCycles": 120,
    "eggGroups": [
        "undiscovered"
    ],
    "moves": [
        "1:dragonrage",
        "1:dragonbreath",
        "1:ancientpower",
        "1:firefang",
        "1:nobleroar",
        "8:slash",
        "16:crunch",
        "24:extrasensory",
        "32:dragonpulse",
        "40:flamethrower",
        "48:fusionflare",
        "56:hypervoice",
        "64:fireblast",
        "72:imprison",
        "80:outrage",
        "88:blueflare",
        "tm:bodypress",
        "tm:breakingswipe",
        "tm:brutalswing",
        "tm:confide",
        "tm:crunch",
        "tm:cut",
        "tm:doubleteam",
        "tm:dragonclaw",
        "tm:dragondance",
        "tm:dragonpulse",
        "tm:dragontail",
        "tm:earthpower",
        "tm:echoedvoice",
        "tm:endure",
        "tm:facade",
        "tm:fireblast",
        "tm:firefang",
        "tm:flamecharge",
        "tm:flamethrower",
        "tm:flareblitz",
        "tm:fling",
        "tm:fly",
        "tm:focusblast",
        "tm:frustration",
        "tm:gigaimpact",
        "tm:heatcrash",
        "tm:heatwave",
        "tm:helpinghand",
        "tm:hiddenpower",
        "tm:honeclaws",
        "tm:hyperbeam",
        "tm:hypervoice",
        "tm:imprison",
        "tm:incinerate",
        "tm:lightscreen",
        "tm:mysticalfire",
        "tm:outrage",
        "tm:overheat",
        "tm:payback",
        "tm:protect",
        "tm:psychic",
        "tm:raindance",
        "tm:reflect",
        "tm:rest",
        "tm:return",
        "tm:rockslide",
        "tm:rocksmash",
        "tm:rocktomb",
        "tm:roost",
        "tm:round",
        "tm:safeguard",
        "tm:secretpower",
        "tm:shadowball",
        "tm:shadowclaw",
        "tm:sleeptalk",
        "tm:snore",
        "tm:solarbeam",
        "tm:steelwing",
        "tm:stoneedge",
        "tm:strength",
        "tm:substitute",
        "tm:sunnyday",
        "tm:swagger",
        "tm:swift",
        "tm:toxic",
        "tm:weatherball",
        "tm:willowisp",
        "tm:zenheadbutt",
        "tutor:defog",
        "tutor:dracometeor",
        "tutor:dualwingbeat",
        "tutor:laserfocus",
        "tutor:scaleshot",
        "tutor:scorchingsands",
        "tutor:tailwind"
    ],
    "labels": [
        "gen5",
        "legendary"
    ],
    "pokedex": [
        "cobblemon.species.reshiram.desc1",
        "cobblemon.species.reshiram.desc2"
    ],
    "evolutions": [],
    "baseScale": 1.0,
    "hitbox": {
        "width": 1.0,
        "height": 1.0,
        "fixed": false
    },
    "baseFriendship": 0,
    "evYield": {
        "special_attack": 3
    },
    "height": 32,
    "weight": 3300
}