{
    "name": "sigilyph",
    "nationalPokedexNumber": 561,
    "primaryType": "psychic",
    "secondaryType": "flying",
    "abilities": [
        "wonderskin",
        "magicguard",
        "h:tintedlens"
    ],
    "baseStats": {
        "hp": 72,
        "attack": 58,
        "defence": 80,
        "special_attack": 103,
        "special_defence": 80,
        "speed": 97
    },
    "catchRate": 45,
    "maleRatio": 0.5,
    "shoulderMountable": false,
    "forms": [],
    "baseExperienceYield": 172,
    "experienceGroup": "mediumfast",
    "eggCycles": 20,
    "eggGroups": [
        "flying"
    ],
    "moves": [
        "1:gust",
        "1:confusion",
        "1:miracleeye",
        "5:gravity",
        "8:psywave",
        "10:hypnosis",
        "15:aircutter",
        "20:psybeam",
        "25:whirlwind",
        "30:cosmicpower",
        "31:synchronoise",
        "34:mirrormove",
        "35:airslash",
        "40:psychic",
        "45:tailwind",
        "50:lightscreen",
        "50:reflect",
        "55:skyattack",
        "60:skillswap",
        "egg:ancientpower",
        "egg:psychoshift",
        "egg:roost",
        "tm:aerialace",
        "tm:airslash",
        "tm:attract",
        "tm:calmmind",
        "tm:chargebeam",
        "tm:confide",
        "tm:cosmicpower",
        "tm:darkpulse",
        "tm:dazzlinggleam",
        "tm:doubleteam",
        "tm:dreameater",
        "tm:endure",
        "tm:energyball",
        "tm:facade",
        "tm:flash",
        "tm:flashcannon",
        "tm:fly",
        "tm:frustration",
        "tm:futuresight",
        "tm:gigaimpact",
        "tm:heatwave",
        "tm:hiddenpower",
        "tm:hyperbeam",
        "tm:icebeam",
        "tm:icywind",
        "tm:imprison",
        "tm:lightscreen",
        "tm:magicroom",
        "tm:pluck",
        "tm:powerswap",
        "tm:protect",
        "tm:psychic",
        "tm:psychocut",
        "tm:psychup",
        "tm:psyshock",
        "tm:raindance",
        "tm:reflect",
        "tm:rest",
        "tm:return",
        "tm:round",
        "tm:safeguard",
        "tm:secretpower",
        "tm:shadowball",
        "tm:skillswap",
        "tm:sleeptalk",
        "tm:smackdown",
        "tm:snore",
        "tm:solarbeam",
        "tm:speedswap",
        "tm:steelwing",
        "tm:storedpower",
        "tm:substitute",
        "tm:swagger",
        "tm:swift",
        "tm:thief",
        "tm:thunderwave",
        "tm:toxic",
        "tm:trick",
        "tm:trickroom",
        "tm:zenheadbutt",
        "tutor:defog",
        "tutor:dualwingbeat",
        "tutor:expandingforce",
        "tutor:magiccoat",
        "tutor:shockwave",
        "tutor:signalbeam",
        "tutor:telekinesis"
    ],
    "labels": [
        "gen5"
    ],
    "pokedex": [
        "cobblemon.species.sigilyph.desc1",
        "cobblemon.species.sigilyph.desc2"
    ],
    "evolutions": [],
    "baseScale": 1.0,
    "hitbox": {
        "width": 1.0,
        "height": 1.0,
        "fixed": false
    },
    "baseFriendship": 50,
    "evYield": {
        "special_attack": 2
    },
    "height": 14,
    "weight": 140
}