{
    "name": "zekrom",
    "nationalPokedexNumber": 644,
    "primaryType": "dragon",
    "secondaryType": "electric",
    "abilities": [
        "teravolt"
    ],
    "baseStats": {
        "hp": 100,
        "attack": 150,
        "defence": 120,
        "special_attack": 120,
        "special_defence": 100,
        "speed": 90
    },
    "catchRate": 3,
    "maleRatio": -1,
    "shoulderMountable": false,
    "forms": [],
    "baseExperienceYield": 340,
    "experienceGroup": "slow",
    "eggCycles": 120,
    "eggGroups": [
        "undiscovered"
    ],
    "moves": [
        "1:dragonrage",
        "1:dragonbreath",
        "1:ancientpower",
        "1:thunderfang",
        "1:nobleroar",
        "8:slash",
        "16:crunch",
        "24:zenheadbutt",
        "32:dragonclaw",
        "40:thunderbolt",
        "48:fusionbolt",
        "56:hypervoice",
        "64:thunder",
        "72:imprison",
        "80:outrage",
        "88:boltstrike",
        "tm:bodypress",
        "tm:breakingswipe",
        "tm:brutalswing",
        "tm:chargebeam",
        "tm:confide",
        "tm:crunch",
        "tm:cut",
        "tm:doubleteam",
        "tm:dragonclaw",
        "tm:dragondance",
        "tm:dragonpulse",
        "tm:dragontail",
        "tm:earthpower",
        "tm:echoedvoice",
        "tm:electroball",
        "tm:endure",
        "tm:facade",
        "tm:flash",
        "tm:flashcannon",
        "tm:fling",
        "tm:fly",
        "tm:focusblast",
        "tm:frustration",
        "tm:gigaimpact",
        "tm:helpinghand",
        "tm:hiddenpower",
        "tm:honeclaws",
        "tm:hyperbeam",
        "tm:hypervoice",
        "tm:imprison",
        "tm:lightscreen",
        "tm:outrage",
        "tm:payback",
        "tm:protect",
        "tm:psychic",
        "tm:raindance",
        "tm:reflect",
        "tm:rest",
        "tm:return",
        "tm:rockslide",
        "tm:rocksmash",
        "tm:rocktomb",
        "tm:roost",
        "tm:round",
        "tm:safeguard",
        "tm:secretpower",
        "tm:shadowball",
        "tm:shadowclaw",
        "tm:sleeptalk",
        "tm:snore",
        "tm:steelwing",
        "tm:stoneedge",
        "tm:strength",
        "tm:substitute",
        "tm:swagger",
        "tm:swift",
        "tm:thunder",
        "tm:thunderbolt",
        "tm:thunderfang",
        "tm:thunderpunch",
        "tm:thunderwave",
        "tm:toxic",
        "tm:voltswitch",
        "tm:weatherball",
        "tm:wildcharge",
        "tm:zenheadbutt",
        "tutor:defog",
        "tutor:dracometeor",
        "tutor:dualwingbeat",
        "tutor:laserfocus",
        "tutor:magnetrise",
        "tutor:risingvoltage",
        "tutor:scaleshot",
        "tutor:shockwave",
        "tutor:signalbeam",
        "tutor:tailwind"
    ],
    "labels": [
        "gen5",
        "legendary"
    ],
    "pokedex": [
        "cobblemon.species.zekrom.desc1",
        "cobblemon.species.zekrom.desc2"
    ],
    "evolutions": [],
    "baseScale": 1.0,
    "hitbox": {
        "width": 1.0,
        "height": 1.0,
        "fixed": false
    },
    "baseFriendship": 0,
    "evYield": {
        "attack": 3
    },
    "height": 29,
    "weight": 3450
}