{
    "name": "arceus",
    "nationalPokedexNumber": 493,
    "primaryType": "normal",
    "abilities": [
        "multitype"
    ],
    "baseStats": {
        "hp": 120,
        "attack": 120,
        "defence": 120,
        "special_attack": 120,
        "special_defence": 120,
        "speed": 120
    },
    "catchRate": 3,
    "maleRatio": -1,
    "shoulderMountable": false,
    "forms": [],
    "baseExperienceYield": 324,
    "experienceGroup": "slow",
    "eggCycles": 120,
    "eggGroups": [
        "undiscovered"
    ],
    "moves": [
        "1:seismictoss",
        "1:cosmicpower",
        "1:naturalgift",
        "1:punishment",
        "10:gravity",
        "20:earthpower",
        "30:hypervoice",
        "40:extremespeed",
        "50:refresh",
        "60:futuresight",
        "70:recover",
        "80:hyperbeam",
        "90:perishsong",
        "100:judgment",
        "tm:aerialace",
        "tm:avalanche",
        "tm:blizzard",
        "tm:brickbreak",
        "tm:brine",
        "tm:bulldoze",
        "tm:bulletseed",
        "tm:calmmind",
        "tm:chargebeam",
        "tm:confide",
        "tm:cut",
        "tm:darkpulse",
        "tm:dive",
        "tm:doubleteam",
        "tm:dragonclaw",
        "tm:dreameater",
        "tm:earthquake",
        "tm:echoedvoice",
        "tm:endure",
        "tm:energyball",
        "tm:facade",
        "tm:fireblast",
        "tm:flamethrower",
        "tm:flash",
        "tm:flashcannon",
        "tm:fly",
        "tm:focusblast",
        "tm:frustration",
        "tm:gigaimpact",
        "tm:grassknot",
        "tm:hail",
        "tm:hiddenpower",
        "tm:honeclaws",
        "tm:hyperbeam",
        "tm:icebeam",
        "tm:incinerate",
        "tm:lightscreen",
        "tm:overheat",
        "tm:payback",
        "tm:poisonjab",
        "tm:protect",
        "tm:psychic",
        "tm:psychup",
        "tm:psyshock",
        "tm:quash",
        "tm:raindance",
        "tm:reflect",
        "tm:rest",
        "tm:retaliate",
        "tm:return",
        "tm:roar",
        "tm:rockclimb",
        "tm:rockslide",
        "tm:rocksmash",
        "tm:rocktomb",
        "tm:round",
        "tm:safeguard",
        "tm:sandstorm",
        "tm:secretpower",
        "tm:shadowball",
        "tm:shadowclaw",
        "tm:silverwind",
        "tm:sleeptalk",
        "tm:sludgebomb",
        "tm:snarl",
        "tm:solarbeam",
        "tm:stoneedge",
        "tm:strength",
        "tm:substitute",
        "tm:sunnyday",
        "tm:surf",
        "tm:swagger",
        "tm:swordsdance",
        "tm:thunder",
        "tm:thunderbolt",
        "tm:thunderwave",
        "tm:toxic",
        "tm:trickroom",
        "tm:waterfall",
        "tm:whirlpool",
        "tm:willowisp",
        "tm:workup",
        "tm:xscissor",
        "tutor:ancientpower",
        "tutor:aquatail",
        "tutor:defog",
        "tutor:dracometeor",
        "tutor:dragonpulse",
        "tutor:earthpower",
        "tutor:furycutter",
        "tutor:gigadrain",
        "tutor:gravity",
        "tutor:headbutt",
        "tutor:heatwave",
        "tutor:hypervoice",
        "tutor:icywind",
        "tutor:irondefense",
        "tutor:ironhead",
        "tutor:irontail",
        "tutor:laserfocus",
        "tutor:lastresort",
        "tutor:liquidation",
        "tutor:magiccoat",
        "tutor:mudslap",
        "tutor:ominouswind",
        "tutor:outrage",
        "tutor:recycle",
        "tutor:shockwave",
        "tutor:signalbeam",
        "tutor:snore",
        "tutor:stealthrock",
        "tutor:swift",
        "tutor:tailwind",
        "tutor:telekinesis",
        "tutor:trick",
        "tutor:twister",
        "tutor:waterpulse",
        "tutor:zenheadbutt"
    ],
    "labels": [
        "gen4",
        "mythical"
    ],
    "pokedex": [
        "cobblemon.species.arceus.desc1",
        "cobblemon.species.arceus.desc2"
    ],
    "evolutions": [],
    "baseScale": 1.0,
    "hitbox": {
        "width": 1.0,
        "height": 1.0,
        "fixed": false
    },
    "baseFriendship": 0,
    "evYield": {
        "hp": 3
    },
    "height": 32,
    "weight": 3200
}