{
    "name": "bronzong",
    "nationalPokedexNumber": 437,
    "primaryType": "steel",
    "secondaryType": "psychic",
    "abilities": [
        "levitate",
        "heatproof",
        "h:heavymetal"
    ],
    "baseStats": {
        "hp": 67,
        "attack": 89,
        "defence": 116,
        "special_attack": 79,
        "special_defence": 116,
        "speed": 33
    },
    "catchRate": 90,
    "maleRatio": -1,
    "shoulderMountable": false,
    "forms": [],
    "baseExperienceYield": 175,
    "experienceGroup": "mediumfast",
    "eggCycles": 20,
    "eggGroups": [
        "mineral"
    ],
    "moves": [
        "0:block",
        "1:tackle",
        "1:confusion",
        "1:confuseray",
        "1:sunnyday",
        "1:weatherball",
        "1:block",
        "1:payback",
        "12:imprison",
        "15:psywave",
        "16:gyroball",
        "20:hypnosis",
        "21:feintattack",
        "24:safeguard",
        "28:extrasensory",
        "32:heavyslam",
        "38:irondefense",
        "44:metalsound",
        "50:futuresight",
        "52:healblock",
        "56:raindance",
        "tm:allyswitch",
        "tm:bodypress",
        "tm:bulldoze",
        "tm:calmmind",
        "tm:chargebeam",
        "tm:confide",
        "tm:doubleteam",
        "tm:dreameater",
        "tm:earthquake",
        "tm:endure",
        "tm:explosion",
        "tm:facade",
        "tm:flash",
        "tm:flashcannon",
        "tm:frustration",
        "tm:futuresight",
        "tm:gigaimpact",
        "tm:grassknot",
        "tm:guardswap",
        "tm:gyroball",
        "tm:heavyslam",
        "tm:hex",
        "tm:hiddenpower",
        "tm:hyperbeam",
        "tm:imprison",
        "tm:irondefense",
        "tm:ironhead",
        "tm:lightscreen",
        "tm:naturalgift",
        "tm:payback",
        "tm:powerswap",
        "tm:protect",
        "tm:psychic",
        "tm:psychicterrain",
        "tm:psychup",
        "tm:psyshock",
        "tm:raindance",
        "tm:reflect",
        "tm:rest",
        "tm:return",
        "tm:rockpolish",
        "tm:rockslide",
        "tm:rocksmash",
        "tm:rocktomb",
        "tm:round",
        "tm:safeguard",
        "tm:sandstorm",
        "tm:secretpower",
        "tm:shadowball",
        "tm:skillswap",
        "tm:sleeptalk",
        "tm:snore",
        "tm:solarbeam",
        "tm:speedswap",
        "tm:stealthrock",
        "tm:strength",
        "tm:substitute",
        "tm:sunnyday",
        "tm:swagger",
        "tm:toxic",
        "tm:trick",
        "tm:trickroom",
        "tm:weatherball",
        "tm:wonderroom",
        "tm:zenheadbutt",
        "tutor:ancientpower",
        "tutor:expandingforce",
        "tutor:gravity",
        "tutor:meteorbeam",
        "tutor:recycle",
        "tutor:rollout",
        "tutor:signalbeam",
        "tutor:steelbeam",
        "tutor:steelroller",
        "tutor:telekinesis"
    ],
    "labels": [
        "gen4"
    ],
    "pokedex": [
        "cobblemon.species.bronzong.desc1",
        "cobblemon.species.bronzong.desc2"
    ],
    "preEvolution": "bronzor",
    "evolutions": [],
    "baseScale": 1.0,
    "hitbox": {
        "width": 1.0,
        "height": 1.0,
        "fixed": false
    },
    "baseFriendship": 50,
    "evYield": {
        "defence": 1,
        "special_defence": 1
    },
    "height": 13,
    "weight": 1870
}