{
    "name": "bronzor",
    "nationalPokedexNumber": 436,
    "primaryType": "steel",
    "secondaryType": "psychic",
    "abilities": [
        "levitate",
        "heatproof",
        "h:heavymetal"
    ],
    "baseStats": {
        "hp": 57,
        "attack": 24,
        "defence": 86,
        "special_attack": 24,
        "special_defence": 86,
        "speed": 23
    },
    "catchRate": 255,
    "maleRatio": -1,
    "shoulderMountable": false,
    "forms": [],
    "baseExperienceYield": 60,
    "experienceGroup": "mediumfast",
    "eggCycles": 20,
    "eggGroups": [
        "mineral"
    ],
    "moves": [
        "1:tackle",
        "1:confusion",
        "4:confuseray",
        "8:payback",
        "12:imprison",
        "15:psywave",
        "16:gyroball",
        "20:hypnosis",
        "21:feintattack",
        "24:safeguard",
        "28:extrasensory",
        "32:heavyslam",
        "36:irondefense",
        "40:metalsound",
        "44:futuresight",
        "45:healblock",
        "tm:allyswitch",
        "tm:bulldoze",
        "tm:calmmind",
        "tm:chargebeam",
        "tm:confide",
        "tm:doubleteam",
        "tm:dreameater",
        "tm:earthquake",
        "tm:endure",
        "tm:facade",
        "tm:flash",
        "tm:flashcannon",
        "tm:frustration",
        "tm:futuresight",
        "tm:grassknot",
        "tm:guardswap",
        "tm:gyroball",
        "tm:heavyslam",
        "tm:hex",
        "tm:hiddenpower",
        "tm:imprison",
        "tm:irondefense",
        "tm:lightscreen",
        "tm:naturalgift",
        "tm:payback",
        "tm:powerswap",
        "tm:protect",
        "tm:psychic",
        "tm:psychup",
        "tm:psyshock",
        "tm:raindance",
        "tm:reflect",
        "tm:rest",
        "tm:return",
        "tm:rockpolish",
        "tm:rockslide",
        "tm:rocktomb",
        "tm:round",
        "tm:safeguard",
        "tm:sandstorm",
        "tm:secretpower",
        "tm:shadowball",
        "tm:skillswap",
        "tm:sleeptalk",
        "tm:snore",
        "tm:solarbeam",
        "tm:speedswap",
        "tm:stealthrock",
        "tm:substitute",
        "tm:sunnyday",
        "tm:swagger",
        "tm:toxic",
        "tm:trick",
        "tm:trickroom",
        "tm:wonderroom",
        "tutor:ancientpower",
        "tutor:expandingforce",
        "tutor:gravity",
        "tutor:recycle",
        "tutor:rollout",
        "tutor:signalbeam",
        "tutor:steelbeam",
        "tutor:steelroller",
        "tutor:telekinesis"
    ],
    "labels": [
        "gen4"
    ],
    "pokedex": [
        "cobblemon.species.bronzor.desc1",
        "cobblemon.species.bronzor.desc2"
    ],
    "evolutions": [
        {
            "id": "bronzor_bronzong",
            "variant": "level_up",
            "result": "bronzong",
            "consumeHeldItem": false,
            "learnableMoves": [],
            "requirements": [
                {
                    "variant": "level",
                    "minLevel": 33
                }
            ]
        }
    ],
    "baseScale": 1.0,
    "hitbox": {
        "width": 1.0,
        "height": 1.0,
        "fixed": false
    },
    "baseFriendship": 50,
    "evYield": {
        "defence": 1
    },
    "height": 5,
    "weight": 605
}