{
    "name": "chingling",
    "nationalPokedexNumber": 433,
    "primaryType": "psychic",
    "abilities": [
        "levitate"
    ],
    "baseStats": {
        "hp": 45,
        "attack": 30,
        "defence": 50,
        "special_attack": 65,
        "special_defence": 50,
        "speed": 45
    },
    "catchRate": 120,
    "maleRatio": 0.5,
    "shoulderMountable": false,
    "forms": [],
    "baseExperienceYield": 57,
    "experienceGroup": "fast",
    "eggCycles": 25,
    "eggGroups": [
        "undiscovered"
    ],
    "moves": [
        "1:wrap",
        "4:growl",
        "7:astonish",
        "10:confusion",
        "13:yawn",
        "16:lastresort",
        "19:entrainment",
        "32:uproar",
        "egg:cosmicpower",
        "egg:curse",
        "egg:disable",
        "egg:futuresight",
        "egg:hypnosis",
        "egg:recover",
        "egg:skillswap",
        "egg:storedpower",
        "egg:wish",
        "tm:attract",
        "tm:calmmind",
        "tm:captivate",
        "tm:chargebeam",
        "tm:confide",
        "tm:dazzlinggleam",
        "tm:doubleteam",
        "tm:dreameater",
        "tm:echoedvoice",
        "tm:endure",
        "tm:facade",
        "tm:flash",
        "tm:frustration",
        "tm:grassknot",
        "tm:hiddenpower",
        "tm:lightscreen",
        "tm:naturalgift",
        "tm:protect",
        "tm:psychic",
        "tm:psychup",
        "tm:psyshock",
        "tm:raindance",
        "tm:reflect",
        "tm:rest",
        "tm:return",
        "tm:round",
        "tm:safeguard",
        "tm:secretpower",
        "tm:shadowball",
        "tm:sleeptalk",
        "tm:substitute",
        "tm:sunnyday",
        "tm:swagger",
        "tm:taunt",
        "tm:thunderwave",
        "tm:torment",
        "tm:toxic",
        "tm:trickroom",
        "tutor:allyswitch",
        "tutor:bind",
        "tutor:gravity",
        "tutor:healbell",
        "tutor:helpinghand",
        "tutor:hypervoice",
        "tutor:icywind",
        "tutor:knockoff",
        "tutor:lastresort",
        "tutor:magiccoat",
        "tutor:recycle",
        "tutor:rollout",
        "tutor:shockwave",
        "tutor:signalbeam",
        "tutor:skillswap",
        "tutor:snatch",
        "tutor:snore",
        "tutor:swift",
        "tutor:telekinesis",
        "tutor:trick",
        "tutor:uproar",
        "tutor:zenheadbutt"
    ],
    "labels": [
        "baby",
        "gen4"
    ],
    "pokedex": [
        "cobblemon.species.chingling.desc1",
        "cobblemon.species.chingling.desc2"
    ],
    "evolutions": [
        {
            "id": "chingling_chimecho",
            "variant": "level_up",
            "result": "chimecho",
            "consumeHeldItem": false,
            "learnableMoves": [],
            "requirements": [
                {
                    "variant": "friendship",
                    "amount": 220
                },
                {
                    "variant": "time_range",
                    "range": "night"
                }
            ]
        }
    ],
    "baseScale": 1.0,
    "hitbox": {
        "width": 1.0,
        "height": 1.0,
        "fixed": false
    },
    "baseFriendship": 70,
    "evYield": {
        "special_attack": 1
    },
    "height": 2,
    "weight": 6
}