{
    "name": "darkrai",
    "nationalPokedexNumber": 491,
    "primaryType": "dark",
    "abilities": [
        "baddreams"
    ],
    "baseStats": {
        "hp": 70,
        "attack": 90,
        "defence": 90,
        "special_attack": 135,
        "special_defence": 90,
        "speed": 125
    },
    "catchRate": 3,
    "maleRatio": -1,
    "shoulderMountable": false,
    "forms": [],
    "baseExperienceYield": 270,
    "experienceGroup": "slow",
    "eggCycles": 120,
    "eggGroups": [
        "undiscovered"
    ],
    "moves": [
        "1:disable",
        "1:nightshade",
        "1:ominouswind",
        "11:quickattack",
        "20:hypnosis",
        "29:feintattack",
        "29:pursuit",
        "38:nightmare",
        "47:doubleteam",
        "57:haze",
        "66:darkvoid",
        "75:nastyplot",
        "84:dreameater",
        "93:darkpulse",
        "tm:aerialace",
        "tm:blizzard",
        "tm:brickbreak",
        "tm:calmmind",
        "tm:chargebeam",
        "tm:confide",
        "tm:cut",
        "tm:darkpulse",
        "tm:doubleteam",
        "tm:dreameater",
        "tm:embargo",
        "tm:endure",
        "tm:facade",
        "tm:flash",
        "tm:fling",
        "tm:focusblast",
        "tm:frustration",
        "tm:gigaimpact",
        "tm:hiddenpower",
        "tm:hyperbeam",
        "tm:icebeam",
        "tm:incinerate",
        "tm:naturalgift",
        "tm:payback",
        "tm:poisonjab",
        "tm:poweruppunch",
        "tm:protect",
        "tm:psychic",
        "tm:psychup",
        "tm:raindance",
        "tm:rest",
        "tm:retaliate",
        "tm:return",
        "tm:rockclimb",
        "tm:rockslide",
        "tm:rocksmash",
        "tm:rocktomb",
        "tm:round",
        "tm:secretpower",
        "tm:shadowball",
        "tm:shadowclaw",
        "tm:sleeptalk",
        "tm:sludgebomb",
        "tm:snarl",
        "tm:strength",
        "tm:substitute",
        "tm:sunnyday",
        "tm:swagger",
        "tm:swordsdance",
        "tm:taunt",
        "tm:thief",
        "tm:thunder",
        "tm:thunderbolt",
        "tm:thunderwave",
        "tm:torment",
        "tm:toxic",
        "tm:willowisp",
        "tm:xscissor",
        "tutor:drainpunch",
        "tutor:focuspunch",
        "tutor:foulplay",
        "tutor:headbutt",
        "tutor:icywind",
        "tutor:knockoff",
        "tutor:lastresort",
        "tutor:mudslap",
        "tutor:shockwave",
        "tutor:snatch",
        "tutor:snore",
        "tutor:spite",
        "tutor:suckerpunch",
        "tutor:swift",
        "tutor:throatchop",
        "tutor:trick",
        "tutor:wonderroom"
    ],
    "labels": [
        "gen4",
        "mythical"
    ],
    "pokedex": [
        "cobblemon.species.darkrai.desc1",
        "cobblemon.species.darkrai.desc2"
    ],
    "evolutions": [],
    "baseScale": 1.0,
    "hitbox": {
        "width": 1.0,
        "height": 1.0,
        "fixed": false
    },
    "baseFriendship": 0,
    "evYield": {
        "special_attack": 2,
        "speed": 1
    },
    "height": 15,
    "weight": 505
}