{
    "name": "drifblim",
    "nationalPokedexNumber": 426,
    "primaryType": "ghost",
    "secondaryType": "flying",
    "abilities": [
        "aftermath",
        "unburden",
        "h:flareboost"
    ],
    "baseStats": {
        "hp": 150,
        "attack": 80,
        "defence": 44,
        "special_attack": 90,
        "special_defence": 54,
        "speed": 80
    },
    "catchRate": 60,
    "maleRatio": 0.5,
    "shoulderMountable": false,
    "forms": [],
    "baseExperienceYield": 174,
    "experienceGroup": "fluctuating",
    "eggCycles": 30,
    "eggGroups": [
        "amorphous"
    ],
    "moves": [
        "0:phantomforce",
        "1:gust",
        "1:minimize",
        "1:focusenergy",
        "1:constrict",
        "1:astonish",
        "1:phantomforce",
        "1:strengthsap",
        "12:payback",
        "16:hex",
        "20:shadowball",
        "20:ominouswind",
        "24:stockpile",
        "24:spitup",
        "24:swallow",
        "31:selfdestruct",
        "36:destinybond",
        "42:batonpass",
        "48:tailwind",
        "54:explosion",
        "tm:acrobatics",
        "tm:allyswitch",
        "tm:amnesia",
        "tm:attract",
        "tm:batonpass",
        "tm:bodyslam",
        "tm:brutalswing",
        "tm:calmmind",
        "tm:captivate",
        "tm:chargebeam",
        "tm:confide",
        "tm:cut",
        "tm:doubleteam",
        "tm:dreameater",
        "tm:embargo",
        "tm:endure",
        "tm:facade",
        "tm:flash",
        "tm:fly",
        "tm:focusenergy",
        "tm:frustration",
        "tm:gigaimpact",
        "tm:gyroball",
        "tm:hex",
        "tm:hiddenpower",
        "tm:hyperbeam",
        "tm:icywind",
        "tm:imprison",
        "tm:naturalgift",
        "tm:payback",
        "tm:phantomforce",
        "tm:protect",
        "tm:psychic",
        "tm:psychup",
        "tm:raindance",
        "tm:rest",
        "tm:return",
        "tm:round",
        "tm:secretpower",
        "tm:selfdestruct",
        "tm:shadowball",
        "tm:silverwind",
        "tm:skillswap",
        "tm:sleeptalk",
        "tm:snore",
        "tm:substitute",
        "tm:sunnyday",
        "tm:swagger",
        "tm:swift",
        "tm:thief",
        "tm:thunder",
        "tm:thunderbolt",
        "tm:thunderwave",
        "tm:toxic",
        "tm:trick",
        "tm:weatherball",
        "tm:willowisp",
        "tutor:aircutter",
        "tutor:bind",
        "tutor:defog",
        "tutor:knockoff",
        "tutor:magiccoat",
        "tutor:mudslap",
        "tutor:painsplit",
        "tutor:recycle",
        "tutor:rollout",
        "tutor:shockwave",
        "tutor:spite",
        "tutor:suckerpunch",
        "tutor:telekinesis"
    ],
    "labels": [
        "gen4"
    ],
    "pokedex": [
        "cobblemon.species.drifblim.desc1",
        "cobblemon.species.drifblim.desc2"
    ],
    "preEvolution": "drifloon",
    "evolutions": [],
    "baseScale": 1.0,
    "hitbox": {
        "width": 1.0,
        "height": 1.0,
        "fixed": false
    },
    "baseFriendship": 50,
    "evYield": {
        "hp": 2
    },
    "height": 12,
    "weight": 150
}