{
    "name": "dusknoir",
    "nationalPokedexNumber": 477,
    "primaryType": "ghost",
    "abilities": [
        "pressure",
        "h:frisk"
    ],
    "baseStats": {
        "hp": 45,
        "attack": 100,
        "defence": 135,
        "special_attack": 65,
        "special_defence": 135,
        "speed": 45
    },
    "catchRate": 45,
    "maleRatio": 0.5,
    "shoulderMountable": false,
    "forms": [],
    "baseExperienceYield": 263,
    "experienceGroup": "fast",
    "eggCycles": 25,
    "eggGroups": [
        "amorphous"
    ],
    "moves": [
        "1:firepunch",
        "1:icepunch",
        "1:thunderpunch",
        "1:bind",
        "1:leer",
        "1:disable",
        "1:astonish",
        "1:shadowpunch",
        "1:gravity",
        "1:shadowsneak",
        "12:confuseray",
        "14:foresight",
        "16:nightshade",
        "20:payback",
        "22:pursuit",
        "24:willowisp",
        "28:meanlook",
        "32:hex",
        "36:curse",
        "42:shadowball",
        "48:futuresight",
        "54:destinybond",
        "tm:allyswitch",
        "tm:attract",
        "tm:blizzard",
        "tm:bodyslam",
        "tm:brickbreak",
        "tm:bulldoze",
        "tm:calmmind",
        "tm:captivate",
        "tm:chargebeam",
        "tm:confide",
        "tm:darkestlariat",
        "tm:darkpulse",
        "tm:doubleteam",
        "tm:dreameater",
        "tm:earthquake",
        "tm:embargo",
        "tm:endure",
        "tm:facade",
        "tm:firepunch",
        "tm:flash",
        "tm:fling",
        "tm:focusblast",
        "tm:frustration",
        "tm:futuresight",
        "tm:gigaimpact",
        "tm:helpinghand",
        "tm:hex",
        "tm:hiddenpower",
        "tm:hyperbeam",
        "tm:icebeam",
        "tm:icepunch",
        "tm:icywind",
        "tm:imprison",
        "tm:infestation",
        "tm:megakick",
        "tm:megapunch",
        "tm:metronome",
        "tm:naturalgift",
        "tm:payback",
        "tm:poweruppunch",
        "tm:protect",
        "tm:psychic",
        "tm:psychup",
        "tm:raindance",
        "tm:rest",
        "tm:return",
        "tm:revenge",
        "tm:rockslide",
        "tm:rocksmash",
        "tm:rocktomb",
        "tm:round",
        "tm:secretpower",
        "tm:shadowball",
        "tm:skillswap",
        "tm:sleeptalk",
        "tm:snore",
        "tm:strength",
        "tm:substitute",
        "tm:sunnyday",
        "tm:swagger",
        "tm:taunt",
        "tm:thief",
        "tm:thunderpunch",
        "tm:torment",
        "tm:toxic",
        "tm:trick",
        "tm:trickroom",
        "tm:willowisp",
        "tm:wonderroom",
        "tutor:focuspunch",
        "tutor:headbutt",
        "tutor:laserfocus",
        "tutor:mudslap",
        "tutor:ominouswind",
        "tutor:painsplit",
        "tutor:poltergeist",
        "tutor:skittersmack",
        "tutor:snatch",
        "tutor:spite",
        "tutor:suckerpunch",
        "tutor:telekinesis"
    ],
    "labels": [
        "gen4"
    ],
    "pokedex": [
        "cobblemon.species.dusknoir.desc1",
        "cobblemon.species.dusknoir.desc2"
    ],
    "preEvolution": "dusclops",
    "evolutions": [],
    "baseScale": 1.0,
    "hitbox": {
        "width": 1.0,
        "height": 1.0,
        "fixed": false
    },
    "baseFriendship": 35,
    "evYield": {
        "defence": 1,
        "special_defence": 2
    },
    "height": 22,
    "weight": 1066
}