{
    "name": "garchomp",
    "nationalPokedexNumber": 445,
    "primaryType": "dragon",
    "secondaryType": "ground",
    "abilities": [
        "sandveil",
        "h:roughskin"
    ],
    "baseStats": {
        "hp": 108,
        "attack": 130,
        "defence": 95,
        "special_attack": 80,
        "special_defence": 85,
        "speed": 102
    },
    "catchRate": 45,
    "maleRatio": 0.5,
    "shoulderMountable": false,
    "forms": [
        {
            "name": "normal"
        },
        {
            "name": "mega",
            "abilities": [
                "sandforce"
            ],
            "baseStats": {
                "hp": 108,
                "attack": 170,
                "defence": 115,
                "special_attack": 120,
                "special_defence": 95,
                "speed": 92
            },
            "baseExperienceYield": 315,
            "moves": [
                "0:crunch",
                "1:sandattack",
                "1:tackle",
                "1:dragonrage",
                "1:sandstorm",
                "1:crunch",
                "1:firefang",
                "1:dualchop",
                "3:sandattack",
                "7:dragonrage",
                "13:sandstorm",
                "15:takedown",
                "19:sandtomb",
                "28:slash",
                "33:dragonclaw",
                "40:dig",
                "55:dragonrush",
                "tm:aerialace",
                "tm:attract",
                "tm:brickbreak",
                "tm:brutalswing",
                "tm:bulldoze",
                "tm:confide",
                "tm:cut",
                "tm:doubleteam",
                "tm:dragonclaw",
                "tm:dragontail",
                "tm:earthquake",
                "tm:facade",
                "tm:falseswipe",
                "tm:fireblast",
                "tm:flamethrower",
                "tm:fling",
                "tm:frustration",
                "tm:gigaimpact",
                "tm:hiddenpower",
                "tm:honeclaws",
                "tm:hyperbeam",
                "tm:incinerate",
                "tm:poisonjab",
                "tm:protect",
                "tm:raindance",
                "tm:rest",
                "tm:return",
                "tm:roar",
                "tm:rockslide",
                "tm:rocksmash",
                "tm:rocktomb",
                "tm:round",
                "tm:sandstorm",
                "tm:secretpower",
                "tm:shadowclaw",
                "tm:sleeptalk",
                "tm:stoneedge",
                "tm:strength",
                "tm:substitute",
                "tm:sunnyday",
                "tm:surf",
                "tm:swagger",
                "tm:swordsdance",
                "tm:toxic",
                "tutor:aquatail",
                "tutor:dracometeor",
                "tutor:dragonpulse",
                "tutor:dualchop",
                "tutor:earthpower",
                "tutor:ironhead",
                "tutor:irontail",
                "tutor:laserfocus",
                "tutor:outrage",
                "tutor:snore",
                "tutor:stealthrock",
                "tutor:stompingtantrum"
            ],
            "labels": [
                "gen4",
                "mega_evolution",
                "pseudo_legendary"
            ],
            "pokedex": [
                "cobblemon.form.garchomp-mega.desc1",
                "cobblemon.form.garchomp-mega.desc2"
            ]
        }
    ],
    "baseExperienceYield": 300,
    "experienceGroup": "slow",
    "eggCycles": 40,
    "eggGroups": [
        "monster",
        "dragon"
    ],
    "moves": [
        "0:crunch",
        "1:sandattack",
        "1:tackle",
        "1:dragonrage",
        "1:dragonbreath",
        "1:crunch",
        "1:sandtomb",
        "1:dualchop",
        "7:dragonrage",
        "18:bulldoze",
        "27:bite",
        "34:slash",
        "42:dragonclaw",
        "52:dig",
        "62:sandstorm",
        "72:takedown",
        "82:dragonrush",
        "tm:aerialace",
        "tm:attract",
        "tm:bodyslam",
        "tm:breakingswipe",
        "tm:brickbreak",
        "tm:brutalswing",
        "tm:bulldoze",
        "tm:captivate",
        "tm:confide",
        "tm:crunch",
        "tm:cut",
        "tm:dig",
        "tm:doubleteam",
        "tm:dragonclaw",
        "tm:dragonpulse",
        "tm:dragontail",
        "tm:earthpower",
        "tm:earthquake",
        "tm:endure",
        "tm:facade",
        "tm:falseswipe",
        "tm:fireblast",
        "tm:firefang",
        "tm:flamethrower",
        "tm:fling",
        "tm:frustration",
        "tm:gigaimpact",
        "tm:hiddenpower",
        "tm:honeclaws",
        "tm:hyperbeam",
        "tm:incinerate",
        "tm:ironhead",
        "tm:irontail",
        "tm:mudshot",
        "tm:naturalgift",
        "tm:outrage",
        "tm:poisonjab",
        "tm:protect",
        "tm:raindance",
        "tm:rest",
        "tm:return",
        "tm:roar",
        "tm:rockclimb",
        "tm:rockslide",
        "tm:rocksmash",
        "tm:rocktomb",
        "tm:round",
        "tm:sandstorm",
        "tm:sandtomb",
        "tm:scaryface",
        "tm:secretpower",
        "tm:shadowclaw",
        "tm:sleeptalk",
        "tm:snore",
        "tm:stealthrock",
        "tm:stompingtantrum",
        "tm:stoneedge",
        "tm:strength",
        "tm:substitute",
        "tm:sunnyday",
        "tm:surf",
        "tm:swagger",
        "tm:swift",
        "tm:swordsdance",
        "tm:toxic",
        "tm:whirlpool",
        "tutor:aquatail",
        "tutor:dracometeor",
        "tutor:furycutter",
        "tutor:headbutt",
        "tutor:laserfocus",
        "tutor:mudslap",
        "tutor:scaleshot",
        "tutor:scorchingsands",
        "tutor:twister"
    ],
    "labels": [
        "gen4",
        "pseudo_legendary"
    ],
    "pokedex": [
        "cobblemon.species.garchomp.desc1",
        "cobblemon.species.garchomp.desc2"
    ],
    "preEvolution": "gabite",
    "evolutions": [],
    "baseScale": 1.0,
    "hitbox": {
        "width": 1.0,
        "height": 1.0,
        "fixed": false
    },
    "baseFriendship": 50,
    "evYield": {
        "attack": 3
    },
    "height": 19,
    "weight": 950
}