{
    "name": "giratina",
    "nationalPokedexNumber": 487,
    "primaryType": "ghost",
    "secondaryType": "dragon",
    "abilities": [
        "pressure",
        "h:telepathy"
    ],
    "baseStats": {
        "hp": 150,
        "attack": 100,
        "defence": 120,
        "special_attack": 100,
        "special_defence": 120,
        "speed": 90
    },
    "catchRate": 3,
    "maleRatio": -1,
    "shoulderMountable": false,
    "baseExperienceYield": 340,
    "baseFriendship": 0,
    "evYield": {
        "hp": 3
    },
    "experienceGroup": "slow",
    "eggCycles": 120,
    "eggGroups": [
        "undiscovered"
    ],
    "moves": [
        "1:shadowsneak",
        "1:defog",
        "6:ominouswind",
        "7:dragonbreath",
        "14:ancientpower",
        "21:hex",
        "28:slash",
        "35:scaryface",
        "42:shadowclaw",
        "49:painsplit",
        "50:healblock",
        "56:aurasphere",
        "63:dragonclaw",
        "70:earthpower",
        "77:shadowforce",
        "84:destinybond",
        "tm:aerialace",
        "tm:aurasphere",
        "tm:bodyslam",
        "tm:breakingswipe",
        "tm:brutalswing",
        "tm:bulldoze",
        "tm:calmmind",
        "tm:chargebeam",
        "tm:confide",
        "tm:cut",
        "tm:darkpulse",
        "tm:doubleteam",
        "tm:dragonclaw",
        "tm:dragonpulse",
        "tm:dragontail",
        "tm:dreameater",
        "tm:earthpower",
        "tm:earthquake",
        "tm:echoedvoice",
        "tm:endure",
        "tm:energyball",
        "tm:facade",
        "tm:fly",
        "tm:frustration",
        "tm:gigaimpact",
        "tm:hex",
        "tm:hiddenpower",
        "tm:honeclaws",
        "tm:hyperbeam",
        "tm:hypervoice",
        "tm:icywind",
        "tm:ironhead",
        "tm:irontail",
        "tm:naturalgift",
        "tm:outrage",
        "tm:payback",
        "tm:phantomforce",
        "tm:protect",
        "tm:psychic",
        "tm:psychup",
        "tm:raindance",
        "tm:rest",
        "tm:return",
        "tm:roar",
        "tm:rockclimb",
        "tm:rocksmash",
        "tm:round",
        "tm:safeguard",
        "tm:scaryface",
        "tm:secretpower",
        "tm:shadowball",
        "tm:shadowclaw",
        "tm:silverwind",
        "tm:sleeptalk",
        "tm:snore",
        "tm:steelwing",
        "tm:stoneedge",
        "tm:strength",
        "tm:substitute",
        "tm:sunnyday",
        "tm:swagger",
        "tm:swift",
        "tm:thunder",
        "tm:thunderbolt",
        "tm:thunderwave",
        "tm:toxic",
        "tm:willowisp",
        "tutor:aircutter",
        "tutor:aquatail",
        "tutor:dracometeor",
        "tutor:dualwingbeat",
        "tutor:furycutter",
        "tutor:gravity",
        "tutor:headbutt",
        "tutor:mudslap",
        "tutor:poltergeist",
        "tutor:shockwave",
        "tutor:spite",
        "tutor:telekinesis",
        "tutor:twister"
    ],
    "labels": [
        "gen4",
        "legendary"
    ],
    "pokedex": [
        "cobblemon.species.giratina.desc1",
        "cobblemon.species.giratina.desc2"
    ],
    "height": 45,
    "weight": 7500,
    "evolutions": [],
    "forms": [
        {
            "name": "origin",
            "abilities": [
                "levitate"
            ],
            "baseStats": {
                "hp": 150,
                "attack": 120,
                "defence": 100,
                "special_attack": 120,
                "special_defence": 100,
                "speed": 90
            },
            "moves": [
                "1:shadowsneak",
                "1:defog",
                "6:ominouswind",
                "7:dragonbreath",
                "14:ancientpower",
                "21:hex",
                "28:slash",
                "35:scaryface",
                "42:shadowclaw",
                "49:painsplit",
                "50:healblock",
                "56:aurasphere",
                "63:dragonclaw",
                "70:earthpower",
                "77:shadowforce",
                "84:destinybond",
                "tm:aerialace",
                "tm:aurasphere",
                "tm:bodyslam",
                "tm:breakingswipe",
                "tm:brutalswing",
                "tm:bulldoze",
                "tm:calmmind",
                "tm:chargebeam",
                "tm:confide",
                "tm:cut",
                "tm:darkpulse",
                "tm:doubleteam",
                "tm:dragonclaw",
                "tm:dragonpulse",
                "tm:dragontail",
                "tm:dreameater",
                "tm:earthpower",
                "tm:earthquake",
                "tm:echoedvoice",
                "tm:endure",
                "tm:energyball",
                "tm:facade",
                "tm:fly",
                "tm:frustration",
                "tm:gigaimpact",
                "tm:hex",
                "tm:hiddenpower",
                "tm:honeclaws",
                "tm:hyperbeam",
                "tm:hypervoice",
                "tm:icywind",
                "tm:ironhead",
                "tm:irontail",
                "tm:naturalgift",
                "tm:outrage",
                "tm:payback",
                "tm:phantomforce",
                "tm:protect",
                "tm:psychic",
                "tm:psychup",
                "tm:raindance",
                "tm:rest",
                "tm:return",
                "tm:roar",
                "tm:rockclimb",
                "tm:rocksmash",
                "tm:round",
                "tm:safeguard",
                "tm:scaryface",
                "tm:secretpower",
                "tm:shadowball",
                "tm:shadowclaw",
                "tm:silverwind",
                "tm:sleeptalk",
                "tm:snore",
                "tm:steelwing",
                "tm:stoneedge",
                "tm:strength",
                "tm:substitute",
                "tm:sunnyday",
                "tm:swagger",
                "tm:swift",
                "tm:thunder",
                "tm:thunderbolt",
                "tm:thunderwave",
                "tm:toxic",
                "tm:willowisp",
                "tutor:aircutter",
                "tutor:aquatail",
                "tutor:dracometeor",
                "tutor:dualwingbeat",
                "tutor:furycutter",
                "tutor:gravity",
                "tutor:headbutt",
                "tutor:magiccoat",
                "tutor:mudslap",
                "tutor:poltergeist",
                "tutor:shockwave",
                "tutor:spite",
                "tutor:tailwind",
                "tutor:telekinesis",
                "tutor:twister"
            ],
            "pokedex": [
                "cobblemon.form.giratina-origin.desc1",
                "cobblemon.form.giratina-origin.desc2"
            ],
            "height": 69,
            "weight": 6500
        }
    ]
}