{
    "implemented": true,
    "name": "glaceon",
    "nationalPokedexNumber": 471,
    "primaryType": "ice",
    "abilities": [
        "snowcloak",
        "h:icebody"
    ],
    "baseStats": {
        "hp": 65,
        "attack": 60,
        "defence": 110,
        "special_attack": 130,
        "special_defence": 95,
        "speed": 65
    },
    "catchRate": 45,
    "maleRatio": 0.875,
    "shoulderMountable": false,
    "forms": [],
    "baseExperienceYield": 184,
    "experienceGroup": "mediumfast",
    "eggCycles": 35,
    "eggGroups": [
        "field"
    ],
    "moves": [
        "0:icywind",
        "1:tackle",
        "1:takedown",
        "1:doubleedge",
        "1:tailwhip",
        "1:growl",
        "1:swift",
        "1:icywind",
        "1:charm",
        "1:batonpass",
        "1:helpinghand",
        "1:covet",
        "1:copycat",
        "5:sandattack",
        "10:quickattack",
        "15:babydolleyes",
        "20:iceshard",
        "25:bite",
        "29:barrier",
        "30:icefang",
        "35:hail",
        "40:freezedry",
        "45:mirrorcoat",
        "50:blizzard",
        "55:lastresort",
        "tm:attract",
        "tm:auroraveil",
        "tm:avalanche",
        "tm:batonpass",
        "tm:blizzard",
        "tm:bodyslam",
        "tm:captivate",
        "tm:charm",
        "tm:confide",
        "tm:dig",
        "tm:doubleteam",
        "tm:echoedvoice",
        "tm:endure",
        "tm:facade",
        "tm:faketears",
        "tm:focusenergy",
        "tm:frostbreath",
        "tm:frustration",
        "tm:gigaimpact",
        "tm:hail",
        "tm:helpinghand",
        "tm:hiddenpower",
        "tm:hyperbeam",
        "tm:hypervoice",
        "tm:icebeam",
        "tm:icefang",
        "tm:iciclespear",
        "tm:icywind",
        "tm:irontail",
        "tm:naturalgift",
        "tm:payday",
        "tm:protect",
        "tm:raindance",
        "tm:rest",
        "tm:retaliate",
        "tm:return",
        "tm:roar",
        "tm:rocksmash",
        "tm:round",
        "tm:secretpower",
        "tm:shadowball",
        "tm:sleeptalk",
        "tm:snore",
        "tm:storedpower",
        "tm:strength",
        "tm:substitute",
        "tm:sunnyday",
        "tm:swagger",
        "tm:swift",
        "tm:toxic",
        "tm:weatherball",
        "tm:workup",
        "tutor:aquatail",
        "tutor:headbutt",
        "tutor:healbell",
        "tutor:laserfocus",
        "tutor:mudslap",
        "tutor:signalbeam",
        "tutor:tripleaxel",
        "tutor:waterpulse"
    ],
    "labels": [
        "gen4"
    ],
    "pokedex": [
        "cobblemon.species.glaceon.desc1",
        "cobblemon.species.glaceon.desc2"
    ],
    "preEvolution": "eevee",
    "evolutions": [],
    "baseScale": 0.8,
    "hitbox": {
        "width": 0.9,
        "height": 1.1,
        "fixed": false
    },
    "baseFriendship": 35,
    "evYield": {
        "special_attack": 2
    },
    "height": 8,
    "weight": 259
}