{
    "implemented": true,
    "name": "lopunny",
    "nationalPokedexNumber": 428,
    "primaryType": "normal",
    "abilities": [
        "cutecharm",
        "klutz",
        "h:limber"
    ],
    "baseStats": {
        "hp": 65,
        "attack": 76,
        "defence": 84,
        "special_attack": 54,
        "special_defence": 96,
        "speed": 105
    },
    "catchRate": 60,
    "maleRatio": 0.5,
    "shoulderMountable": false,
    "forms": [
        {
            "name": "normal"
        },
        {
            "name": "mega",
            "secondaryType": "fighting",
            "abilities": [
                "scrappy"
            ],
            "baseStats": {
                "hp": 65,
                "attack": 136,
                "defence": 94,
                "special_attack": 54,
                "special_defence": 96,
                "speed": 135
            },
            "baseExperienceYield": 203,
            "moves": [
                "0:return",
                "1:pound",
                "1:defensecurl",
                "1:splash",
                "1:foresight",
                "1:return",
                "1:mirrorcoat",
                "1:magiccoat",
                "1:bounce",
                "1:healingwish",
                "1:rototiller",
                "6:endure",
                "13:babydolleyes",
                "16:quickattack",
                "23:jumpkick",
                "26:batonpass",
                "33:agility",
                "36:dizzypunch",
                "43:afteryou",
                "46:charm",
                "53:entrainment",
                "56:bounce",
                "63:healingwish",
                "66:highjumpkick",
                "tm:attract",
                "tm:blizzard",
                "tm:brutalswing",
                "tm:chargebeam",
                "tm:confide",
                "tm:cut",
                "tm:dig",
                "tm:doubleteam",
                "tm:facade",
                "tm:fling",
                "tm:focusblast",
                "tm:frustration",
                "tm:gigaimpact",
                "tm:grassknot",
                "tm:hiddenpower",
                "tm:hyperbeam",
                "tm:icebeam",
                "tm:lowsweep",
                "tm:poweruppunch",
                "tm:protect",
                "tm:raindance",
                "tm:rest",
                "tm:retaliate",
                "tm:return",
                "tm:rocksmash",
                "tm:round",
                "tm:secretpower",
                "tm:shadowball",
                "tm:sleeptalk",
                "tm:solarbeam",
                "tm:strength",
                "tm:substitute",
                "tm:sunnyday",
                "tm:swagger",
                "tm:thunder",
                "tm:thunderbolt",
                "tm:thunderwave",
                "tm:toxic",
                "tm:workup",
                "tutor:afteryou",
                "tutor:bounce",
                "tutor:covet",
                "tutor:drainpunch",
                "tutor:endeavor",
                "tutor:firepunch",
                "tutor:focuspunch",
                "tutor:healbell",
                "tutor:helpinghand",
                "tutor:hypervoice",
                "tutor:icepunch",
                "tutor:irontail",
                "tutor:laserfocus",
                "tutor:lastresort",
                "tutor:lowkick",
                "tutor:magiccoat",
                "tutor:shockwave",
                "tutor:snore",
                "tutor:thunderpunch",
                "tutor:uproar",
                "tutor:waterpulse"
            ],
            "labels": [
                "gen4",
                "mega_evolution"
            ],
            "pokedex": [
                "cobblemon.form.lopunny-mega.desc1",
                "cobblemon.form.lopunny-mega.desc2"
            ],
            "height": 13,
            "weight": 283
        }
    ],
    "baseExperienceYield": 168,
    "experienceGroup": "mediumfast",
    "eggCycles": 20,
    "eggGroups": [
        "field",
        "human_like"
    ],
	"drops": {
        "amount": "3",
        "entries": [
            {
                "item": "minecraft:carrot",
				"quantityRange": "1-2",
                "percentage": 66
            },
            {
                "item": "minecraft:rabbit_hide",
				"quantityRange": "1-2",
                "percentage": 66
            },
            {
                "item": "minecraft:rabbit_foot",
                "percentage": 10
            }
        ]
    },
    "moves": [
        "0:return",
        "1:pound",
        "1:defensecurl",
        "1:splash",
        "1:foresight",
        "1:return",
        "1:mirrorcoat",
        "1:magiccoat",
        "1:rototiller",
        "1:babydolleyes",
        "12:afteryou",
        "16:quickattack",
        "20:doublekick",
        "23:jumpkick",
        "24:charm",
        "28:batonpass",
        "32:headbutt",
        "36:agility",
        "36:dizzypunch",
        "40:entrainment",
        "44:flatter",
        "48:bounce",
        "52:healingwish",
        "56:highjumpkick",
        "tm:acrobatics",
        "tm:agility",
        "tm:assurance",
        "tm:attract",
        "tm:aurasphere",
        "tm:batonpass",
        "tm:blizzard",
        "tm:bounce",
        "tm:brutalswing",
        "tm:captivate",
        "tm:chargebeam",
        "tm:charm",
        "tm:closecombat",
        "tm:confide",
        "tm:cosmicpower",
        "tm:cut",
        "tm:dig",
        "tm:doubleteam",
        "tm:drainpunch",
        "tm:encore",
        "tm:endure",
        "tm:facade",
        "tm:faketears",
        "tm:firepunch",
        "tm:fling",
        "tm:focusblast",
        "tm:frustration",
        "tm:gigaimpact",
        "tm:grassknot",
        "tm:helpinghand",
        "tm:hiddenpower",
        "tm:hyperbeam",
        "tm:hypervoice",
        "tm:icebeam",
        "tm:icepunch",
        "tm:irontail",
        "tm:lowkick",
        "tm:lowsweep",
        "tm:megakick",
        "tm:megapunch",
        "tm:naturalgift",
        "tm:payback",
        "tm:playrough",
        "tm:poweruppunch",
        "tm:protect",
        "tm:raindance",
        "tm:rest",
        "tm:retaliate",
        "tm:return",
        "tm:reversal",
        "tm:rocksmash",
        "tm:round",
        "tm:secretpower",
        "tm:shadowball",
        "tm:sleeptalk",
        "tm:snore",
        "tm:solarbeam",
        "tm:strength",
        "tm:substitute",
        "tm:sunnyday",
        "tm:swagger",
        "tm:swift",
        "tm:thunder",
        "tm:thunderbolt",
        "tm:thunderpunch",
        "tm:thunderwave",
        "tm:toxic",
        "tm:uproar",
        "tm:uturn",
        "tm:workup",
        "tutor:covet",
        "tutor:endeavor",
        "tutor:focuspunch",
        "tutor:furycutter",
        "tutor:healbell",
        "tutor:laserfocus",
        "tutor:lastresort",
        "tutor:mudslap",
        "tutor:shockwave",
        "tutor:tripleaxel",
        "tutor:waterpulse"
    ],
    "labels": [
        "gen4"
    ],
    "pokedex": [
        "cobblemon.species.lopunny.desc1",
        "cobblemon.species.lopunny.desc2"
    ],
    "preEvolution": "buneary",
    "evolutions": [],
    "baseScale": 0.5,
    "hitbox": {
        "width": 1.4,
        "height": 3.0,
        "fixed": false
    },
    "baseFriendship": 140,
    "evYield": {
        "speed": 2
    },
    "height": 12,
    "weight": 333
}