{
    "name": "rampardos",
    "nationalPokedexNumber": 409,
    "primaryType": "rock",
    "abilities": [
        "moldbreaker",
        "h:sheerforce"
    ],
    "baseStats": {
        "hp": 97,
        "attack": 165,
        "defence": 60,
        "special_attack": 65,
        "special_defence": 50,
        "speed": 58
    },
    "catchRate": 45,
    "maleRatio": 0.875,
    "shoulderMountable": false,
    "forms": [],
    "baseExperienceYield": 173,
    "experienceGroup": "erratic",
    "eggCycles": 30,
    "eggGroups": [
        "monster"
    ],
    "moves": [
        "0:endeavor",
        "1:headbutt",
        "1:leer",
        "1:focusenergy",
        "1:pursuit",
        "1:endeavor",
        "6:focusenergy",
        "10:pursuit",
        "15:takedown",
        "19:scaryface",
        "24:assurance",
        "28:chipaway",
        "36:ancientpower",
        "43:zenheadbutt",
        "51:screech",
        "58:headsmash",
        "tm:attract",
        "tm:avalanche",
        "tm:blizzard",
        "tm:brickbreak",
        "tm:bulldoze",
        "tm:captivate",
        "tm:confide",
        "tm:cut",
        "tm:dig",
        "tm:doubleteam",
        "tm:dragontail",
        "tm:earthquake",
        "tm:endure",
        "tm:facade",
        "tm:fireblast",
        "tm:flamethrower",
        "tm:fling",
        "tm:focusblast",
        "tm:frustration",
        "tm:gigaimpact",
        "tm:hiddenpower",
        "tm:hyperbeam",
        "tm:icebeam",
        "tm:incinerate",
        "tm:naturalgift",
        "tm:payback",
        "tm:poweruppunch",
        "tm:protect",
        "tm:raindance",
        "tm:rest",
        "tm:return",
        "tm:roar",
        "tm:rockclimb",
        "tm:rockpolish",
        "tm:rockslide",
        "tm:rocksmash",
        "tm:rocktomb",
        "tm:round",
        "tm:sandstorm",
        "tm:secretpower",
        "tm:sleeptalk",
        "tm:smackdown",
        "tm:stoneedge",
        "tm:strength",
        "tm:substitute",
        "tm:sunnyday",
        "tm:surf",
        "tm:swagger",
        "tm:swordsdance",
        "tm:thief",
        "tm:thunder",
        "tm:thunderbolt",
        "tm:toxic",
        "tm:whirlpool",
        "tutor:dragonpulse",
        "tutor:earthpower",
        "tutor:endeavor",
        "tutor:firepunch",
        "tutor:focuspunch",
        "tutor:ironhead",
        "tutor:irontail",
        "tutor:laserfocus",
        "tutor:mudslap",
        "tutor:outrage",
        "tutor:painsplit",
        "tutor:shockwave",
        "tutor:snore",
        "tutor:spite",
        "tutor:stealthrock",
        "tutor:stompingtantrum",
        "tutor:superpower",
        "tutor:thunderpunch",
        "tutor:uproar",
        "tutor:zenheadbutt"
    ],
    "labels": [
        "gen4"
    ],
    "pokedex": [
        "cobblemon.species.rampardos.desc1",
        "cobblemon.species.rampardos.desc2"
    ],
    "preEvolution": "cranidos",
    "evolutions": [],
    "baseScale": 1.0,
    "hitbox": {
        "width": 1.0,
        "height": 1.0,
        "fixed": false
    },
    "baseFriendship": 70,
    "evYield": {
        "attack": 2
    },
    "height": 16,
    "weight": 1025
}