{
    "name": "shaymin",
    "nationalPokedexNumber": 492,
    "primaryType": "grass",
    "abilities": [
        "naturalcure"
    ],
    "baseStats": {
        "hp": 100,
        "attack": 100,
        "defence": 100,
        "special_attack": 100,
        "special_defence": 100,
        "speed": 100
    },
    "catchRate": 45,
    "maleRatio": -1,
    "shoulderMountable": false,
    "baseExperienceYield": 270,
    "baseFriendship": 100,
    "evYield": {
        "hp": 3
    },
    "experienceGroup": "mediumslow",
    "eggCycles": 120,
    "eggGroups": [
        "undiscovered"
    ],
    "moves": [
        "1:growth",
        "1:defensecurl",
        "10:magicalleaf",
        "19:leechseed",
        "28:synthesis",
        "37:sweetscent",
        "46:naturalgift",
        "55:worryseed",
        "64:aromatherapy",
        "73:energyball",
        "82:sweetkiss",
        "82:grasswhistle",
        "91:healingwish",
        "91:luckychant",
        "100:seedflare",
        "tm:bulletseed",
        "tm:confide",
        "tm:dazzlinggleam",
        "tm:doubleteam",
        "tm:endure",
        "tm:energyball",
        "tm:facade",
        "tm:flash",
        "tm:frustration",
        "tm:gigaimpact",
        "tm:grassknot",
        "tm:hiddenpower",
        "tm:hyperbeam",
        "tm:naturepower",
        "tm:protect",
        "tm:psychic",
        "tm:psychup",
        "tm:rest",
        "tm:return",
        "tm:round",
        "tm:safeguard",
        "tm:secretpower",
        "tm:sleeptalk",
        "tm:solarbeam",
        "tm:substitute",
        "tm:sunnyday",
        "tm:swagger",
        "tm:swordsdance",
        "tm:toxic",
        "tutor:covet",
        "tutor:earthpower",
        "tutor:endeavor",
        "tutor:gigadrain",
        "tutor:headbutt",
        "tutor:laserfocus",
        "tutor:lastresort",
        "tutor:mudslap",
        "tutor:seedbomb",
        "tutor:snore",
        "tutor:swift",
        "tutor:synthesis",
        "tutor:worryseed",
        "tutor:zenheadbutt"
    ],
    "labels": [
        "gen4",
        "mythical"
    ],
    "pokedex": [
        "cobblemon.species.shaymin.desc1",
        "cobblemon.species.shaymin.desc2"
    ],
    "height": 2,
    "weight": 21,
    "evolutions": [],
    "forms": [
        {
            "name": "sky",
            "secondaryType": "flying",
            "abilities": [
                "serenegrace"
            ],
            "baseStats": {
                "hp": 100,
                "attack": 103,
                "defence": 75,
                "special_attack": 120,
                "special_defence": 75,
                "speed": 127
            },
            "evYield": {
                "speed": 3
            },
            "moves": [
                "1:growth",
                "10:magicalleaf",
                "19:leechseed",
                "28:quickattack",
                "37:sweetscent",
                "46:naturalgift",
                "55:worryseed",
                "64:airslash",
                "73:energyball",
                "82:sweetkiss",
                "91:leafstorm",
                "100:seedflare",
                "tm:bulletseed",
                "tm:confide",
                "tm:dazzlinggleam",
                "tm:doubleteam",
                "tm:endure",
                "tm:energyball",
                "tm:facade",
                "tm:flash",
                "tm:frustration",
                "tm:gigaimpact",
                "tm:grassknot",
                "tm:hiddenpower",
                "tm:hyperbeam",
                "tm:naturepower",
                "tm:protect",
                "tm:psychic",
                "tm:psychup",
                "tm:rest",
                "tm:return",
                "tm:round",
                "tm:safeguard",
                "tm:secretpower",
                "tm:sleeptalk",
                "tm:solarbeam",
                "tm:substitute",
                "tm:sunnyday",
                "tm:swagger",
                "tm:swordsdance",
                "tm:toxic",
                "tutor:aircutter",
                "tutor:covet",
                "tutor:gigadrain",
                "tutor:headbutt",
                "tutor:laserfocus",
                "tutor:lastresort",
                "tutor:mudslap",
                "tutor:ominouswind",
                "tutor:seedbomb",
                "tutor:snore",
                "tutor:swift",
                "tutor:synthesis",
                "tutor:tailwind",
                "tutor:worryseed",
                "tutor:zenheadbutt"
            ],
            "pokedex": [
                "cobblemon.form.shaymin-sky.desc1",
                "cobblemon.form.shaymin-sky.desc2"
            ],
            "height": 4,
            "weight": 52
        }
    ]
}