{
    "name": "staravia",
    "nationalPokedexNumber": 397,
    "primaryType": "normal",
    "secondaryType": "flying",
    "abilities": [
        "intimidate",
        "h:reckless"
    ],
    "baseStats": {
        "hp": 55,
        "attack": 75,
        "defence": 50,
        "special_attack": 40,
        "special_defence": 40,
        "speed": 80
    },
    "catchRate": 120,
    "maleRatio": 0.5,
    "shoulderMountable": false,
    "forms": [],
    "baseExperienceYield": 119,
    "experienceGroup": "mediumslow",
    "eggCycles": 15,
    "eggGroups": [
        "flying"
    ],
    "moves": [
        "1:tackle",
        "1:growl",
        "1:quickattack",
        "5:quickattack",
        "9:wingattack",
        "13:doubleteam",
        "18:endeavor",
        "23:whirlwind",
        "28:aerialace",
        "33:takedown",
        "38:agility",
        "43:bravebird",
        "48:finalgambit",
        "tm:aerialace",
        "tm:attract",
        "tm:captivate",
        "tm:confide",
        "tm:doubleteam",
        "tm:echoedvoice",
        "tm:endure",
        "tm:facade",
        "tm:fly",
        "tm:frustration",
        "tm:hiddenpower",
        "tm:naturalgift",
        "tm:pluck",
        "tm:protect",
        "tm:raindance",
        "tm:rest",
        "tm:retaliate",
        "tm:return",
        "tm:roost",
        "tm:round",
        "tm:secretpower",
        "tm:sleeptalk",
        "tm:steelwing",
        "tm:substitute",
        "tm:sunnyday",
        "tm:swagger",
        "tm:thief",
        "tm:toxic",
        "tm:uturn",
        "tm:workup",
        "tutor:aircutter",
        "tutor:defog",
        "tutor:endeavor",
        "tutor:heatwave",
        "tutor:mudslap",
        "tutor:ominouswind",
        "tutor:snore",
        "tutor:swift",
        "tutor:tailwind",
        "tutor:twister",
        "tutor:uproar"
    ],
    "labels": [
        "gen4"
    ],
    "pokedex": [
        "cobblemon.species.staravia.desc1",
        "cobblemon.species.staravia.desc2"
    ],
    "preEvolution": "starly",
    "evolutions": [
        {
            "id": "staravia_staraptor",
            "variant": "level_up",
            "result": "staraptor",
            "consumeHeldItem": false,
            "learnableMoves": [],
            "requirements": [
                {
                    "variant": "level",
                    "minLevel": 34
                }
            ]
        }
    ],
    "baseScale": 1.0,
    "hitbox": {
        "width": 1.0,
        "height": 1.0,
        "fixed": false
    },
    "baseFriendship": 70,
    "evYield": {
        "speed": 2
    },
    "height": 6,
    "weight": 155
}