{
  "name": "ancientpower",
  "type": "Rock",
  "damageCategory": "Special",
  "target": "normal",
  "power": 60,
  "accuracy": 100,
  "pp": 5,
  "priority": 0,
  "effectChance": 10,
  "flags": {
    "protect": 1,
    "mirror": 1
  }
}