{
  "name": "aurasphere",
  "type": "Fighting",
  "damageCategory": "Special",
  "target": "any",
  "power": 80,
  "accuracy": 100.0,
  "pp": 20,
  "priority": 0,
  "flags": {
    "bullet": 1,
    "protect": 1,
    "pulse": 1,
    "mirror": 1,
    "distance": 1
  }
}