{
  "name": "boltbeak",
  "type": "Electric",
  "damageCategory": "Physical",
  "target": "normal",
  "power": 85,
  "accuracy": 100,
  "pp": 10,
  "priority": 0,
  "flags": {
    "contact": 1,
    "protect": 1,
    "mirror": 1
  }
}