{
  "name": "chargebeam",
  "type": "Electric",
  "damageCategory": "Special",
  "target": "normal",
  "power": 50,
  "accuracy": 90,
  "pp": 10,
  "priority": 0,
  "effectChance": 70,
  "flags": {
    "protect": 1,
    "mirror": 1
  }
}