{
  "name": "circlethrow",
  "type": "Fighting",
  "damageCategory": "Physical",
  "target": "normal",
  "power": 60,
  "accuracy": 90,
  "pp": 10,
  "priority": -6,
  "flags": {
    "contact": 1,
    "protect": 1,
    "mirror": 1
  }
}