{
  "name": "clangoroussoulblaze",
  "type": "Dragon",
  "damageCategory": "Special",
  "target": "allAdjacentFoes",
  "power": 185,
  "accuracy": 100.0,
  "pp": 1,
  "priority": 0,
  "flags": {
    "sound": 1,
    "bypasssub": 1
  }
}