{
  "name": "cottonspore",
  "type": "Grass",
  "damageCategory": "Status",
  "target": "allAdjacentFoes",
  "power": 0,
  "accuracy": 100,
  "pp": 40,
  "priority": 0,
  "flags": {
    "powder": 1,
    "protect": 1,
    "reflectable": 1,
    "mirror": 1
  }
}