{
  "name": "dig",
  "type": "Ground",
  "damageCategory": "Physical",
  "target": "normal",
  "power": 80,
  "accuracy": 100,
  "pp": 10,
  "priority": 0,
  "flags": {
    "contact": 1,
    "charge": 1,
    "protect": 1,
    "mirror": 1,
    "nonsky": 1
  }
}