{
  "name": "disarmingvoice",
  "type": "Fairy",
  "damageCategory": "Special",
  "target": "allAdjacentFoes",
  "power": 40,
  "accuracy": 100.0,
  "pp": 15,
  "priority": 0,
  "flags": {
    "protect": 1,
    "mirror": 1,
    "sound": 1,
    "bypasssub": 1
  }
}