{
  "name": "dragonhammer",
  "type": "Dragon",
  "damageCategory": "Physical",
  "target": "normal",
  "power": 90,
  "accuracy": 100,
  "pp": 15,
  "priority": 0,
  "flags": {
    "contact": 1,
    "protect": 1,
    "mirror": 1
  }
}