{
  "name": "dualwingbeat",
  "type": "Flying",
  "damageCategory": "Physical",
  "target": "normal",
  "power": 40,
  "accuracy": 90,
  "pp": 10,
  "priority": 0,
  "flags": {
    "contact": 1,
    "protect": 1,
    "mirror": 1
  }
}