{
  "name": "electroball",
  "type": "Electric",
  "damageCategory": "Special",
  "target": "normal",
  "power": 0,
  "accuracy": 100,
  "pp": 10,
  "priority": 0,
  "flags": {
    "bullet": 1,
    "protect": 1,
    "mirror": 1
  }
}