{
  "name": "electricterrain",
  "type": "Electric",
  "damageCategory": "Status",
  "target": "all",
  "power": 0,
  "accuracy": 100.0,
  "pp": 10,
  "priority": 0,
  "flags": {
    "nonsky": 1
  }
}