{
  "name": "fakeout",
  "type": "Normal",
  "damageCategory": "Physical",
  "target": "normal",
  "power": 40,
  "accuracy": 100,
  "pp": 10,
  "priority": 3,
  "effectChance": 100,
  "flags": {
    "contact": 1,
    "protect": 1,
    "mirror": 1
  }
}