{
  "name": "fierywrath",
  "type": "Dark",
  "damageCategory": "Special",
  "target": "allAdjacentFoes",
  "power": 90,
  "accuracy": 100,
  "pp": 10,
  "priority": 0,
  "effectChance": 20,
  "flags": {
    "protect": 1,
    "mirror": 1
  }
}