{
  "name": "fireblast",
  "type": "Fire",
  "damageCategory": "Special",
  "target": "normal",
  "power": 110,
  "accuracy": 85,
  "pp": 5,
  "priority": 0,
  "effectChance": 10,
  "effectStatus": "brn",
  "flags": {
    "protect": 1,
    "mirror": 1
  }
}