{
  "name": "firespin",
  "type": "Fire",
  "damageCategory": "Special",
  "target": "normal",
  "power": 35,
  "accuracy": 85,
  "pp": 15,
  "priority": 0,
  "flags": {
    "protect": 1,
    "mirror": 1
  }
}