{
  "name": "flamewheel",
  "type": "Fire",
  "damageCategory": "Physical",
  "target": "normal",
  "power": 60,
  "accuracy": 100,
  "pp": 25,
  "priority": 0,
  "effectChance": 10,
  "effectStatus": "brn",
  "flags": {
    "contact": 1,
    "protect": 1,
    "mirror": 1,
    "defrost": 1
  }
}