{
  "name": "floralhealing",
  "type": "Fairy",
  "damageCategory": "Status",
  "target": "normal",
  "power": 0,
  "accuracy": 100.0,
  "pp": 10,
  "priority": 0,
  "flags": {
    "protect": 1,
    "reflectable": 1,
    "heal": 1,
    "allyanim": 1
  }
}