{
  "name": "gigadrain",
  "type": "Grass",
  "damageCategory": "Special",
  "target": "normal",
  "power": 75,
  "accuracy": 100,
  "pp": 10,
  "priority": 0,
  "flags": {
    "protect": 1,
    "mirror": 1,
    "heal": 1
  }
}