{
  "name": "glare",
  "type": "Normal",
  "damageCategory": "Status",
  "target": "normal",
  "power": 0,
  "accuracy": 100,
  "pp": 30,
  "priority": 0,
  "flags": {
    "protect": 1,
    "reflectable": 1,
    "mirror": 1
  }
}