{
  "name": "heatwave",
  "type": "Fire",
  "damageCategory": "Special",
  "target": "allAdjacentFoes",
  "power": 95,
  "accuracy": 90,
  "pp": 10,
  "priority": 0,
  "effectChance": 10,
  "effectStatus": "brn",
  "flags": {
    "protect": 1,
    "mirror": 1
  }
}