{
  "name": "highhorsepower",
  "type": "Ground",
  "damageCategory": "Physical",
  "target": "normal",
  "power": 95,
  "accuracy": 95,
  "pp": 10,
  "priority": 0,
  "flags": {
    "contact": 1,
    "protect": 1,
    "mirror": 1
  }
}