{
  "name": "holdhands",
  "type": "Normal",
  "damageCategory": "Status",
  "target": "adjacentAlly",
  "power": 0,
  "accuracy": 100.0,
  "pp": 40,
  "priority": 0,
  "flags": {
    "bypasssub": 1
  }
}