{
  "name": "howl",
  "type": "Normal",
  "damageCategory": "Status",
  "target": "allies",
  "power": 0,
  "accuracy": 100.0,
  "pp": 40,
  "priority": 0,
  "flags": {
    "snatch": 1,
    "sound": 1
  }
}