{
  "name": "icefang",
  "type": "Ice",
  "damageCategory": "Physical",
  "target": "normal",
  "power": 65,
  "accuracy": 95,
  "pp": 15,
  "priority": 0,
  "flags": {
    "bite": 1,
    "contact": 1,
    "protect": 1,
    "mirror": 1
  }
}