{
  "name": "instruct",
  "type": "Psychic",
  "damageCategory": "Status",
  "target": "normal",
  "power": 0,
  "accuracy": 100.0,
  "pp": 15,
  "priority": 0,
  "flags": {
    "protect": 1,
    "bypasssub": 1,
    "allyanim": 1
  }
}