{
  "name": "kinesis",
  "type": "Psychic",
  "damageCategory": "Status",
  "target": "normal",
  "power": 0,
  "accuracy": 80,
  "pp": 15,
  "priority": 0,
  "flags": {
    "protect": 1,
    "reflectable": 1,
    "mirror": 1
  }
}