{
  "name": "magicalleaf",
  "type": "Grass",
  "damageCategory": "Special",
  "target": "normal",
  "power": 60,
  "accuracy": 100.0,
  "pp": 20,
  "priority": 0,
  "flags": {
    "protect": 1,
    "mirror": 1
  }
}