{
  "name": "magnitude",
  "type": "Ground",
  "damageCategory": "Physical",
  "target": "allAdjacent",
  "power": 0,
  "accuracy": 100,
  "pp": 30,
  "priority": 0,
  "flags": {
    "protect": 1,
    "mirror": 1,
    "nonsky": 1
  }
}