{
  "name": "metalsound",
  "type": "Steel",
  "damageCategory": "Status",
  "target": "normal",
  "power": 0,
  "accuracy": 85,
  "pp": 40,
  "priority": 0,
  "flags": {
    "protect": 1,
    "reflectable": 1,
    "mirror": 1,
    "sound": 1,
    "bypasssub": 1,
    "allyanim": 1
  }
}