{
  "name": "poisonjab",
  "type": "Poison",
  "damageCategory": "Physical",
  "target": "normal",
  "power": 80,
  "accuracy": 100,
  "pp": 20,
  "priority": 0,
  "effectChance": 30,
  "effectStatus": "psn",
  "flags": {
    "contact": 1,
    "protect": 1,
    "mirror": 1
  }
}