{
  "name": "poisonsting",
  "type": "Poison",
  "damageCategory": "Physical",
  "target": "normal",
  "power": 15,
  "accuracy": 100,
  "pp": 35,
  "priority": 0,
  "effectChance": 30,
  "effectStatus": "psn",
  "flags": {
    "protect": 1,
    "mirror": 1
  }
}