{
  "name": "poltergeist",
  "type": "Ghost",
  "damageCategory": "Physical",
  "target": "normal",
  "power": 110,
  "accuracy": 90,
  "pp": 5,
  "priority": 0,
  "flags": {
    "protect": 1,
    "mirror": 1
  }
}