{
  "name": "roaroftime",
  "type": "Dragon",
  "damageCategory": "Special",
  "target": "normal",
  "power": 150,
  "accuracy": 90,
  "pp": 5,
  "priority": 0,
  "flags": {
    "recharge": 1,
    "protect": 1,
    "mirror": 1
  }
}