{
  "name": "round",
  "type": "Normal",
  "damageCategory": "Special",
  "target": "normal",
  "power": 60,
  "accuracy": 100,
  "pp": 15,
  "priority": 0,
  "flags": {
    "protect": 1,
    "mirror": 1,
    "sound": 1,
    "bypasssub": 1
  }
}