{
  "name": "searingsunrazesmash",
  "type": "Steel",
  "damageCategory": "Physical",
  "target": "normal",
  "power": 200,
  "accuracy": 100.0,
  "pp": 1,
  "priority": 0,
  "flags": {
    "contact": 1
  }
}