{
  "name": "slam",
  "type": "Normal",
  "damageCategory": "Physical",
  "target": "normal",
  "power": 80,
  "accuracy": 75,
  "pp": 20,
  "priority": 0,
  "flags": {
    "contact": 1,
    "protect": 1,
    "mirror": 1,
    "nonsky": 1
  }
}