{
  "name": "sludge",
  "type": "Poison",
  "damageCategory": "Special",
  "target": "normal",
  "power": 65,
  "accuracy": 100,
  "pp": 20,
  "priority": 0,
  "effectChance": 30,
  "effectStatus": "psn",
  "flags": {
    "protect": 1,
    "mirror": 1
  }
}