{
  "name": "sonicboom",
  "type": "Normal",
  "damageCategory": "Special",
  "target": "normal",
  "power": 0,
  "accuracy": 90,
  "pp": 20,
  "priority": 0,
  "flags": {
    "protect": 1,
    "mirror": 1
  }
}