{
  "name": "stealthrock",
  "type": "Rock",
  "damageCategory": "Status",
  "target": "foeSide",
  "power": 0,
  "accuracy": 100.0,
  "pp": 20,
  "priority": 0,
  "flags": {
    "reflectable": 1
  }
}