{
  "name": "steelwing",
  "type": "Steel",
  "damageCategory": "Physical",
  "target": "normal",
  "power": 70,
  "accuracy": 90,
  "pp": 25,
  "priority": 0,
  "effectChance": 10,
  "flags": {
    "contact": 1,
    "protect": 1,
    "mirror": 1
  }
}