{
  "name": "technoblast",
  "type": "Normal",
  "damageCategory": "Special",
  "target": "normal",
  "power": 120,
  "accuracy": 100,
  "pp": 5,
  "priority": 0,
  "flags": {
    "protect": 1,
    "mirror": 1
  }
}