{
  "name": "thunder",
  "type": "Electric",
  "damageCategory": "Special",
  "target": "normal",
  "power": 110,
  "accuracy": 70,
  "pp": 10,
  "priority": 0,
  "effectChance": 30,
  "effectStatus": "par",
  "flags": {
    "protect": 1,
    "mirror": 1
  }
}