{
  "name": "twister",
  "type": "Dragon",
  "damageCategory": "Special",
  "target": "allAdjacentFoes",
  "power": 40,
  "accuracy": 100,
  "pp": 20,
  "priority": 0,
  "effectChance": 20,
  "flags": {
    "protect": 1,
    "mirror": 1
  }
}