{
  "name": "watershuriken",
  "type": "Water",
  "damageCategory": "Special",
  "target": "normal",
  "power": 15,
  "accuracy": 100,
  "pp": 20,
  "priority": 1,
  "flags": {
    "protect": 1,
    "mirror": 1
  }
}