{
	"format_version": "1.12.0",
	"minecraft:geometry": [
		{
			"description": {
				"identifier": "geometry.raichu_male",
				"texture_width": 64,
				"texture_height": 64,
				"visible_bounds_width": 7,
				"visible_bounds_height": 3.5,
				"visible_bounds_offset": [0, 1.25, 0]
			},
			"bones": [
				{
					"name": "raichu",
					"pivot": [0, 0, 0]
				},
				{
					"name": "body",
					"parent": "raichu",
					"pivot": [0, 0, 0]
				},
				{
					"name": "torso",
					"parent": "body",
					"pivot": [0, 9.5, 0],
					"cubes": [
						{"origin": [-5.5, 4, -3.5], "size": [11, 12, 8], "uv": [0, 17]}
					]
				},
				{
					"name": "head",
					"parent": "torso",
					"pivot": [0, 16, 0.25],
					"cubes": [
						{"origin": [-5, 16, -4.25], "size": [10, 8, 9], "uv": [0, 0]},
						{"origin": [-0.5, 18.75, -4.25], "size": [1, 1, 0], "inflate": 0.01, "uv": [5, 0], "mirror": true},
						{"origin": [-1.5, 17.25, -4.25], "size": [3, 1, 0], "inflate": 0.01, "uv": [0, 2], "mirror": true}
					]
				},
				{
					"name": "eyes",
					"parent": "head",
					"pivot": [0, 20.5, -4.25],
					"cubes": [
						{"origin": [1.75, 19.5, -4.25], "size": [2, 2, 0], "inflate": 0.01, "uv": [0, 0], "mirror": true},
						{"origin": [-3.75, 19.5, -4.25], "size": [2, 2, 0], "inflate": 0.01, "uv": [0, 0]}
					]
				},
				{
					"name": "eyelids",
					"parent": "eyes",
					"pivot": [0, 20.5, -3.65],
					"cubes": [
						{"origin": [-3.75, 19.5, -4.15], "size": [2, 2, 1], "inflate": 0.02, "uv": [0, 4]},
						{"origin": [1.75, 19.5, -4.15], "size": [2, 2, 1], "inflate": 0.02, "uv": [0, 4], "mirror": true}
					]
				},
				{
					"name": "ear_left",
					"parent": "head",
					"pivot": [5, 24, -1.25],
					"rotation": [2.5, 20, 2.5],
					"cubes": [
						{"origin": [5, 21.5, -2.25], "size": [0, 9, 12], "inflate": 0.01, "uv": [40, 42]}
					]
				},
				{
					"name": "ear_right",
					"parent": "head",
					"pivot": [-5, 24, -1.25],
					"rotation": [2.5, -20, -2.5],
					"cubes": [
						{"origin": [-5, 21.5, -2.25], "size": [0, 9, 12], "inflate": 0.01, "uv": [40, 42], "mirror": true}
					]
				},
				{
					"name": "tail",
					"parent": "torso",
					"pivot": [0, 6, 4.5],
					"cubes": [
						{"origin": [0, 5.5, 3.5], "size": [0, 1, 9], "inflate": 0.02, "uv": [0, 54]}
					]
				},
				{
					"name": "tail2",
					"parent": "tail",
					"pivot": [0, 6, 12.5],
					"cubes": [
						{"origin": [0, 5.5, 12.5], "size": [0, 1, 8], "inflate": 0.01, "uv": [0, 54]}
					]
				},
				{
					"name": "tail3",
					"parent": "tail2",
					"pivot": [0, 6, 20.5],
					"cubes": [
						{"origin": [0, 5.5, 20.5], "size": [0, 1, 8], "inflate": 0.02, "uv": [0, 53]}
					]
				},
				{
					"name": "tail4",
					"parent": "tail3",
					"pivot": [0, 6, 28.5],
					"cubes": [
						{"origin": [0, 3.5, 28.5], "size": [0, 8, 18], "inflate": 0.01, "uv": [0, 27]}
					]
				},
				{
					"name": "arm_right",
					"parent": "torso",
					"pivot": [-5.5, 15.5, -0.25],
					"cubes": [
						{"origin": [-9.5, 12.5, -2.25], "size": [4, 3, 4], "uv": [42, 0]}
					]
				},
				{
					"name": "arm_right2",
					"parent": "arm_right",
					"pivot": [-9.5, 14, 1.75],
					"cubes": [
						{"origin": [-13.5, 12.5, -2.25], "size": [4, 3, 4], "inflate": 0.01, "uv": [38, 0]}
					]
				},
				{
					"name": "arm_left",
					"parent": "torso",
					"pivot": [5.5, 15.5, -0.25],
					"cubes": [
						{"origin": [5.5, 12.5, -2.25], "size": [4, 3, 4], "uv": [42, 0], "mirror": true}
					]
				},
				{
					"name": "arm_left2",
					"parent": "arm_left",
					"pivot": [9.5, 14, 1.75],
					"cubes": [
						{"origin": [9.5, 12.5, -2.25], "size": [4, 3, 4], "inflate": 0.01, "uv": [38, 0], "mirror": true}
					]
				},
				{
					"name": "leg_right",
					"parent": "body",
					"pivot": [-4.5, 6.5, -0.75],
					"cubes": [
						{"origin": [-6.5, 3, -4.25], "size": [3, 6, 7], "uv": [44, 14]},
						{"origin": [-6, 2, -2.25], "size": [2, 1, 4], "uv": [39, 14]}
					]
				},
				{
					"name": "foot_right",
					"parent": "leg_right",
					"pivot": [-5, 2, 0.25],
					"cubes": [
						{"origin": [-6.5, 0, -2.75], "size": [3, 2, 5], "uv": [48, 40]}
					]
				},
				{
					"name": "foot_right2",
					"parent": "foot_right",
					"pivot": [-5, 0, -2.75],
					"cubes": [
						{"origin": [-6.5, 0, -6.75], "size": [3, 2, 4], "inflate": 0.01, "uv": [30, 19]}
					]
				},
				{
					"name": "leg_left",
					"parent": "body",
					"pivot": [4.5, 6.5, -0.75],
					"cubes": [
						{"origin": [3.5, 3, -4.25], "size": [3, 6, 7], "uv": [44, 27]},
						{"origin": [4, 2, -2.25], "size": [2, 1, 4], "uv": [39, 28]}
					]
				},
				{
					"name": "foot_left",
					"parent": "leg_left",
					"pivot": [5, 2, 0.25],
					"cubes": [
						{"origin": [3.5, 0, -2.75], "size": [3, 2, 5], "uv": [48, 47]}
					]
				},
				{
					"name": "foot_left2",
					"parent": "foot_left",
					"pivot": [5, 0, -2.75],
					"cubes": [
						{"origin": [3.5, 0, -6.75], "size": [3, 2, 4], "inflate": 0.01, "uv": [38, 44]}
					]
				}
			]
		}
	]
}