{
  "species": "cobblemon:kabuto",
  "order": 0,
  "variations": [
    {
      "aspects": [],
      "poser": "cobblemon:kabuto",
      "model": "cobblemon:kabuto.geo",
      "texture": "cobblemon:textures/pokemon/0140_kabuto/kabuto.png",
      "layers": []
    },
    {
      "aspects": [
        "shiny"
      ],
      "texture": "cobblemon:textures/pokemon/0140_kabuto/kabuto_shiny.png"
    }
  ]
}