{
	"format_version": "1.8.0",
	"animations": {
		"animation.chansey.ground_idle": {
			"loop": true,
			"bones": {
				"righthand": {
					"rotation": [0, -30, 10]
				},
				"lefthand": {
					"rotation": [0, 30, -10]
				},
				"tail": {
					"rotation": [30, 0, 0]
				},
				"lefthair": {
					"rotation": [0, 0, 30]
				},
				"lefthair2": {
					"rotation": [0, 0, 25]
				},
				"lefthair3": {
					"rotation": [0, 0, 30]
				},
				"righthair": {
					"rotation": [0, 0, -30]
				},
				"righthair2": {
					"rotation": [0, 0, -25]
				},
				"righthair3": {
					"rotation": [0, 0, -30]
				}
			}
		}
	}
}