{
	"format_version": "1.8.0",
	"animations": {
		"animation.empoleon.ground_idle": {
			"loop": true,
			"bones": {
				"wing_right1": {
					"rotation": [0, 0, -60]
				},
				"wing_left1": {
					"rotation": [0, 0, 60]
				}
			}
		},
		"animation.empoleon.water_idle": {
			"loop": true,
			"bones": {
				"wing_right1": {
					"rotation": [15, 15, -45]
				},
				"wing_left1": {
					"rotation": [15, -15, 45]
				},
				"body": {
					"rotation": [15, 0, 0]
				},
				"head": {
					"rotation": [-12.5, 0, 0]
				},
				"leg_right1": {
					"rotation": [7.5, 0, 0]
				},
				"leg_right2": {
					"rotation": [15, 0, 0]
				},
				"foot_right1": {
					"rotation": [15, 0, 0]
				},
				"leg_left1": {
					"rotation": [7.5, 0, 0]
				},
				"leg_left2": {
					"rotation": [15, 0, 0]
				},
				"foot_left1": {
					"rotation": [15, 0, 0]
				}
			}
		},
		"animation.empoleon.water_swim": {
			"loop": true,
			"bones": {
				"wing_right1": {
					"rotation": [7.5, 15, -60]
				},
				"wing_left1": {
					"rotation": [7.5, -15, 60]
				},
				"body": {
					"rotation": [60, 0, 0]
				},
				"head": {
					"rotation": [-50, 0, 0],
					"position": [0, -1, -1]
				},
				"leg_right1": {
					"rotation": [7.5, 0, 0]
				},
				"leg_right2": {
					"rotation": [15, 0, 0]
				},
				"foot_right1": {
					"rotation": [30, 0, 0]
				},
				"leg_left1": {
					"rotation": [7.5, 0, 0]
				},
				"leg_left2": {
					"rotation": [15, 0, 0]
				},
				"foot_left1": {
					"rotation": [30, 0, 0]
				}
			}
		}
	}
}