{
  "species": "cobblemon:doduo",
  "order": 0,
  "variations": [
    {
      "aspects": [],
      "poser": "cobblemon:doduo",
      "model": "cobblemon:doduo.geo",
      "texture": "cobblemon:textures/pokemon/0084_doduo/doduo_m.png",
      "layers": []
    }
  ]
}