{
    "name": "brionne",
    "nationalPokedexNumber": 729,
    "primaryType": "water",
    "abilities": [
        "torrent",
        "h:liquidvoice"
    ],
    "baseStats": {
        "hp": 60,
        "attack": 69,
        "defence": 69,
        "special_attack": 91,
        "special_defence": 81,
        "speed": 50
    },
    "catchRate": 45,
    "maleRatio": 0.875,
    "shoulderMountable": false,
    "forms": [],
    "baseExperienceYield": 147,
    "experienceGroup": "mediumslow",
    "eggCycles": 15,
    "eggGroups": [
        "water_1",
        "field"
    ],
    "moves": [
        "1:pound",
        "1:growl",
        "1:watergun",
        "1:disarmingvoice",
        "9:aquajet",
        "12:babydolleyes",
        "15:icywind",
        "20:sing",
        "25:bubblebeam",
        "30:encore",
        "33:doubleslap",
        "35:mistyterrain",
        "40:hypervoice",
        "45:moonblast",
        "46:captivate",
        "50:hydropump",
        "tm:acrobatics",
        "tm:amnesia",
        "tm:attract",
        "tm:blizzard",
        "tm:brine",
        "tm:charm",
        "tm:confide",
        "tm:dive",
        "tm:doubleteam",
        "tm:drainingkiss",
        "tm:echoedvoice",
        "tm:encore",
        "tm:endure",
        "tm:facade",
        "tm:frustration",
        "tm:hail",
        "tm:helpinghand",
        "tm:hiddenpower",
        "tm:hydropump",
        "tm:hypervoice",
        "tm:icebeam",
        "tm:icywind",
        "tm:irontail",
        "tm:mistyterrain",
        "tm:playrough",
        "tm:protect",
        "tm:raindance",
        "tm:rest",
        "tm:return",
        "tm:round",
        "tm:scald",
        "tm:sleeptalk",
        "tm:snore",
        "tm:substitute",
        "tm:surf",
        "tm:swagger",
        "tm:toxic",
        "tm:uproar",
        "tm:waterfall",
        "tm:whirlpool",
        "tm:wonderroom",
        "tm:workup",
        "tutor:aquatail",
        "tutor:covet",
        "tutor:flipturn",
        "tutor:tripleaxel",
        "tutor:waterpledge",
        "tutor:waterpulse"
    ],
    "labels": [
        "gen7"
    ],
    "pokedex": [
        "cobblemon.species.brionne.desc1",
        "cobblemon.species.brionne.desc2"
    ],
    "preEvolution": "popplio",
    "evolutions": [
        {
            "id": "brionne_primarina",
            "variant": "level_up",
            "result": "primarina",
            "consumeHeldItem": false,
            "learnableMoves": [],
            "requirements": [
                {
                    "variant": "level",
                    "minLevel": 34
                }
            ]
        }
    ],
    "baseScale": 1.0,
    "hitbox": {
        "width": 1.0,
        "height": 1.0,
        "fixed": false
    },
    "baseFriendship": 50,
    "evYield": {
        "special_attack": 2
    },
    "height": 6,
    "weight": 175
}