{
    "name": "cosmoem",
    "nationalPokedexNumber": 790,
    "primaryType": "psychic",
    "abilities": [
        "sturdy"
    ],
    "baseStats": {
        "hp": 43,
        "attack": 29,
        "defence": 131,
        "special_attack": 29,
        "special_defence": 131,
        "speed": 37
    },
    "catchRate": 45,
    "maleRatio": -1,
    "shoulderMountable": false,
    "forms": [],
    "baseExperienceYield": 140,
    "experienceGroup": "slow",
    "eggCycles": 120,
    "eggGroups": [
        "undiscovered"
    ],
    "moves": [
        "0:cosmicpower",
        "1:teleport",
        "1:cosmicpower",
        "tm:cosmicpower"
    ],
    "labels": [
        "gen7",
        "legendary"
    ],
    "pokedex": [
        "cobblemon.species.cosmoem.desc1",
        "cobblemon.species.cosmoem.desc2"
    ],
    "preEvolution": "cosmog",
    "evolutions": [
        {
            "id": "cosmoem_solgaleo",
            "variant": "level_up",
            "result": "solgaleo",
            "consumeHeldItem": false,
            "learnableMoves": [],
            "requirements": [
                {
                    "variant": "level",
                    "minLevel": 53
                }
            ]
        },
        {
            "id": "cosmoem_lunala",
            "variant": "level_up",
            "result": "lunala",
            "consumeHeldItem": false,
            "learnableMoves": [],
            "requirements": [
                {
                    "variant": "level",
                    "minLevel": 53
                }
            ]
        }
    ],
    "baseScale": 1.0,
    "hitbox": {
        "width": 1.0,
        "height": 1.0,
        "fixed": false
    },
    "baseFriendship": 0,
    "evYield": {
        "defence": 1,
        "special_defence": 1
    },
    "height": 1,
    "weight": 9999
}