{
    "name": "cosmog",
    "nationalPokedexNumber": 789,
    "primaryType": "psychic",
    "abilities": [
        "unaware"
    ],
    "baseStats": {
        "hp": 43,
        "attack": 29,
        "defence": 31,
        "special_attack": 29,
        "special_defence": 31,
        "speed": 37
    },
    "catchRate": 45,
    "maleRatio": -1,
    "shoulderMountable": false,
    "forms": [],
    "baseExperienceYield": 40,
    "experienceGroup": "slow",
    "eggCycles": 120,
    "eggGroups": [
        "undiscovered"
    ],
    "moves": [
        "1:teleport",
        "1:splash"
    ],
    "labels": [
        "gen7",
        "legendary"
    ],
    "pokedex": [
        "cobblemon.species.cosmog.desc1",
        "cobblemon.species.cosmog.desc2"
    ],
    "evolutions": [
        {
            "id": "cosmog_cosmoem",
            "variant": "level_up",
            "result": "cosmoem",
            "consumeHeldItem": false,
            "learnableMoves": [],
            "requirements": [
                {
                    "variant": "level",
                    "minLevel": 43
                }
            ]
        }
    ],
    "baseScale": 1.0,
    "hitbox": {
        "width": 1.0,
        "height": 1.0,
        "fixed": false
    },
    "baseFriendship": 0,
    "evYield": {
        "hp": 1
    },
    "height": 2,
    "weight": 1
}