{
    "name": "drampa",
    "nationalPokedexNumber": 780,
    "primaryType": "normal",
    "secondaryType": "dragon",
    "abilities": [
        "berserk",
        "sapsipper",
        "h:cloudnine"
    ],
    "baseStats": {
        "hp": 78,
        "attack": 60,
        "defence": 85,
        "special_attack": 135,
        "special_defence": 91,
        "speed": 36
    },
    "catchRate": 70,
    "maleRatio": 0.5,
    "shoulderMountable": false,
    "forms": [],
    "baseExperienceYield": 170,
    "experienceGroup": "mediumfast",
    "eggCycles": 20,
    "eggGroups": [
        "monster",
        "dragon"
    ],
    "moves": [
        "1:echoedvoice",
        "1:playnice",
        "5:twister",
        "10:protect",
        "15:glare",
        "20:safeguard",
        "21:dragonrage",
        "25:dragonbreath",
        "25:naturalgift",
        "30:extrasensory",
        "35:dragonpulse",
        "40:lightscreen",
        "45:fly",
        "50:hypervoice",
        "55:outrage",
        "egg:dragonrush",
        "egg:mist",
        "egg:razorwind",
        "egg:tickle",
        "tm:amnesia",
        "tm:attract",
        "tm:blizzard",
        "tm:breakingswipe",
        "tm:bulldoze",
        "tm:calmmind",
        "tm:confide",
        "tm:doubleteam",
        "tm:dragonclaw",
        "tm:dragondance",
        "tm:dragonpulse",
        "tm:dragontail",
        "tm:earthquake",
        "tm:endure",
        "tm:energyball",
        "tm:facade",
        "tm:fireblast",
        "tm:flamethrower",
        "tm:fling",
        "tm:fly",
        "tm:focusblast",
        "tm:frustration",
        "tm:gigaimpact",
        "tm:grassknot",
        "tm:heatwave",
        "tm:helpinghand",
        "tm:hiddenpower",
        "tm:hurricane",
        "tm:hydropump",
        "tm:hyperbeam",
        "tm:hypervoice",
        "tm:icebeam",
        "tm:icywind",
        "tm:lightscreen",
        "tm:naturepower",
        "tm:outrage",
        "tm:playrough",
        "tm:protect",
        "tm:psychup",
        "tm:raindance",
        "tm:rest",
        "tm:return",
        "tm:roar",
        "tm:rockslide",
        "tm:roost",
        "tm:round",
        "tm:safeguard",
        "tm:shadowball",
        "tm:shadowclaw",
        "tm:sleeptalk",
        "tm:snarl",
        "tm:snore",
        "tm:solarbeam",
        "tm:steelwing",
        "tm:stompingtantrum",
        "tm:substitute",
        "tm:sunnyday",
        "tm:superpower",
        "tm:surf",
        "tm:swift",
        "tm:thunder",
        "tm:thunderbolt",
        "tm:thunderwave",
        "tm:toxic",
        "tm:uproar",
        "tm:workup",
        "tutor:block",
        "tutor:defog",
        "tutor:dracometeor",
        "tutor:endeavor",
        "tutor:lashout",
        "tutor:scaleshot",
        "tutor:shockwave",
        "tutor:signalbeam",
        "tutor:tailwind",
        "tutor:waterpulse"
    ],
    "labels": [
        "gen7"
    ],
    "pokedex": [
        "cobblemon.species.drampa.desc1",
        "cobblemon.species.drampa.desc2"
    ],
    "evolutions": [],
    "baseScale": 1.0,
    "hitbox": {
        "width": 1.0,
        "height": 1.0,
        "fixed": false
    },
    "baseFriendship": 50,
    "evYield": {
        "special_attack": 2
    },
    "height": 30,
    "weight": 1850
}