{
    "name": "necrozma",
    "nationalPokedexNumber": 800,
    "primaryType": "psychic",
    "abilities": [
        "prismarmor"
    ],
    "baseStats": {
        "hp": 97,
        "attack": 107,
        "defence": 101,
        "special_attack": 127,
        "special_defence": 89,
        "speed": 79
    },
    "catchRate": 255,
    "maleRatio": -1,
    "shoulderMountable": false,
    "forms": [
        {
            "name": "dusk",
            "secondaryType": "steel",
            "baseStats": {
                "hp": 97,
                "attack": 157,
                "defence": 127,
                "special_attack": 113,
                "special_defence": 109,
                "speed": 77
            },
            "baseExperienceYield": 340,
            "evYield": {
                "attack": 3
            },
            "pokedex": [
                "cobblemon.form.necrozma-dusk.desc1",
                "cobblemon.form.necrozma-dusk.desc2"
            ],
            "height": 38,
            "weight": 4600
        },
        {
            "name": "dawn",
            "secondaryType": "ghost",
            "baseStats": {
                "hp": 97,
                "attack": 113,
                "defence": 109,
                "special_attack": 157,
                "special_defence": 127,
                "speed": 77
            },
            "baseExperienceYield": 340,
            "evYield": {
                "special_attack": 3
            },
            "moves": [
                "1:confusion",
                "1:metalclaw",
                "1:morningsun",
                "1:moonlight",
                "1:gravity",
                "1:mirrorshot",
                "1:chargebeam",
                "8:stealthrock",
                "16:slash",
                "24:nightslash",
                "32:psychocut",
                "40:storedpower",
                "48:rockblast",
                "56:irondefense",
                "60:autotomize",
                "64:powergem",
                "66:prismaticlaser",
                "67:wringout",
                "72:photongeyser",
                "tm:aerialace",
                "tm:allyswitch",
                "tm:breakingswipe",
                "tm:brickbreak",
                "tm:brutalswing",
                "tm:bulldoze",
                "tm:calmmind",
                "tm:confide",
                "tm:cosmicpower",
                "tm:darkpulse",
                "tm:doubleteam",
                "tm:dragondance",
                "tm:dragonpulse",
                "tm:earthpower",
                "tm:earthquake",
                "tm:embargo",
                "tm:endure",
                "tm:facade",
                "tm:flashcannon",
                "tm:fling",
                "tm:frustration",
                "tm:futuresight",
                "tm:gigaimpact",
                "tm:gyroball",
                "tm:heatwave",
                "tm:hiddenpower",
                "tm:hyperbeam",
                "tm:hypervoice",
                "tm:imprison",
                "tm:irondefense",
                "tm:ironhead",
                "tm:lightscreen",
                "tm:outrage",
                "tm:powergem",
                "tm:protect",
                "tm:psychic",
                "tm:psychicfangs",
                "tm:psychocut",
                "tm:psyshock",
                "tm:reflect",
                "tm:rest",
                "tm:return",
                "tm:rockblast",
                "tm:rockpolish",
                "tm:rockslide",
                "tm:rocktomb",
                "tm:round",
                "tm:scaryface",
                "tm:shadowclaw",
                "tm:sleeptalk",
                "tm:smartstrike",
                "tm:snore",
                "tm:solarbeam",
                "tm:stealthrock",
                "tm:stoneedge",
                "tm:storedpower",
                "tm:substitute",
                "tm:swagger",
                "tm:swordsdance",
                "tm:thief",
                "tm:thunderwave",
                "tm:toxic",
                "tm:trickroom",
                "tm:xscissor",
                "tutor:expandingforce",
                "tutor:knockoff",
                "tutor:magnetrise",
                "tutor:meteorbeam",
                "tutor:recycle",
                "tutor:shockwave",
                "tutor:signalbeam",
                "tutor:telekinesis"
            ],
            "pokedex": [
                "cobblemon.form.necrozma-dawn.desc1",
                "cobblemon.form.necrozma-dawn.desc2"
            ],
            "height": 42,
            "weight": 3500
        },
        {
            "name": "ultra",
            "secondaryType": "dragon",
            "abilities": [
                "neuroforce"
            ],
            "baseStats": {
                "hp": 97,
                "attack": 167,
                "defence": 97,
                "special_attack": 167,
                "special_defence": 97,
                "speed": 129
            },
            "baseExperienceYield": 339,
            "evYield": {
                "attack": 1,
                "special_attack": 1,
                "speed": 1
            },
            "moves": [
                "1:confusion",
                "1:metalclaw",
                "1:morningsun",
                "1:moonlight",
                "1:mirrorshot",
                "1:chargebeam",
                "7:slash",
                "13:storedpower",
                "19:rockblast",
                "23:nightslash",
                "31:gravity",
                "37:psychocut",
                "43:powergem",
                "47:autotomize",
                "50:photongeyser",
                "53:stealthrock",
                "59:irondefense",
                "67:wringout",
                "73:prismaticlaser",
                "tm:aerialace",
                "tm:brickbreak",
                "tm:brutalswing",
                "tm:bulldoze",
                "tm:calmmind",
                "tm:chargebeam",
                "tm:confide",
                "tm:darkpulse",
                "tm:doubleteam",
                "tm:earthquake",
                "tm:embargo",
                "tm:facade",
                "tm:flashcannon",
                "tm:fling",
                "tm:frustration",
                "tm:gigaimpact",
                "tm:gyroball",
                "tm:hiddenpower",
                "tm:hyperbeam",
                "tm:lightscreen",
                "tm:protect",
                "tm:psychic",
                "tm:psyshock",
                "tm:reflect",
                "tm:rest",
                "tm:return",
                "tm:rockpolish",
                "tm:rockslide",
                "tm:rocktomb",
                "tm:round",
                "tm:shadowclaw",
                "tm:sleeptalk",
                "tm:smartstrike",
                "tm:solarbeam",
                "tm:stoneedge",
                "tm:substitute",
                "tm:swagger",
                "tm:swordsdance",
                "tm:thief",
                "tm:thunderwave",
                "tm:toxic",
                "tm:trickroom",
                "tm:xscissor",
                "tutor:allyswitch",
                "tutor:dragonpulse",
                "tutor:earthpower",
                "tutor:gravity",
                "tutor:heatwave",
                "tutor:hypervoice",
                "tutor:irondefense",
                "tutor:ironhead",
                "tutor:knockoff",
                "tutor:magnetrise",
                "tutor:outrage",
                "tutor:recycle",
                "tutor:shockwave",
                "tutor:signalbeam",
                "tutor:snore",
                "tutor:stealthrock",
                "tutor:telekinesis"
            ],
            "pokedex": [
                "cobblemon.form.necrozma-ultra.desc1",
                "cobblemon.form.necrozma-ultra.desc2"
            ],
            "height": 75
        }
    ],
    "baseExperienceYield": 300,
    "experienceGroup": "slow",
    "eggCycles": 120,
    "eggGroups": [
        "undiscovered"
    ],
    "moves": [
        "1:confusion",
        "1:metalclaw",
        "1:morningsun",
        "1:moonlight",
        "1:gravity",
        "1:mirrorshot",
        "1:chargebeam",
        "8:stealthrock",
        "16:slash",
        "24:nightslash",
        "32:psychocut",
        "40:storedpower",
        "48:rockblast",
        "56:irondefense",
        "64:powergem",
        "67:wringout",
        "72:photongeyser",
        "80:autotomize",
        "88:prismaticlaser",
        "tm:aerialace",
        "tm:allyswitch",
        "tm:breakingswipe",
        "tm:brickbreak",
        "tm:brutalswing",
        "tm:bulldoze",
        "tm:calmmind",
        "tm:confide",
        "tm:cosmicpower",
        "tm:darkpulse",
        "tm:doubleteam",
        "tm:dragondance",
        "tm:dragonpulse",
        "tm:earthpower",
        "tm:earthquake",
        "tm:embargo",
        "tm:endure",
        "tm:facade",
        "tm:flashcannon",
        "tm:fling",
        "tm:frustration",
        "tm:futuresight",
        "tm:gigaimpact",
        "tm:gyroball",
        "tm:heatwave",
        "tm:hiddenpower",
        "tm:hyperbeam",
        "tm:hypervoice",
        "tm:imprison",
        "tm:irondefense",
        "tm:ironhead",
        "tm:lightscreen",
        "tm:outrage",
        "tm:powergem",
        "tm:protect",
        "tm:psychic",
        "tm:psychicfangs",
        "tm:psychocut",
        "tm:psyshock",
        "tm:reflect",
        "tm:rest",
        "tm:return",
        "tm:rockblast",
        "tm:rockpolish",
        "tm:rockslide",
        "tm:rocktomb",
        "tm:round",
        "tm:scaryface",
        "tm:shadowclaw",
        "tm:sleeptalk",
        "tm:smartstrike",
        "tm:snore",
        "tm:solarbeam",
        "tm:stealthrock",
        "tm:stoneedge",
        "tm:storedpower",
        "tm:substitute",
        "tm:swagger",
        "tm:swordsdance",
        "tm:thief",
        "tm:thunderwave",
        "tm:toxic",
        "tm:trickroom",
        "tm:xscissor",
        "tutor:expandingforce",
        "tutor:knockoff",
        "tutor:magnetrise",
        "tutor:meteorbeam",
        "tutor:recycle",
        "tutor:shockwave",
        "tutor:signalbeam",
        "tutor:telekinesis"
    ],
    "labels": [
        "gen7",
        "legendary"
    ],
    "pokedex": [
        "cobblemon.species.necrozma.desc1",
        "cobblemon.species.necrozma.desc2"
    ],
    "evolutions": [],
    "baseScale": 1.0,
    "hitbox": {
        "width": 1.0,
        "height": 1.0,
        "fixed": false
    },
    "baseFriendship": 0,
    "evYield": {
        "attack": 1,
        "special_attack": 2
    },
    "height": 24,
    "weight": 2300
}