{
    "name": "passimian",
    "nationalPokedexNumber": 766,
    "primaryType": "fighting",
    "abilities": [
        "receiver",
        "h:defiant"
    ],
    "baseStats": {
        "hp": 100,
        "attack": 120,
        "defence": 90,
        "special_attack": 40,
        "special_defence": 60,
        "speed": 80
    },
    "catchRate": 45,
    "maleRatio": 0.5,
    "shoulderMountable": false,
    "forms": [],
    "baseExperienceYield": 172,
    "experienceGroup": "slow",
    "eggCycles": 20,
    "eggGroups": [
        "field"
    ],
    "moves": [
        "1:tackle",
        "1:leer",
        "5:rocksmash",
        "10:focusenergy",
        "15:beatup",
        "20:scaryface",
        "25:takedown",
        "25:bestow",
        "30:fling",
        "35:bulkup",
        "40:thrash",
        "45:doubleedge",
        "50:closecombat",
        "55:reversal",
        "60:gigaimpact",
        "egg:counter",
        "egg:feint",
        "egg:knockoff",
        "egg:quickattack",
        "egg:quickguard",
        "egg:seismictoss",
        "egg:vitalthrow",
        "tm:acrobatics",
        "tm:aerialace",
        "tm:assurance",
        "tm:attract",
        "tm:beatup",
        "tm:brickbreak",
        "tm:brutalswing",
        "tm:bulkup",
        "tm:bulldoze",
        "tm:closecombat",
        "tm:confide",
        "tm:doubleteam",
        "tm:drainpunch",
        "tm:earthquake",
        "tm:electroweb",
        "tm:endure",
        "tm:energyball",
        "tm:facade",
        "tm:fling",
        "tm:focusblast",
        "tm:focusenergy",
        "tm:frustration",
        "tm:gigaimpact",
        "tm:grassknot",
        "tm:gunkshot",
        "tm:gyroball",
        "tm:hiddenpower",
        "tm:hyperbeam",
        "tm:ironhead",
        "tm:irontail",
        "tm:lowsweep",
        "tm:megakick",
        "tm:megapunch",
        "tm:payback",
        "tm:protect",
        "tm:raindance",
        "tm:rest",
        "tm:retaliate",
        "tm:return",
        "tm:revenge",
        "tm:reversal",
        "tm:rockslide",
        "tm:rocktomb",
        "tm:round",
        "tm:scaryface",
        "tm:seedbomb",
        "tm:shadowball",
        "tm:sleeptalk",
        "tm:smackdown",
        "tm:snore",
        "tm:substitute",
        "tm:sunnyday",
        "tm:superpower",
        "tm:swagger",
        "tm:taunt",
        "tm:thief",
        "tm:toxic",
        "tm:uproar",
        "tm:uturn",
        "tm:workup",
        "tutor:block",
        "tutor:coaching",
        "tutor:endeavor",
        "tutor:focuspunch",
        "tutor:laserfocus",
        "tutor:shockwave",
        "tutor:snatch"
    ],
    "labels": [
        "gen7"
    ],
    "pokedex": [
        "cobblemon.species.passimian.desc1",
        "cobblemon.species.passimian.desc2"
    ],
    "evolutions": [],
    "baseScale": 1.0,
    "hitbox": {
        "width": 1.0,
        "height": 1.0,
        "fixed": false
    },
    "baseFriendship": 50,
    "evYield": {
        "attack": 2
    },
    "height": 20,
    "weight": 828
}