{
    "name": "stakataka",
    "nationalPokedexNumber": 805,
    "primaryType": "rock",
    "secondaryType": "steel",
    "abilities": [
        "beastboost"
    ],
    "baseStats": {
        "hp": 61,
        "attack": 131,
        "defence": 211,
        "special_attack": 53,
        "special_defence": 101,
        "speed": 13
    },
    "catchRate": 30,
    "maleRatio": -1,
    "shoulderMountable": false,
    "forms": [],
    "baseExperienceYield": 285,
    "experienceGroup": "slow",
    "eggCycles": 120,
    "eggGroups": [
        "undiscovered"
    ],
    "moves": [
        "1:tackle",
        "1:harden",
        "5:rockthrow",
        "10:protect",
        "15:stomp",
        "17:bide",
        "20:block",
        "25:rockslide",
        "30:wideguard",
        "35:autotomize",
        "40:rockblast",
        "45:magnetrise",
        "50:irondefense",
        "55:ironhead",
        "60:takedown",
        "65:stealthrock",
        "70:doubleedge",
        "tm:allyswitch",
        "tm:bodypress",
        "tm:bodyslam",
        "tm:brutalswing",
        "tm:bulldoze",
        "tm:earthquake",
        "tm:endure",
        "tm:facade",
        "tm:flashcannon",
        "tm:frustration",
        "tm:gigaimpact",
        "tm:gyroball",
        "tm:heatcrash",
        "tm:heavyslam",
        "tm:hiddenpower",
        "tm:highhorsepower",
        "tm:infestation",
        "tm:irondefense",
        "tm:ironhead",
        "tm:lightscreen",
        "tm:magicroom",
        "tm:megakick",
        "tm:protect",
        "tm:reflect",
        "tm:rest",
        "tm:return",
        "tm:rockblast",
        "tm:rockpolish",
        "tm:rockslide",
        "tm:rocktomb",
        "tm:round",
        "tm:safeguard",
        "tm:sandstorm",
        "tm:skillswap",
        "tm:sleeptalk",
        "tm:smackdown",
        "tm:snore",
        "tm:stealthrock",
        "tm:stompingtantrum",
        "tm:stoneedge",
        "tm:substitute",
        "tm:superpower",
        "tm:toxic",
        "tm:trickroom",
        "tm:wonderroom",
        "tm:zenheadbutt",
        "tutor:bind",
        "tutor:gravity",
        "tutor:magiccoat",
        "tutor:meteorbeam",
        "tutor:recycle",
        "tutor:roleplay",
        "tutor:steelbeam",
        "tutor:steelroller",
        "tutor:telekinesis"
    ],
    "labels": [
        "gen7",
        "ultra_beast"
    ],
    "pokedex": [
        "cobblemon.species.stakataka.desc1",
        "cobblemon.species.stakataka.desc2"
    ],
    "evolutions": [],
    "baseScale": 1.0,
    "hitbox": {
        "width": 1.0,
        "height": 1.0,
        "fixed": false
    },
    "baseFriendship": 0,
    "evYield": {
        "defence": 3
    },
    "height": 55,
    "weight": 8200
}