{
    "name": "tapubulu",
    "nationalPokedexNumber": 787,
    "primaryType": "grass",
    "secondaryType": "fairy",
    "abilities": [
        "grassysurge",
        "h:telepathy"
    ],
    "baseStats": {
        "hp": 70,
        "attack": 130,
        "defence": 115,
        "special_attack": 85,
        "special_defence": 95,
        "speed": 75
    },
    "catchRate": 3,
    "maleRatio": -1,
    "shoulderMountable": false,
    "forms": [],
    "baseExperienceYield": 285,
    "experienceGroup": "slow",
    "eggCycles": 15,
    "eggGroups": [
        "undiscovered"
    ],
    "moves": [
        "1:rocksmash",
        "1:leafage",
        "5:withdraw",
        "10:disable",
        "15:leechseed",
        "20:megadrain",
        "25:whirlwind",
        "30:hornattack",
        "35:scaryface",
        "38:rototiller",
        "40:hornleech",
        "45:zenheadbutt",
        "50:meanlook",
        "55:naturesmadness",
        "60:woodhammer",
        "65:megahorn",
        "70:skullbash",
        "75:grassyterrain",
        "tm:brickbreak",
        "tm:brutalswing",
        "tm:bulkup",
        "tm:bulletseed",
        "tm:calmmind",
        "tm:closecombat",
        "tm:confide",
        "tm:darkestlariat",
        "tm:dazzlinggleam",
        "tm:echoedvoice",
        "tm:endure",
        "tm:energyball",
        "tm:facade",
        "tm:falseswipe",
        "tm:fling",
        "tm:focusblast",
        "tm:frustration",
        "tm:gigadrain",
        "tm:gigaimpact",
        "tm:grassknot",
        "tm:grassyterrain",
        "tm:guardswap",
        "tm:hiddenpower",
        "tm:highhorsepower",
        "tm:hyperbeam",
        "tm:irondefense",
        "tm:lightscreen",
        "tm:megahorn",
        "tm:megapunch",
        "tm:naturepower",
        "tm:payback",
        "tm:powerswap",
        "tm:protect",
        "tm:psychup",
        "tm:reflect",
        "tm:rest",
        "tm:return",
        "tm:revenge",
        "tm:roar",
        "tm:rockslide",
        "tm:rocktomb",
        "tm:round",
        "tm:safeguard",
        "tm:scaryface",
        "tm:seedbomb",
        "tm:sleeptalk",
        "tm:smartstrike",
        "tm:snarl",
        "tm:snore",
        "tm:solarbeam",
        "tm:stoneedge",
        "tm:storedpower",
        "tm:substitute",
        "tm:sunnyday",
        "tm:superpower",
        "tm:swagger",
        "tm:swordsdance",
        "tm:taunt",
        "tm:torment",
        "tm:toxic",
        "tm:workup",
        "tm:zenheadbutt",
        "tutor:dualchop",
        "tutor:focuspunch",
        "tutor:synthesis",
        "tutor:telekinesis",
        "tutor:worryseed"
    ],
    "labels": [
        "gen7",
        "legendary"
    ],
    "pokedex": [
        "cobblemon.species.tapubulu.desc1",
        "cobblemon.species.tapubulu.desc2"
    ],
    "evolutions": [],
    "baseScale": 1.0,
    "hitbox": {
        "width": 1.0,
        "height": 1.0,
        "fixed": false
    },
    "baseFriendship": 50,
    "evYield": {
        "attack": 3
    },
    "height": 19,
    "weight": 455
}