{
    "name": "yungoos",
    "nationalPokedexNumber": 734,
    "primaryType": "normal",
    "abilities": [
        "stakeout",
        "strongjaw",
        "h:adaptability"
    ],
    "baseStats": {
        "hp": 48,
        "attack": 70,
        "defence": 30,
        "special_attack": 30,
        "special_defence": 30,
        "speed": 45
    },
    "catchRate": 255,
    "maleRatio": 0.5,
    "shoulderMountable": false,
    "forms": [],
    "baseExperienceYield": 51,
    "experienceGroup": "mediumfast",
    "eggCycles": 15,
    "eggGroups": [
        "field"
    ],
    "moves": [
        "1:tackle",
        "3:leer",
        "7:pursuit",
        "10:sandattack",
        "13:odorsleuth",
        "16:bide",
        "19:bite",
        "22:mudslap",
        "25:superfang",
        "28:takedown",
        "31:scaryface",
        "34:crunch",
        "37:hyperfang",
        "40:yawn",
        "43:thrash",
        "46:rest",
        "egg:firefang",
        "egg:icefang",
        "egg:lastresort",
        "egg:revenge",
        "egg:thunderfang",
        "tm:attract",
        "tm:confide",
        "tm:doubleteam",
        "tm:earthquake",
        "tm:echoedvoice",
        "tm:facade",
        "tm:frustration",
        "tm:hiddenpower",
        "tm:payback",
        "tm:protect",
        "tm:rest",
        "tm:return",
        "tm:rocktomb",
        "tm:round",
        "tm:sandstorm",
        "tm:sleeptalk",
        "tm:substitute",
        "tm:swagger",
        "tm:taunt",
        "tm:thief",
        "tm:torment",
        "tm:toxic",
        "tm:uturn",
        "tm:workup",
        "tutor:endeavor",
        "tutor:irontail",
        "tutor:lastresort",
        "tutor:shockwave",
        "tutor:snore",
        "tutor:stompingtantrum",
        "tutor:superfang",
        "tutor:uproar"
    ],
    "labels": [
        "gen7"
    ],
    "pokedex": [
        "cobblemon.species.yungoos.desc1",
        "cobblemon.species.yungoos.desc2"
    ],
    "evolutions": [
        {
            "id": "yungoos_gumshoos",
            "variant": "level_up",
            "result": "gumshoos",
            "consumeHeldItem": false,
            "learnableMoves": [],
            "requirements": [
                {
                    "variant": "time_range",
                    "range": "day"
                },
                {
                    "variant": "level",
                    "minLevel": 20
                }
            ]
        }
    ],
    "baseScale": 1.0,
    "hitbox": {
        "width": 1.0,
        "height": 1.0,
        "fixed": false
    },
    "baseFriendship": 70,
    "evYield": {
        "attack": 1
    },
    "height": 4,
    "weight": 60
}