{
  "species": "cobblemon:tentacruel",
  "order": 0,
  "variations": [
    {
      "aspects": [],
      "poser": "cobblemon:tentacruel",
      "model": "cobblemon:tentacruel.geo",
      "texture": "cobblemon:textures/pokemon/0073_tentacruel/tentacruel.png",
      "layers": []
    },
    {
      "aspects": [
        "shiny"
      ],
      "texture": "cobblemon:textures/pokemon/0073_tentacruel/tentacruel_shiny.png"
    }
  ]
}