{
	"format_version": "1.12.0",
	"minecraft:geometry": [
		{
			"description": {
				"identifier": "geometry.tyrogue",
				"texture_width": 64,
				"texture_height": 64,
				"visible_bounds_width": 3,
				"visible_bounds_height": 3.5,
				"visible_bounds_offset": [0, 1.25, 0]
			},
			"bones": [
				{
					"name": "tyrogue",
					"pivot": [0, 0, 0]
				},
				{
					"name": "body",
					"parent": "tyrogue",
					"pivot": [0, 10, 0],
					"cubes": [
						{"origin": [-2.5, 6.5, -2], "size": [5, 7, 4], "uv": [16, 14]}
					]
				},
				{
					"name": "neck",
					"parent": "body",
					"pivot": [0, 13.5, 0],
					"cubes": [
						{"origin": [-1, 12.75, -1], "size": [2, 2, 2], "uv": [10, 30]}
					]
				},
				{
					"name": "head",
					"parent": "neck",
					"pivot": [0, 14, 0],
					"cubes": [
						{"origin": [-1, 14.25, -3], "size": [2, 1, 0], "inflate": 0.02, "uv": [0, 0]},
						{"origin": [-4, 14, -3], "size": [8, 6, 6], "uv": [0, 0]},
						{"origin": [0, 20, -1.5], "size": [0, 4, 3], "inflate": 0.04, "uv": [0, 9]},
						{"origin": [0, 18, -4.75], "size": [0, 4, 3], "inflate": 0.02, "pivot": [0, 20, -3.25], "rotation": [40, 0, 0], "uv": [14, 9]},
						{"origin": [0, 18, 1.75], "size": [0, 4, 3], "inflate": 0.02, "pivot": [0, 20, 3.25], "rotation": [-40, 0, 0], "uv": [14, 9]}
					]
				},
				{
					"name": "eyes",
					"parent": "head",
					"pivot": [-0.0019, 17.0019, -3],
					"cubes": [
						{"origin": [1.25, 15.5, -3], "size": [2, 3, 0], "inflate": 0.02, "pivot": [1.75, 17.5, -3], "rotation": [0, 0, -5], "uv": [58, 0], "mirror": true},
						{"origin": [-3.25, 15.5, -3], "size": [2, 3, 0], "inflate": 0.02, "pivot": [-2.75, 17.5, -3], "rotation": [0, 0, 5], "uv": [58, 0]}
					]
				},
				{
					"name": "leftarm",
					"parent": "body",
					"pivot": [2.5, 12.25, 0],
					"cubes": [
						{"origin": [1.5, 11.25, -0.5], "size": [5, 2, 1], "inflate": 0.01, "uv": [22, 25]}
					]
				},
				{
					"name": "leftforearm",
					"parent": "leftarm",
					"pivot": [6.5, 11.25, 0],
					"cubes": [
						{"origin": [6.5, 11.25, -0.5], "size": [4, 2, 1], "uv": [30, 28]}
					]
				},
				{
					"name": "lefthand",
					"parent": "leftforearm",
					"pivot": [10.5, 12.25, 0.5],
					"cubes": [
						{"origin": [10.5, 11, -1], "size": [3, 3, 2], "uv": [12, 25]}
					]
				},
				{
					"name": "rightarm",
					"parent": "body",
					"pivot": [-2.5, 12.25, 0],
					"cubes": [
						{"origin": [-6.5, 11.25, -0.5], "size": [5, 2, 1], "inflate": 0.01, "uv": [30, 14]}
					]
				},
				{
					"name": "rightforearm",
					"parent": "rightarm",
					"pivot": [-6.5, 11.25, 0],
					"cubes": [
						{"origin": [-10.5, 11.25, -0.5], "size": [4, 2, 1], "uv": [0, 31]}
					]
				},
				{
					"name": "righthand",
					"parent": "rightforearm",
					"pivot": [-10.5, 12.25, 0.5],
					"cubes": [
						{"origin": [-13.5, 11, -1], "size": [3, 3, 2], "uv": [20, 28]}
					]
				},
				{
					"name": "leftleg",
					"parent": "body",
					"pivot": [-2, 7.75, 0],
					"cubes": [
						{"origin": [-3.5, 6, -1.5], "size": [3, 3, 3], "uv": [0, 25]}
					]
				},
				{
					"name": "leftknee",
					"parent": "leftleg",
					"pivot": [-2, 6, 0],
					"cubes": [
						{"origin": [-2.5, 4, -1], "size": [1, 3, 2], "inflate": 0.01, "uv": [16, 32]}
					]
				},
				{
					"name": "leftknee2",
					"parent": "leftknee",
					"pivot": [-2, 4, -1],
					"cubes": [
						{"origin": [-2.5, 1, -1], "size": [1, 3, 2], "uv": [22, 33]}
					]
				},
				{
					"name": "leftfoot",
					"parent": "leftknee2",
					"pivot": [-2, 2, 0],
					"cubes": [
						{"origin": [-3.5, 0, -3.25], "size": [3, 2, 5], "uv": [23, 7]}
					]
				},
				{
					"name": "rightleg",
					"parent": "body",
					"pivot": [2, 7.75, 0],
					"cubes": [
						{"origin": [0.5, 6, -1.5], "size": [3, 3, 3], "uv": [22, 0]}
					]
				},
				{
					"name": "rightknee",
					"parent": "rightleg",
					"pivot": [2, 6, 0],
					"cubes": [
						{"origin": [1.5, 4, -1], "size": [1, 3, 2], "inflate": 0.01, "uv": [28, 31]}
					]
				},
				{
					"name": "rightknee2",
					"parent": "rightknee",
					"pivot": [2, 4, -1],
					"cubes": [
						{"origin": [1.5, 1, -1], "size": [1, 3, 2], "uv": [0, 0]}
					]
				},
				{
					"name": "rightfoot",
					"parent": "rightknee2",
					"pivot": [2, 2, 0],
					"cubes": [
						{"origin": [0.5, 0, -3.25], "size": [3, 2, 5], "uv": [0, 18]}
					]
				}
			]
		}
	]
}