{
    "name": "alcremie",
    "nationalPokedexNumber": 869,
    "primaryType": "fairy",
    "abilities": [
        "sweetveil",
        "h:aromaveil"
    ],
    "baseStats": {
        "hp": 65,
        "attack": 60,
        "defence": 75,
        "special_attack": 110,
        "special_defence": 121,
        "speed": 64
    },
    "catchRate": 100,
    "maleRatio": 0.0,
    "shoulderMountable": false,
    "forms": [
        {
            "name": "normal"
        },
        {
            "name": "gmax",
            "moves": [],
            "labels": [
                "gen8",
                "gmax"
            ],
            "pokedex": [
                "cobblemon.form.alcremie-gmax.desc1",
                "cobblemon.form.alcremie-gmax.desc2"
            ],
            "height": 300,
            "weight": 10000
        }
    ],
    "baseExperienceYield": 173,
    "experienceGroup": "mediumfast",
    "eggCycles": 20,
    "eggGroups": [
        "fairy",
        "amorphous"
    ],
    "moves": [
        "0:decorate",
        "1:tackle",
        "1:sweetkiss",
        "1:sweetscent",
        "1:aromaticmist",
        "1:decorate",
        "15:drainingkiss",
        "20:aromatherapy",
        "25:attract",
        "30:acidarmor",
        "35:dazzlinggleam",
        "40:recover",
        "45:mistyterrain",
        "50:entrainment",
        "tm:attract",
        "tm:calmmind",
        "tm:charm",
        "tm:dazzlinggleam",
        "tm:drainingkiss",
        "tm:drainpunch",
        "tm:encore",
        "tm:endure",
        "tm:energyball",
        "tm:facade",
        "tm:faketears",
        "tm:fling",
        "tm:gigadrain",
        "tm:gigaimpact",
        "tm:helpinghand",
        "tm:hyperbeam",
        "tm:imprison",
        "tm:lightscreen",
        "tm:magicalleaf",
        "tm:magicroom",
        "tm:metronome",
        "tm:mistyterrain",
        "tm:mysticalfire",
        "tm:playrough",
        "tm:protect",
        "tm:psychic",
        "tm:psyshock",
        "tm:rest",
        "tm:round",
        "tm:safeguard",
        "tm:sleeptalk",
        "tm:snore",
        "tm:solarbeam",
        "tm:storedpower",
        "tm:substitute",
        "tm:triattack",
        "tm:wonderroom",
        "tutor:mistyexplosion"
    ],
    "labels": [
        "gen8"
    ],
    "pokedex": [
        "cobblemon.species.alcremie.desc1",
        "cobblemon.species.alcremie.desc2"
    ],
    "preEvolution": "milcery",
    "evolutions": [],
    "baseScale": 1.0,
    "hitbox": {
        "width": 1.0,
        "height": 1.0,
        "fixed": false
    },
    "baseFriendship": 50,
    "evYield": {
        "special_defence": 2
    },
    "height": 3,
    "weight": 5
}