{
    "name": "applin",
    "nationalPokedexNumber": 840,
    "primaryType": "grass",
    "secondaryType": "dragon",
    "abilities": [
        "ripen",
        "gluttony",
        "h:bulletproof"
    ],
    "baseStats": {
        "hp": 40,
        "attack": 40,
        "defence": 80,
        "special_attack": 40,
        "special_defence": 40,
        "speed": 20
    },
    "catchRate": 255,
    "maleRatio": 0.5,
    "shoulderMountable": false,
    "forms": [],
    "baseExperienceYield": 52,
    "experienceGroup": "erratic",
    "eggCycles": 20,
    "eggGroups": [
        "grass",
        "dragon"
    ],
    "moves": [
        "1:withdraw",
        "1:astonish",
        "egg:defensecurl",
        "egg:recycle",
        "egg:rollout",
        "egg:suckerpunch",
        "tm:attract",
        "tutor:dracometeor",
        "tutor:grassyglide"
    ],
    "labels": [
        "gen8"
    ],
    "pokedex": [
        "cobblemon.species.applin.desc1",
        "cobblemon.species.applin.desc2"
    ],
    "evolutions": [
        {
            "id": "applin_flapple",
            "variant": "item_interact",
            "result": "flapple",
            "consumeHeldItem": false,
            "learnableMoves": [],
            "requirements": [],
            "requiredContext": "cobblemon:tart_apple"
        },
        {
            "id": "applin_appletun",
            "variant": "item_interact",
            "result": "appletun",
            "consumeHeldItem": false,
            "learnableMoves": [],
            "requirements": [],
            "requiredContext": "cobblemon:sweet_apple"
        }
    ],
    "baseScale": 1.0,
    "hitbox": {
        "width": 1.0,
        "height": 1.0,
        "fixed": false
    },
    "baseFriendship": 50,
    "evYield": {
        "defence": 1
    },
    "height": 2,
    "weight": 5
}