{
    "name": "basculegion",
    "nationalPokedexNumber": 902,
    "primaryType": "water",
    "secondaryType": "ghost",
    "abilities": [
        "rattled",
        "adaptability",
        "h:moldbreaker"
    ],
    "baseStats": {
        "hp": 120,
        "attack": 112,
        "defence": 65,
        "special_attack": 80,
        "special_defence": 75,
        "speed": 78
    },
    "catchRate": 135,
    "maleRatio": 0.5,
    "shoulderMountable": false,
    "baseExperienceYield": null,
    "baseFriendship": null,
    "evYield": {
        "hp": 2
    },
    "experienceGroup": "mediumfast",
    "eggCycles": null,
    "eggGroups": [
        "water_2"
    ],
    "moves": [],
    "labels": [
        "gen8"
    ],
    "pokedex": [
        "cobblemon.species.basculegion.desc1",
        "cobblemon.species.basculegion.desc2"
    ],
    "height": 30,
    "weight": 1100,
    "preEvolution": "basculin",
    "evolutions": [],
    "forms": [
        {
            "name": "female",
            "baseStats": {
                "hp": 120,
                "attack": 92,
                "defence": 65,
                "special_attack": 100,
                "special_defence": 75,
                "speed": 78
            },
            "pokedex": [
                "cobblemon.form.basculegion-female.desc1",
                "cobblemon.form.basculegion-female.desc2"
            ]
        }
    ]
}