{
    "name": "carkol",
    "nationalPokedexNumber": 838,
    "primaryType": "rock",
    "secondaryType": "fire",
    "abilities": [
        "steamengine",
        "flamebody",
        "h:flashfire"
    ],
    "baseStats": {
        "hp": 80,
        "attack": 60,
        "defence": 90,
        "special_attack": 60,
        "special_defence": 70,
        "speed": 50
    },
    "catchRate": 120,
    "maleRatio": 0.5,
    "shoulderMountable": false,
    "forms": [],
    "baseExperienceYield": 144,
    "experienceGroup": "mediumslow",
    "eggCycles": 15,
    "eggGroups": [
        "mineral"
    ],
    "moves": [
        "0:flamecharge",
        "1:tackle",
        "1:smokescreen",
        "1:rapidspin",
        "1:smackdown",
        "1:flamecharge",
        "15:rockpolish",
        "20:ancientpower",
        "27:incinerate",
        "35:stealthrock",
        "41:heatcrash",
        "48:rockblast",
        "55:burnup",
        "tm:attract",
        "tm:bodypress",
        "tm:dig",
        "tm:endure",
        "tm:facade",
        "tm:fireblast",
        "tm:firespin",
        "tm:flamethrower",
        "tm:flareblitz",
        "tm:gyroball",
        "tm:heatcrash",
        "tm:heatwave",
        "tm:heavyslam",
        "tm:highhorsepower",
        "tm:irondefense",
        "tm:ironhead",
        "tm:overheat",
        "tm:protect",
        "tm:reflect",
        "tm:rest",
        "tm:rockblast",
        "tm:rockslide",
        "tm:rocktomb",
        "tm:round",
        "tm:sandstorm",
        "tm:sandtomb",
        "tm:scald",
        "tm:selfdestruct",
        "tm:sleeptalk",
        "tm:snore",
        "tm:spikes",
        "tm:stealthrock",
        "tm:stoneedge",
        "tm:substitute",
        "tm:willowisp",
        "tutor:meteorbeam",
        "tutor:scorchingsands"
    ],
    "labels": [
        "gen8"
    ],
    "pokedex": [
        "cobblemon.species.carkol.desc1",
        "cobblemon.species.carkol.desc2"
    ],
    "preEvolution": "rolycoly",
    "evolutions": [
        {
            "id": "carkol_coalossal",
            "variant": "level_up",
            "result": "coalossal",
            "consumeHeldItem": false,
            "learnableMoves": [],
            "requirements": [
                {
                    "variant": "level",
                    "minLevel": 34
                }
            ]
        }
    ],
    "baseScale": 1.0,
    "hitbox": {
        "width": 1.0,
        "height": 1.0,
        "fixed": false
    },
    "baseFriendship": 50,
    "evYield": {
        "defence": 2
    },
    "height": 11,
    "weight": 780
}