{
    "implemented": true,
    "name": "centiskorch",
    "nationalPokedexNumber": 851,
    "primaryType": "fire",
    "secondaryType": "bug",
    "abilities": [
        "flashfire",
        "whitesmoke",
        "h:flamebody"
    ],
    "baseStats": {
        "hp": 100,
        "attack": 115,
        "defence": 65,
        "special_attack": 90,
        "special_defence": 90,
        "speed": 65
    },
    "catchRate": 75,
    "maleRatio": 0.5,
    "shoulderMountable": false,
    "forms": [
        {
            "name": "normal"
        },
        {
            "name": "gmax",
            "moves": [],
            "labels": [
                "gen8",
                "gmax"
            ],
            "pokedex": [
                "cobblemon.form.centiskorch-gmax.desc1",
                "cobblemon.form.centiskorch-gmax.desc2"
            ],
            "height": 750,
            "weight": 10000
        }
    ],
    "baseExperienceYield": 184,
    "experienceGroup": "mediumfast",
    "eggCycles": 20,
    "eggGroups": [
        "bug"
    ],
    "behaviour": {
        "moving": {
            "swim": {
                "canSwimInLava": true,
                "canBreatheUnderlava": true
            }
        }
    },
    "moves": [
        "1:wrap",
        "1:bite",
        "1:ember",
        "1:smokescreen",
        "1:inferno",
        "15:flamewheel",
        "20:bugbite",
        "25:coil",
        "32:slam",
        "39:firespin",
        "46:crunch",
        "53:firelash",
        "60:lunge",
        "67:burnup",
        "tm:attract",
        "tm:brutalswing",
        "tm:bugbuzz",
        "tm:crunch",
        "tm:endure",
        "tm:facade",
        "tm:fireblast",
        "tm:firefang",
        "tm:firespin",
        "tm:flamethrower",
        "tm:flareblitz",
        "tm:gigaimpact",
        "tm:heatcrash",
        "tm:heatwave",
        "tm:hyperbeam",
        "tm:leechlife",
        "tm:mysticalfire",
        "tm:overheat",
        "tm:powerwhip",
        "tm:protect",
        "tm:rest",
        "tm:round",
        "tm:scald",
        "tm:sleeptalk",
        "tm:snore",
        "tm:solarbeam",
        "tm:substitute",
        "tm:sunnyday",
        "tm:thunderfang",
        "tm:venoshock",
        "tm:willowisp",
        "tm:xscissor",
        "tutor:scorchingsands",
        "tutor:skittersmack"
    ],
    "labels": [
        "gen8"
    ],
    "pokedex": [
        "cobblemon.species.centiskorch.desc1",
        "cobblemon.species.centiskorch.desc2"
    ],
    "preEvolution": "sizzlipede",
    "evolutions": [],
    "baseScale": 1.0,
    "hitbox": {
        "width": 2.5,
        "height": 0.3,
        "fixed": false
    },
    "baseFriendship": 50,
    "evYield": {
        "attack": 2
    },
    "height": 30,
    "weight": 1200
}