{
    "name": "chewtle",
    "nationalPokedexNumber": 833,
    "primaryType": "water",
    "abilities": [
        "strongjaw",
        "shellarmor",
        "h:swiftswim"
    ],
    "baseStats": {
        "hp": 50,
        "attack": 64,
        "defence": 50,
        "special_attack": 38,
        "special_defence": 38,
        "speed": 44
    },
    "catchRate": 255,
    "maleRatio": 0.5,
    "shoulderMountable": false,
    "forms": [],
    "baseExperienceYield": 57,
    "experienceGroup": "mediumfast",
    "eggCycles": 20,
    "eggGroups": [
        "monster",
        "water_1"
    ],
    "moves": [
        "1:tackle",
        "1:watergun",
        "7:bite",
        "14:protect",
        "21:headbutt",
        "28:counter",
        "35:jawlock",
        "42:liquidation",
        "49:bodyslam",
        "egg:dragontail",
        "egg:gastroacid",
        "egg:skullbash",
        "tm:assurance",
        "tm:attract",
        "tm:bodyslam",
        "tm:dive",
        "tm:endure",
        "tm:facade",
        "tm:hydropump",
        "tm:icefang",
        "tm:liquidation",
        "tm:mudshot",
        "tm:payback",
        "tm:protect",
        "tm:raindance",
        "tm:rest",
        "tm:revenge",
        "tm:round",
        "tm:sleeptalk",
        "tm:snore",
        "tm:substitute",
        "tm:surf",
        "tm:whirlpool",
        "tutor:scaleshot",
        "tutor:skittersmack"
    ],
    "labels": [
        "gen8"
    ],
    "pokedex": [
        "cobblemon.species.chewtle.desc1",
        "cobblemon.species.chewtle.desc2"
    ],
    "evolutions": [
        {
            "id": "chewtle_drednaw",
            "variant": "level_up",
            "result": "drednaw",
            "consumeHeldItem": false,
            "learnableMoves": [],
            "requirements": [
                {
                    "variant": "level",
                    "minLevel": 22
                }
            ]
        }
    ],
    "baseScale": 1.0,
    "hitbox": {
        "width": 1.0,
        "height": 1.0,
        "fixed": false
    },
    "baseFriendship": 50,
    "evYield": {
        "attack": 1
    },
    "height": 3,
    "weight": 85
}