{
    "name": "cufant",
    "nationalPokedexNumber": 878,
    "primaryType": "steel",
    "abilities": [
        "sheerforce",
        "h:heavymetal"
    ],
    "baseStats": {
        "hp": 72,
        "attack": 80,
        "defence": 49,
        "special_attack": 40,
        "special_defence": 49,
        "speed": 40
    },
    "catchRate": 190,
    "maleRatio": 0.5,
    "shoulderMountable": false,
    "forms": [],
    "baseExperienceYield": 66,
    "experienceGroup": "mediumfast",
    "eggCycles": 25,
    "eggGroups": [
        "field",
        "mineral"
    ],
    "moves": [
        "1:tackle",
        "1:growl",
        "5:rollout",
        "10:rocksmash",
        "15:bulldoze",
        "20:stomp",
        "25:irondefense",
        "30:dig",
        "35:strength",
        "40:ironhead",
        "45:playrough",
        "50:highhorsepower",
        "55:superpower",
        "egg:belch",
        "egg:curse",
        "egg:defensecurl",
        "egg:doubleedge",
        "egg:fissure",
        "egg:slam",
        "egg:swagger",
        "egg:whirlwind",
        "tm:attract",
        "tm:bodypress",
        "tm:bodyslam",
        "tm:brickbreak",
        "tm:brutalswing",
        "tm:bulldoze",
        "tm:dig",
        "tm:earthpower",
        "tm:endure",
        "tm:facade",
        "tm:fling",
        "tm:highhorsepower",
        "tm:irondefense",
        "tm:ironhead",
        "tm:megakick",
        "tm:mudshot",
        "tm:playrough",
        "tm:powerwhip",
        "tm:protect",
        "tm:rest",
        "tm:rockblast",
        "tm:rockslide",
        "tm:rocktomb",
        "tm:round",
        "tm:screech",
        "tm:sleeptalk",
        "tm:snore",
        "tm:stealthrock",
        "tm:stompingtantrum",
        "tm:substitute",
        "tm:superpower",
        "tm:workup",
        "tm:zenheadbutt",
        "tutor:steelbeam",
        "tutor:steelroller"
    ],
    "labels": [
        "gen8"
    ],
    "pokedex": [
        "cobblemon.species.cufant.desc1",
        "cobblemon.species.cufant.desc2"
    ],
    "evolutions": [
        {
            "id": "cufant_copperajah",
            "variant": "level_up",
            "result": "copperajah",
            "consumeHeldItem": false,
            "learnableMoves": [],
            "requirements": [
                {
                    "variant": "level",
                    "minLevel": 34
                }
            ]
        }
    ],
    "baseScale": 1.0,
    "hitbox": {
        "width": 1.0,
        "height": 1.0,
        "fixed": false
    },
    "baseFriendship": 50,
    "evYield": {
        "attack": 1
    },
    "height": 12,
    "weight": 1000
}