{
    "name": "drizzile",
    "nationalPokedexNumber": 817,
    "primaryType": "water",
    "abilities": [
        "torrent",
        "h:sniper"
    ],
    "baseStats": {
        "hp": 65,
        "attack": 60,
        "defence": 55,
        "special_attack": 95,
        "special_defence": 55,
        "speed": 90
    },
    "catchRate": 45,
    "maleRatio": 0.875,
    "shoulderMountable": false,
    "forms": [],
    "baseExperienceYield": 147,
    "experienceGroup": "mediumslow",
    "eggCycles": 20,
    "eggGroups": [
        "water_1",
        "field"
    ],
    "moves": [
        "1:pound",
        "1:bind",
        "1:growl",
        "1:watergun",
        "12:waterpulse",
        "19:tearfullook",
        "24:suckerpunch",
        "30:uturn",
        "36:liquidation",
        "42:soak",
        "48:raindance",
        "tm:attract",
        "tm:batonpass",
        "tm:bounce",
        "tm:dive",
        "tm:endure",
        "tm:facade",
        "tm:fling",
        "tm:lightscreen",
        "tm:liquidation",
        "tm:muddywater",
        "tm:mudshot",
        "tm:protect",
        "tm:raindance",
        "tm:reflect",
        "tm:rest",
        "tm:round",
        "tm:safeguard",
        "tm:sleeptalk",
        "tm:snore",
        "tm:substitute",
        "tm:surf",
        "tm:swift",
        "tm:uturn",
        "tm:weatherball",
        "tm:whirlpool",
        "tm:workup",
        "tutor:waterpledge"
    ],
    "labels": [
        "gen8"
    ],
    "pokedex": [
        "cobblemon.species.drizzile.desc1",
        "cobblemon.species.drizzile.desc2"
    ],
    "preEvolution": "sobble",
    "evolutions": [
        {
            "id": "drizzile_inteleon",
            "variant": "level_up",
            "result": "inteleon",
            "consumeHeldItem": false,
            "learnableMoves": [],
            "requirements": [
                {
                    "variant": "level",
                    "minLevel": 35
                }
            ]
        }
    ],
    "baseScale": 1.0,
    "hitbox": {
        "width": 1.0,
        "height": 1.0,
        "fixed": false
    },
    "baseFriendship": 50,
    "evYield": {
        "special_attack": 2
    },
    "height": 7,
    "weight": 115
}