{
    "name": "eiscueice",
    "nationalPokedexNumber": 875,
    "primaryType": "ice",
    "abilities": [
        "iceface"
    ],
    "baseStats": {
        "hp": 75,
        "attack": 80,
        "defence": 110,
        "special_attack": 65,
        "special_defence": 90,
        "speed": 50
    },
    "catchRate": 60,
    "maleRatio": 0.5,
    "shoulderMountable": false,
    "forms": [
        {
            "name": "noice",
            "baseStats": {
                "hp": 75,
                "attack": 80,
                "defence": 70,
                "special_attack": 65,
                "special_defence": 50,
                "speed": 130
            },
            "pokedex": [
                "cobblemon.form.eiscueice-noice.desc1",
                "cobblemon.form.eiscueice-noice.desc2"
            ]
        }
    ],
    "baseExperienceYield": 165,
    "experienceGroup": "slow",
    "eggCycles": 25,
    "eggGroups": [
        "water_1",
        "field"
    ],
    "moves": [
        "1:tackle",
        "1:powdersnow",
        "6:mist",
        "12:weatherball",
        "18:icywind",
        "24:headbutt",
        "30:amnesia",
        "36:freezedry",
        "42:hail",
        "48:auroraveil",
        "54:surf",
        "60:blizzard",
        "egg:aquaring",
        "egg:bellydrum",
        "egg:doubleedge",
        "egg:headsmash",
        "egg:iciclecrash",
        "egg:soak",
        "tm:agility",
        "tm:amnesia",
        "tm:attract",
        "tm:avalanche",
        "tm:blizzard",
        "tm:brine",
        "tm:dive",
        "tm:endure",
        "tm:facade",
        "tm:hail",
        "tm:hydropump",
        "tm:icebeam",
        "tm:icepunch",
        "tm:iciclespear",
        "tm:icywind",
        "tm:irondefense",
        "tm:ironhead",
        "tm:liquidation",
        "tm:protect",
        "tm:reflect",
        "tm:rest",
        "tm:reversal",
        "tm:round",
        "tm:sleeptalk",
        "tm:snore",
        "tm:substitute",
        "tm:surf",
        "tm:waterfall",
        "tm:weatherball",
        "tm:whirlpool",
        "tm:zenheadbutt"
    ],
    "labels": [
        "gen8"
    ],
    "pokedex": [
        "cobblemon.species.eiscueice.desc1",
        "cobblemon.species.eiscueice.desc2"
    ],
    "evolutions": [],
    "baseScale": 1.0,
    "hitbox": {
        "width": 1.0,
        "height": 1.0,
        "fixed": false
    },
    "baseFriendship": 50,
    "evYield": {
        "defence": 2
    },
    "height": 14,
    "weight": 890
}