{
    "name": "hatenna",
    "nationalPokedexNumber": 856,
    "primaryType": "psychic",
    "abilities": [
        "healer",
        "anticipation",
        "h:magicbounce"
    ],
    "baseStats": {
        "hp": 42,
        "attack": 30,
        "defence": 45,
        "special_attack": 56,
        "special_defence": 53,
        "speed": 39
    },
    "catchRate": 235,
    "maleRatio": 0.0,
    "shoulderMountable": false,
    "forms": [],
    "baseExperienceYield": 53,
    "experienceGroup": "slow",
    "eggCycles": 20,
    "eggGroups": [
        "fairy"
    ],
    "moves": [
        "1:confusion",
        "1:playnice",
        "5:lifedew",
        "10:disarmingvoice",
        "15:aromatherapy",
        "20:psybeam",
        "25:healpulse",
        "30:dazzlinggleam",
        "35:calmmind",
        "40:psychic",
        "45:healingwish",
        "egg:afteryou",
        "egg:aromaticmist",
        "egg:nuzzle",
        "egg:quash",
        "tm:attract",
        "tm:batonpass",
        "tm:calmmind",
        "tm:charm",
        "tm:darkpulse",
        "tm:dazzlinggleam",
        "tm:drainingkiss",
        "tm:endure",
        "tm:facade",
        "tm:gigadrain",
        "tm:helpinghand",
        "tm:imprison",
        "tm:lightscreen",
        "tm:magicalleaf",
        "tm:mysticalfire",
        "tm:playrough",
        "tm:protect",
        "tm:psychic",
        "tm:psyshock",
        "tm:rest",
        "tm:round",
        "tm:safeguard",
        "tm:skillswap",
        "tm:sleeptalk",
        "tm:snore",
        "tm:storedpower",
        "tm:substitute",
        "tm:thunderwave",
        "tutor:expandingforce"
    ],
    "labels": [
        "gen8"
    ],
    "pokedex": [
        "cobblemon.species.hatenna.desc1",
        "cobblemon.species.hatenna.desc2"
    ],
    "evolutions": [
        {
            "id": "hatenna_hattrem",
            "variant": "level_up",
            "result": "hattrem",
            "consumeHeldItem": false,
            "learnableMoves": [],
            "requirements": [
                {
                    "variant": "level",
                    "minLevel": 32
                }
            ]
        }
    ],
    "baseScale": 1.0,
    "hitbox": {
        "width": 1.0,
        "height": 1.0,
        "fixed": false
    },
    "baseFriendship": 50,
    "evYield": {
        "special_attack": 1
    },
    "height": 4,
    "weight": 34
}