{
    "name": "raboot",
    "nationalPokedexNumber": 814,
    "primaryType": "fire",
    "abilities": [
        "blaze",
        "h:libero"
    ],
    "baseStats": {
        "hp": 65,
        "attack": 86,
        "defence": 60,
        "special_attack": 55,
        "special_defence": 60,
        "speed": 94
    },
    "catchRate": 45,
    "maleRatio": 0.875,
    "shoulderMountable": false,
    "forms": [],
    "baseExperienceYield": 147,
    "experienceGroup": "mediumslow",
    "eggCycles": 20,
    "eggGroups": [
        "field",
        "human_like"
    ],
    "moves": [
        "1:tackle",
        "1:growl",
        "1:ember",
        "1:quickattack",
        "12:doublekick",
        "19:flamecharge",
        "24:agility",
        "30:headbutt",
        "36:counter",
        "42:bounce",
        "48:doubleedge",
        "tm:acrobatics",
        "tm:agility",
        "tm:allyswitch",
        "tm:assurance",
        "tm:attract",
        "tm:batonpass",
        "tm:blazekick",
        "tm:bounce",
        "tm:bulkup",
        "tm:electroball",
        "tm:endure",
        "tm:facade",
        "tm:fireblast",
        "tm:firefang",
        "tm:flamethrower",
        "tm:flareblitz",
        "tm:focusenergy",
        "tm:gunkshot",
        "tm:heatwave",
        "tm:lowkick",
        "tm:lowsweep",
        "tm:megakick",
        "tm:mudshot",
        "tm:overheat",
        "tm:protect",
        "tm:rest",
        "tm:reversal",
        "tm:round",
        "tm:sleeptalk",
        "tm:snore",
        "tm:substitute",
        "tm:sunnyday",
        "tm:swift",
        "tm:taunt",
        "tm:uturn",
        "tm:workup",
        "tutor:firepledge"
    ],
    "labels": [
        "gen8"
    ],
    "pokedex": [
        "cobblemon.species.raboot.desc1",
        "cobblemon.species.raboot.desc2"
    ],
    "preEvolution": "scorbunny",
    "evolutions": [
        {
            "id": "raboot_cinderace",
            "variant": "level_up",
            "result": "cinderace",
            "consumeHeldItem": false,
            "learnableMoves": [],
            "requirements": [
                {
                    "variant": "level",
                    "minLevel": 35
                }
            ]
        }
    ],
    "baseScale": 1.0,
    "hitbox": {
        "width": 1.0,
        "height": 1.0,
        "fixed": false
    },
    "baseFriendship": 50,
    "evYield": {
        "speed": 2
    },
    "height": 6,
    "weight": 90
}