{
    "name": "toxel",
    "nationalPokedexNumber": 848,
    "primaryType": "electric",
    "secondaryType": "poison",
    "abilities": [
        "rattled",
        "static",
        "h:klutz"
    ],
    "baseStats": {
        "hp": 40,
        "attack": 38,
        "defence": 35,
        "special_attack": 54,
        "special_defence": 35,
        "speed": 40
    },
    "catchRate": 75,
    "maleRatio": 0.5,
    "shoulderMountable": false,
    "forms": [],
    "baseExperienceYield": 48,
    "experienceGroup": "mediumslow",
    "eggCycles": 25,
    "eggGroups": [
        "undiscovered"
    ],
    "moves": [
        "1:growl",
        "1:acid",
        "1:flail",
        "1:belch",
        "1:nuzzle",
        "1:tearfullook",
        "egg:endeavor",
        "egg:metalsound",
        "egg:poweruppunch",
        "tm:attract",
        "tm:encore",
        "tm:endure",
        "tm:facade",
        "tm:protect",
        "tm:rest",
        "tm:round",
        "tm:sleeptalk",
        "tm:snore",
        "tm:substitute"
    ],
    "labels": [
        "baby",
        "gen8"
    ],
    "pokedex": [
        "cobblemon.species.toxel.desc1",
        "cobblemon.species.toxel.desc2"
    ],
    "evolutions": [
        {
            "id": "toxel_toxtricity",
            "variant": "level_up",
            "result": "toxtricity",
            "consumeHeldItem": false,
            "learnableMoves": [],
            "requirements": [
                {
                    "variant": "level",
                    "minLevel": 30
                }
            ]
        }
    ],
    "baseScale": 1.0,
    "hitbox": {
        "width": 1.0,
        "height": 1.0,
        "fixed": false
    },
    "baseFriendship": 50,
    "evYield": {
        "special_attack": 1
    },
    "height": 4,
    "weight": 110
}