{
    "enabled": true,
    "neededInstalledMods": [],
    "neededUninstalledMods": [],
    "spawns": [
        {
            "id": "exeggcute-1",
            "pokemon": "exeggcute",
            "type": "pokemon",
            "context": "grounded",
            "bucket": "uncommon",
            "level": "10-32",
            "weight": 1.98,
            "condition": {
                "canSeeSky": true,
                "biomes": [
                    "#cobblemon:is_jungle"
                ]
            }
        }
    ]
}