{
    "enabled": true,
    "neededInstalledMods": [],
    "neededUninstalledMods": [],
    "spawns": [
        {
            "id": "weezing-1",
            "pokemon": "weezing",
            "type": "pokemon",
            "context": "grounded",
            "bucket": "common",
            "level": "35-49",
            "weight": 0.2,
            "condition": {
                "canSeeSky": true,
                "biomes": [
                    "#cobblemon:is_swamp"
                ]
            }
        },
        {
            "id": "weezing-2",
            "pokemon": "weezing",
            "type": "pokemon",
            "context": "grounded",
            "bucket": "common",
            "level": "35-49",
            "weight": 0.2,
            "condition": {
                "biomes": [
                    "#minecraft:is_nether"
                ]
            }
        }
    ]
}