{
    "enabled": true,
    "neededInstalledMods": [],
    "neededUninstalledMods": [],
    "spawns": [
        {
            "id": "vaporeon-1",
            "pokemon": "vaporeon",
            "presets": [
                "freshwater",
                "freshwater"
            ],
            "type": "pokemon",
            "context": "grounded",
            "bucket": "ultra-rare",
            "level": "33-52",
            "weight": 0.1,
            "condition": {
                "canSeeSky": true
            }
        },
        {
            "id": "vaporeon-2",
            "pokemon": "vaporeon",
            "presets": [
                "freshwater",
                "underwater",
                "freshwater"
            ],
            "type": "pokemon",
            "context": "submerged",
            "bucket": "ultra-rare",
            "level": "33-52",
            "weight": 0.1,
            "condition": {
                "canSeeSky": true
            }
        }
    ]
}