{
    "enabled": true,
    "neededInstalledMods": [],
    "neededUninstalledMods": [],
    "spawns": [
        {
            "id": "kabutops-1",
            "pokemon": "kabutops",
            "type": "pokemon",
            "context": "grounded",
            "bucket": "rare",
            "level": "40-49",
            "weight": 1.0,
            "condition": {
                "canSeeSky": true,
                "biomes": [
                    "#cobblemon:is_lush"
                ],
                "isRaining": true
            }
        },
        {
            "id": "kabutops-2",
            "pokemon": "kabutops",
            "type": "pokemon",
            "context": "submerged",
            "bucket": "rare",
            "level": "40-49",
            "weight": 1.0,
            "condition": {
                "canSeeSky": true,
                "biomes": [
                    "#cobblemon:is_lush"
                ]
            }
        },
        {
            "id": "kabutops-3",
            "pokemon": "kabutops",
            "presets": [
                "underground"
            ],
            "type": "pokemon",
            "context": "grounded",
            "bucket": "rare",
            "level": "40-49",
            "weight": 1.0,
            "condition": {
                "canSeeSky": false,
                "biomes": [
                    "#cobblemon:is_lush"
                ]
            }
        },
        {
            "id": "kabutops-4",
            "pokemon": "kabutops",
            "presets": [
                "underground"
            ],
            "type": "pokemon",
            "context": "submerged",
            "bucket": "rare",
            "level": "40-49",
            "weight": 1.0,
            "condition": {
                "canSeeSky": false,
                "biomes": [
                    "#cobblemon:is_lush"
                ]
            }
        }
    ]
}