{
    "enabled": true,
    "neededInstalledMods": [],
    "neededUninstalledMods": [],
    "spawns": [
        {
            "id": "dratini-1",
            "pokemon": "dratini",
            "presets": [
                "underwater",
                "underground"
            ],
            "type": "pokemon",
            "context": "submerged",
            "bucket": "rare",
            "level": "15-30",
            "weight": 9.0,
            "condition": {
                "canSeeSky": false,
                "biomes": [
                    "#cobblemon:is_overworld"
                ]
            }
        }
    ]
}