{
    "enabled": true,
    "neededInstalledMods": [],
    "neededUninstalledMods": [],
    "spawns": [
        {
            "id": "sableye-1",
            "pokemon": "sableye",
            "presets": [
                "underground"
            ],
            "type": "pokemon",
            "context": "grounded",
            "bucket": "uncommon",
            "level": "15-38",
            "weight": 10.0,
            "condition": {
                "canSeeSky": false,
				"neededNearbyBlocks": [
                    "minecraft:budding_amethyst"
                ]
            }
        }
    ]
}