{
    "enabled": true,
    "neededInstalledMods": [],
    "neededUninstalledMods": [],
    "spawns": [
        {
            "id": "plusle-1",
            "pokemon": "plusle",
            "type": "pokemon",
            "context": "grounded",
            "bucket": "rare",
            "level": "10-40",
            "weight": 5.0,
            "condition": {
                "canSeeSky": true,
                "biomes": [
                    "#cobblemon:is_plains"
                ]
            }
        }
    ]
}