{
  "species": "cobblemon:dragonair",
  "order": 0,
  "variations": [
    {
      "aspects": [],
      "poser": "cobblemon:dragonair",
      "model": "cobblemon:dragonair.geo",
      "texture": "cobblemon:textures/pokemon/0148_dragonair/dragonair.png",
      "layers": []
    },
    {
      "aspects": [
        "shiny"
      ],
      "texture": "cobblemon:textures/pokemon/0148_dragonair/dragonair_shiny.png"
    }
  ]
}