{
	"format_version": "1.8.0",
	"animations": {
		"animation.tyrogue.ground_idle": {
			"loop": true,
			"bones": {
				"body": {
					"position": [0, -0.25, 0]
				},
				"leftarm": {
					"rotation": [105, -10, 55]
				},
				"leftforearm": {
					"rotation": [0, 0, -30]
				},
				"lefthand": {
					"rotation": [0, 15, 0]
				},
				"rightarm": {
					"rotation": [105, 10, -55]
				},
				"rightforearm": {
					"rotation": [0, 0, 30]
				},
				"righthand": {
					"rotation": [0, -15, 0]
				},
				"leftknee": {
					"rotation": [-5, 0, 0]
				},
				"leftknee2": {
					"rotation": [10, 0, 0]
				},
				"leftfoot": {
					"rotation": [-5, 0, 0]
				},
				"rightknee": {
					"rotation": [-5, 0, 0]
				},
				"rightknee2": {
					"rotation": [10, 0, 0]
				},
				"rightfoot": {
					"rotation": [-5, 0, 0]
				}
			}
		}
	}
}