{
  "implemented": true,
  "name": "arcanine",
  "nationalPokedexNumber": 59,
  "primaryType": "fire",
  "abilities": ["intimidate", "flashfire", "h:justified"],
  "baseStats": {
    "hp": 90,
    "attack": 110,
    "defence": 80,
    "special_attack": 100,
    "special_defence": 80,
    "speed": 95
  },
  "catchRate": 75,
  "maleRatio": 0.75,
  "shoulderMountable": false,
  "forms": [
    {
      "name": "normal"
    },
    {
      "name": "hisui",
      "secondaryType": "rock",
      "baseStats": {
        "hp": 95,
        "attack": 115,
        "defence": 80,
        "special_attack": 95,
        "special_defence": 80,
        "speed": 90
      },
      "moves": [
        "1:tackle",
        "5:ember",
        "9:bite",
        "15:firefang",
        "21:rockslide",
        "29:crunch",
        "29:ragingfury",
        "37:doubleedge",
        "47:flareblitz",
        "tutor:aerialace",
        "tutor:bulldoze",
        "tutor:firefang",
        "tutor:flamethrower",
        "tutor:gigaimpact",
        "tutor:hyperbeam",
        "tutor:ironhead",
        "tutor:irontail",
        "tutor:outrage",
        "tutor:playrough",
        "tutor:rest",
        "tutor:rockslide",
        "tutor:rocksmash",
        "tutor:snarl",
        "tutor:stoneedge",
        "tutor:swift",
        "tutor:thunderfang",
        "tutor:wildcharge"
      ],
      "pokedex": [
        "cobblemon.form.arcanine-hisui.desc1",
        "cobblemon.form.arcanine-hisui.desc2"
      ],
      "height": 20,
      "weight": 1680,
      "labels": ["gen1", "hisui_regional", "regional"],
      "preEvolution": "growlithe form=hisui"
    }
  ],
  "baseExperienceYield": 194,
  "experienceGroup": "slow",
  "eggCycles": 20,
  "eggGroups": ["field"],
  "drops": {
    "amount": "1",
    "entries": [
      {
        "item": "minecraft:bone",
		"quantityRange": "1-2",
        "percentage": 66
      }
    ]
  },
  "moves": [
    "0:extremespeed",
    "1:takedown",
    "1:doubleedge",
    "1:leer",
    "1:bite",
    "1:roar",
    "1:ember",
    "1:flamethrower",
    "1:agility",
    "1:flamewheel",
    "1:reversal",
    "1:crunch",
    "1:extremespeed",
    "1:helpinghand",
    "1:odorsleuth",
    "1:howl",
    "1:flareblitz",
    "1:firefang",
    "1:retaliate",
    "1:playrough",
    "1:burnup",
    "tm:aerialace",
    "tm:agility",
    "tm:attract",
    "tm:bide",
    "tm:bodyslam",
    "tm:bulldoze",
    "tm:captivate",
    "tm:closecombat",
    "tm:confide",
    "tm:crunch",
    "tm:curse",
    "tm:dig",
    "tm:doubleteam",
    "tm:dragonbreath",
    "tm:dragonpulse",
    "tm:dragonrage",
    "tm:endure",
    "tm:facade",
    "tm:fireblast",
    "tm:firefang",
    "tm:firespin",
    "tm:flamecharge",
    "tm:flamethrower",
    "tm:flareblitz",
    "tm:frustration",
    "tm:gigaimpact",
    "tm:headbutt",
    "tm:heatwave",
    "tm:helpinghand",
    "tm:hiddenpower",
    "tm:hyperbeam",
    "tm:hypervoice",
    "tm:incinerate",
    "tm:ironhead",
    "tm:irontail",
    "tm:naturalgift",
    "tm:outrage",
    "tm:overheat",
    "tm:playrough",
    "tm:protect",
    "tm:psychicfangs",
    "tm:rage",
    "tm:reflect",
    "tm:rest",
    "tm:retaliate",
    "tm:return",
    "tm:reversal",
    "tm:rockclimb",
    "tm:rocksmash",
    "tm:round",
    "tm:safeguard",
    "tm:scaryface",
    "tm:secretpower",
    "tm:skullbash",
    "tm:sleeptalk",
    "tm:snarl",
    "tm:snore",
    "tm:solarbeam",
    "tm:strength",
    "tm:substitute",
    "tm:sunnyday",
    "tm:superpower",
    "tm:swagger",
    "tm:swift",
    "tm:teleport",
    "tm:thief",
    "tm:thunderfang",
    "tm:toxic",
    "tm:wildcharge",
    "tm:willowisp",
    "tutor:covet",
    "tutor:laserfocus",
    "tutor:mimic",
    "tutor:mudslap",
    "tutor:scorchingsands"
  ],
  "labels": ["gen1", "kanto_regional", "regional"],
  "pokedex": [
    "cobblemon.species.arcanine.desc1",
    "cobblemon.species.arcanine.desc2"
  ],
  "preEvolution": "growlithe",
  "evolutions": [],
  "baseScale": 1.2,
  "hitbox": {
    "width": 1.2,
    "height": 1.7,
    "fixed": false
  },
  "baseFriendship": 50,
  "evYield": {
    "attack": 2
  },
  "height": 19,
  "weight": 1550
}
