{
    "implemented": true,
    "name": "cloyster",
    "nationalPokedexNumber": 91,
    "primaryType": "water",
    "secondaryType": "ice",
    "abilities": [
        "shellarmor",
        "skilllink",
        "h:overcoat"
    ],
    "baseStats": {
        "hp": 50,
        "attack": 95,
        "defence": 180,
        "special_attack": 85,
        "special_defence": 45,
        "speed": 70
    },
    "catchRate": 60,
    "maleRatio": 0.5,
    "shoulderMountable": false,
    "forms": [],
    "baseExperienceYield": 184,
    "experienceGroup": "slow",
    "eggCycles": 20,
    "eggGroups": [
        "water_3"
    ],
    "behaviour": {
        "moving": {
            "swim": {
                "swimSpeed": 0.15,
                "canSwimInWater": true,
                "canBreatheUnderwater": true
            }
        }
    },
    "moves": [
        "0:spikecannon",
        "0:iciclespear",
        "1:tackle",
        "1:twineedle",
        "1:leer",
        "1:supersonic",
        "1:watergun",
        "1:hydropump",
        "1:icebeam",
        "1:aurorabeam",
        "1:withdraw",
        "1:barrier",
        "1:clamp",
        "1:spikecannon",
        "1:protect",
        "1:spikes",
        "1:whirlpool",
        "1:iciclespear",
        "1:irondefense",
        "1:toxicspikes",
        "1:iceshard",
        "1:shellsmash",
        "1:razorshell",
        "1:iciclecrash",
        "tm:attract",
        "tm:avalanche",
        "tm:bide",
        "tm:blizzard",
        "tm:brine",
        "tm:bubblebeam",
        "tm:captivate",
        "tm:confide",
        "tm:curse",
        "tm:dive",
        "tm:doubleteam",
        "tm:endure",
        "tm:explosion",
        "tm:facade",
        "tm:frostbreath",
        "tm:frustration",
        "tm:gigaimpact",
        "tm:hail",
        "tm:headbutt",
        "tm:hiddenpower",
        "tm:hydropump",
        "tm:hyperbeam",
        "tm:icebeam",
        "tm:iciclespear",
        "tm:icywind",
        "tm:irondefense",
        "tm:lightscreen",
        "tm:liquidation",
        "tm:mudshot",
        "tm:naturalgift",
        "tm:payback",
        "tm:pinmissile",
        "tm:poisonjab",
        "tm:protect",
        "tm:rage",
        "tm:raindance",
        "tm:razorshell",
        "tm:reflect",
        "tm:rest",
        "tm:return",
        "tm:rockblast",
        "tm:round",
        "tm:screech",
        "tm:secretpower",
        "tm:selfdestruct",
        "tm:sleeptalk",
        "tm:smartstrike",
        "tm:snore",
        "tm:spikes",
        "tm:substitute",
        "tm:surf",
        "tm:swagger",
        "tm:swift",
        "tm:takedown",
        "tm:teleport",
        "tm:torment",
        "tm:toxic",
        "tm:toxicspikes",
        "tm:triattack",
        "tm:weatherball",
        "tm:whirlpool",
        "tutor:doubleedge",
        "tutor:mimic",
        "tutor:signalbeam",
        "tutor:steelroller",
        "tutor:waterpulse"
    ],
    "labels": [
        "gen1"
    ],
    "pokedex": [
        "cobblemon.species.cloyster.desc1",
        "cobblemon.species.cloyster.desc2"
    ],
    "preEvolution": "shellder",
    "evolutions": [],
    "baseScale": 1.0,
    "hitbox": {
        "width": 1.0,
        "height": 1.1,
        "fixed": false
    },
    "baseFriendship": 50,
    "evYield": {
        "defence": 2
    },
    "height": 15,
    "weight": 1325
}