{
    "implemented": true,
    "name": "cubone",
    "nationalPokedexNumber": 104,
    "primaryType": "ground",
    "abilities": [
        "rockhead",
        "lightningrod",
        "h:battlearmor"
    ],
    "baseStats": {
        "hp": 50,
        "attack": 50,
        "defence": 95,
        "special_attack": 40,
        "special_defence": 50,
        "speed": 35
    },
    "catchRate": 190,
    "maleRatio": 0.5,
    "shoulderMountable": false,
    "forms": [],
    "baseExperienceYield": 64,
    "experienceGroup": "mediumfast",
    "eggCycles": 20,
    "eggGroups": [
        "monster"
    ],
    "drops": {
        "amount": "1",
        "entries": [
            {
                "item": "minecraft:bone",
                "percentage": 50
            }
        ]
    },
    "moves": [
        "1:growl",
        "1:mudslap",
        "4:tailwhip",
        "8:falseswipe",
        "12:headbutt",
        "12:boneclub",
        "16:retaliate",
        "18:rage",
        "20:fling",
        "24:stompingtantrum",
        "29:bonerush",
        "32:focusenergy",
        "36:endeavor",
        "40:bonemerang",
        "44:thrash",
        "48:doubleedge",
        "egg:ancientpower",
        "egg:bellydrum",
        "egg:chipaway",
        "egg:curse",
        "egg:detect",
        "egg:doublekick",
        "egg:leer",
        "egg:perishsong",
        "egg:skullbash",
        "tm:aerialace",
        "tm:attract",
        "tm:bide",
        "tm:blizzard",
        "tm:bodyslam",
        "tm:brickbreak",
        "tm:brutalswing",
        "tm:bubblebeam",
        "tm:bulldoze",
        "tm:captivate",
        "tm:confide",
        "tm:dig",
        "tm:doubleteam",
        "tm:earthpower",
        "tm:earthquake",
        "tm:echoedvoice",
        "tm:endure",
        "tm:facade",
        "tm:falseswipe",
        "tm:fireblast",
        "tm:firepunch",
        "tm:fissure",
        "tm:flamethrower",
        "tm:fling",
        "tm:focusenergy",
        "tm:frustration",
        "tm:hiddenpower",
        "tm:icebeam",
        "tm:icywind",
        "tm:incinerate",
        "tm:irondefense",
        "tm:ironhead",
        "tm:irontail",
        "tm:lowkick",
        "tm:megakick",
        "tm:megapunch",
        "tm:naturalgift",
        "tm:poweruppunch",
        "tm:protect",
        "tm:rest",
        "tm:retaliate",
        "tm:return",
        "tm:rockclimb",
        "tm:rockslide",
        "tm:rocksmash",
        "tm:rocktomb",
        "tm:round",
        "tm:sandstorm",
        "tm:screech",
        "tm:secretpower",
        "tm:seismictoss",
        "tm:sleeptalk",
        "tm:smackdown",
        "tm:snore",
        "tm:stealthrock",
        "tm:stompingtantrum",
        "tm:strength",
        "tm:submission",
        "tm:substitute",
        "tm:sunnyday",
        "tm:swagger",
        "tm:swift",
        "tm:swordsdance",
        "tm:takedown",
        "tm:thief",
        "tm:thunderpunch",
        "tm:toxic",
        "tm:uproar",
        "tm:watergun",
        "tutor:counter",
        "tutor:dynamicpunch",
        "tutor:focuspunch",
        "tutor:furycutter",
        "tutor:knockoff",
        "tutor:mimic",
        "tutor:scorchingsands"
    ],
    "labels": [
        "gen1"
    ],
    "pokedex": [
        "cobblemon.species.cubone.desc1",
        "cobblemon.species.cubone.desc2"
    ],
    "evolutions": [
        {
            "id": "cubone_marowak",
            "variant": "level_up",
            "result": "marowak",
            "consumeHeldItem": false,
            "learnableMoves": [],
            "requirements": [
                {
                    "variant": "level",
                    "minLevel": 28
                }
            ]
        },
        {
            "id": "cubone_marowak",
            "variant": "level_up",
            "result": "marowak",
            "consumeHeldItem": false,
            "learnableMoves": [],
            "requirements": [
                {
                    "variant": "time_range",
                    "range": "night"
                },
                {
                    "variant": "level",
                    "minLevel": 28
                }
            ]
        }
    ],
    "baseScale": 0.7,
    "hitbox": {
        "width": 0.5,
        "height": 0.8,
        "fixed": false
    },
    "baseFriendship": 50,
    "evYield": {
        "defence": 1
    },
    "height": 4,
    "weight": 65
}