{
  "implemented": true,
  "name": "diglett",
  "nationalPokedexNumber": 50,
  "primaryType": "ground",
  "abilities": ["sandveil", "arenatrap", "h:sandforce"],
  "baseStats": {
    "hp": 10,
    "attack": 55,
    "defence": 25,
    "special_attack": 35,
    "special_defence": 45,
    "speed": 95
  },
  "catchRate": 255,
  "maleRatio": 0.5,
  "shoulderMountable": false,
  "forms": [
    {
      "name": "normal"
    },
    {
      "name": "alola",
      "secondaryType": "steel",
      "abilities": ["sandveil", "tanglinghair", "h:sandforce"],
      "baseStats": {
        "hp": 10,
        "attack": 55,
        "defence": 30,
        "special_attack": 35,
        "special_defence": 45,
        "speed": 90
      },
      "moves": [
        "1:scratch",
        "1:sandattack",
        "1:metalclaw",
        "4:growl",
        "8:astonish",
        "12:mudslap",
        "14:magnitude",
        "15:furyswipes",
        "16:bulldoze",
        "20:suckerpunch",
        "21:slash",
        "24:ironhead",
        "25:mudbomb",
        "28:sandstorm",
        "32:dig",
        "36:earthpower",
        "40:earthquake",
        "44:fissure",
        "egg:ancientpower",
        "egg:feintattack",
        "egg:finalgambit",
        "egg:headbutt",
        "egg:honeclaws",
        "egg:memento",
        "egg:metalsound",
        "egg:pursuit",
        "egg:thrash",
        "tm:aerialace",
        "tm:agility",
        "tm:allyswitch",
        "tm:assurance",
        "tm:attract",
        "tm:beatup",
        "tm:bodyslam",
        "tm:bulldoze",
        "tm:confide",
        "tm:dig",
        "tm:doubleteam",
        "tm:earthpower",
        "tm:earthquake",
        "tm:echoedvoice",
        "tm:endure",
        "tm:facade",
        "tm:flashcannon",
        "tm:frustration",
        "tm:hiddenpower",
        "tm:irondefense",
        "tm:ironhead",
        "tm:protect",
        "tm:rest",
        "tm:return",
        "tm:reversal",
        "tm:rockslide",
        "tm:rocktomb",
        "tm:round",
        "tm:sandstorm",
        "tm:screech",
        "tm:shadowclaw",
        "tm:sleeptalk",
        "tm:sludgebomb",
        "tm:snore",
        "tm:stealthrock",
        "tm:stompingtantrum",
        "tm:substitute",
        "tm:sunnyday",
        "tm:swagger",
        "tm:thief",
        "tm:toxic",
        "tm:uproar",
        "tm:workup",
        "tutor:scorchingsands",
        "tutor:steelbeam"
      ],
      "pokedex": [
        "cobblemon.form.diglett-alola.desc1",
        "cobblemon.form.diglett-alola.desc2"
      ],
      "weight": 10,
      "labels": ["gen1", "alola_regional", "regional"],
      "evolutions": [
        {
          "id": "diglett_dugtrio_alola",
          "variant": "level_up",
          "result": "dugtrio form=alola",
          "consumeHeldItem": false,
          "learnableMoves": [],
          "requirements": [
            {
              "variant": "level",
              "minLevel": 26
            }
          ]
        }
      ]
    }
  ],
  "baseExperienceYield": 53,
  "experienceGroup": "mediumfast",
  "eggCycles": 20,
  "eggGroups": ["field"],
  "drops": {
    "amount": "1",
    "entries": [
      {
        "item": "minecraft:potato",
        "percentage": 50
      }
    ]
  },
  "moves": [
    "1:scratch",
    "1:sandattack",
    "4:growl",
    "8:astonish",
    "12:mudslap",
    "14:magnitude",
    "15:furyswipes",
    "16:bulldoze",
    "20:suckerpunch",
    "24:slash",
    "25:mudbomb",
    "28:sandstorm",
    "32:dig",
    "36:earthpower",
    "40:earthquake",
    "44:fissure",
    "egg:ancientpower",
    "egg:feintattack",
    "egg:finalgambit",
    "egg:headbutt",
    "egg:honeclaws",
    "egg:memento",
    "egg:mudbomb",
    "egg:pursuit",
    "tm:aerialace",
    "tm:agility",
    "tm:allyswitch",
    "tm:assurance",
    "tm:attract",
    "tm:beatup",
    "tm:bide",
    "tm:bodyslam",
    "tm:bulldoze",
    "tm:captivate",
    "tm:confide",
    "tm:curse",
    "tm:cut",
    "tm:dig",
    "tm:doubleteam",
    "tm:earthpower",
    "tm:earthquake",
    "tm:echoedvoice",
    "tm:endure",
    "tm:facade",
    "tm:frustration",
    "tm:hiddenpower",
    "tm:naturalgift",
    "tm:protect",
    "tm:rage",
    "tm:rest",
    "tm:return",
    "tm:reversal",
    "tm:rockslide",
    "tm:rocksmash",
    "tm:rocktomb",
    "tm:round",
    "tm:sandstorm",
    "tm:screech",
    "tm:secretpower",
    "tm:shadowclaw",
    "tm:sleeptalk",
    "tm:sludgebomb",
    "tm:snore",
    "tm:stealthrock",
    "tm:stompingtantrum",
    "tm:substitute",
    "tm:sunnyday",
    "tm:swagger",
    "tm:takedown",
    "tm:thief",
    "tm:toxic",
    "tm:uproar",
    "tm:workup",
    "tutor:doubleedge",
    "tutor:mimic",
    "tutor:scorchingsands"
  ],
  "labels": ["gen1", "kanto_regional", "regional"],
  "pokedex": ["cobblemon.species.diglett.desc1", "cobblemon.species.diglett.desc2"],
  "evolutions": [
    {
      "id": "diglett_dugtrio",
      "variant": "level_up",
      "result": "dugtrio",
      "consumeHeldItem": false,
      "learnableMoves": [],
      "requirements": [
        {
          "variant": "level",
          "minLevel": 26
        }
      ]
    }
  ],
  "baseScale": 0.8,
  "hitbox": {
    "width": 0.5,
    "height": 0.6,
    "fixed": false
  },
  "baseFriendship": 50,
  "evYield": {
    "speed": 1
  },
  "height": 2,
  "weight": 8
}
