{
    "implemented": true,
    "name": "dodrio",
    "nationalPokedexNumber": 85,
    "primaryType": "normal",
    "secondaryType": "flying",
    "abilities": [
        "runaway",
        "earlybird",
        "h:tangledfeet"
    ],
    "baseStats": {
        "hp": 60,
        "attack": 110,
        "defence": 70,
        "special_attack": 60,
        "special_defence": 60,
        "speed": 110
    },
    "catchRate": 45,
    "maleRatio": 0.5,
    "shoulderMountable": false,
    "forms": [],
    "baseExperienceYield": 165,
    "experienceGroup": "mediumfast",
    "eggCycles": 20,
    "eggGroups": [
        "flying"
    ],
    "drops": {
        "amount": "2",
        "entries": [
            {
                "item": "minecraft:feather",
                "quantityRange": "1-2",
                "percentage": 66
            },
            {
                "item": "minecraft:chicken"
            }
        ]
    },
    "moves": [
        "0:triattack",
        "1:growl",
        "1:supersonic",
        "1:peck",
        "1:quickattack",
        "1:rage",
        "1:mirrormove",
        "1:triattack",
        "5:quickattack",
        "10:rage",
        "15:pursuit",
        "16:furyattack",
        "19:pluck",
        "22:agility",
        "22:doublehit",
        "27:drillpeck",
        "29:uproar",
        "34:acupressure",
        "37:swordsdance",
        "48:jumpkick",
        "52:endeavor",
        "59:thrash",
        "tm:aerialace",
        "tm:attract",
        "tm:bide",
        "tm:captivate",
        "tm:confide",
        "tm:curse",
        "tm:doubleteam",
        "tm:echoedvoice",
        "tm:endure",
        "tm:facade",
        "tm:fly",
        "tm:frustration",
        "tm:gigaimpact",
        "tm:headbutt",
        "tm:hiddenpower",
        "tm:hyperbeam",
        "tm:naturalgift",
        "tm:payback",
        "tm:protect",
        "tm:reflect",
        "tm:rest",
        "tm:return",
        "tm:roost",
        "tm:round",
        "tm:secretpower",
        "tm:skullbash",
        "tm:sleeptalk",
        "tm:steelwing",
        "tm:substitute",
        "tm:sunnyday",
        "tm:swagger",
        "tm:takedown",
        "tm:taunt",
        "tm:thief",
        "tm:torment",
        "tm:toxic",
        "tm:triattack",
        "tm:whirlwind",
        "tm:workup",
        "tutor:aircutter",
        "tutor:bodyslam",
        "tutor:doubleedge",
        "tutor:endeavor",
        "tutor:knockoff",
        "tutor:mimic",
        "tutor:mudslap",
        "tutor:skyattack",
        "tutor:snore",
        "tutor:stompingtantrum",
        "tutor:swift",
        "tutor:uproar"
    ],
    "labels": [
        "gen1"
    ],
    "pokedex": [
        "cobblemon.species.dodrio.desc1",
        "cobblemon.species.dodrio.desc2"
    ],
    "preEvolution": "doduo",
    "evolutions": [],
    "baseScale": 1.6,
    "hitbox": {
        "width": 0.4,
        "height": 1.6,
        "fixed": false
    },
    "baseFriendship": 70,
    "evYield": {
        "attack": 2
    },
    "height": 18,
    "weight": 852
}