{
    "implemented": true,
    "name": "dragonair",
    "nationalPokedexNumber": 148,
    "primaryType": "dragon",
    "abilities": [
        "shedskin",
        "h:marvelscale"
    ],
    "baseStats": {
        "hp": 61,
        "attack": 84,
        "defence": 65,
        "special_attack": 70,
        "special_defence": 70,
        "speed": 70
    },
    "catchRate": 45,
    "maleRatio": 0.5,
    "shoulderMountable": false,
    "forms": [],
    "baseExperienceYield": 147,
    "experienceGroup": "slow",
    "eggCycles": 40,
    "eggGroups": [
        "water_1",
        "dragon"
    ],
    "behaviour": {
        "moving": {
            "swim": {
                "canSwimInWater": true,
				"canBreatheUnderwater": true,
                "canWalkOnWater": true
            },
			"fly": {
                "canFly": true
            }
        }
    },
    "drops": {
        "amount": "1",
        "entries": [
            {
                "item": "minecraft:dragon_breath",
                "quantityRange": "1-2",
                "percentage": 66
            }
        ]
    },
    "moves": [
        "1:wrap",
        "1:leer",
        "1:dragonrage",
        "1:thunderwave",
        "1:twister",
        "14:dragonrage",
        "15:dragontail",
        "20:agility",
        "25:slam",
        "33:aquatail",
        "39:dragonrush",
        "46:safeguard",
        "53:raindance",
        "60:dragondance",
        "67:outrage",
        "74:hyperbeam",
        "tm:agility",
        "tm:attract",
        "tm:bide",
        "tm:blizzard",
        "tm:bodyslam",
        "tm:breakingswipe",
        "tm:brutalswing",
        "tm:bubblebeam",
        "tm:captivate",
        "tm:confide",
        "tm:curse",
        "tm:detect",
        "tm:doubleteam",
        "tm:dragonbreath",
        "tm:dragondance",
        "tm:dragonpulse",
        "tm:endure",
        "tm:facade",
        "tm:fireblast",
        "tm:firespin",
        "tm:flamethrower",
        "tm:frustration",
        "tm:gigaimpact",
        "tm:hail",
        "tm:headbutt",
        "tm:hiddenpower",
        "tm:horndrill",
        "tm:hydropump",
        "tm:hyperbeam",
        "tm:icebeam",
        "tm:icywind",
        "tm:incinerate",
        "tm:irontail",
        "tm:lightscreen",
        "tm:naturalgift",
        "tm:outrage",
        "tm:protect",
        "tm:rage",
        "tm:raindance",
        "tm:reflect",
        "tm:rest",
        "tm:return",
        "tm:round",
        "tm:safeguard",
        "tm:secretpower",
        "tm:skullbash",
        "tm:sleeptalk",
        "tm:snore",
        "tm:substitute",
        "tm:sunnyday",
        "tm:surf",
        "tm:swagger",
        "tm:swift",
        "tm:takedown",
        "tm:thunder",
        "tm:thunderbolt",
        "tm:thunderwave",
        "tm:toxic",
        "tm:waterfall",
        "tm:watergun",
        "tm:whirlpool",
        "tm:zapcannon",
        "tutor:bind",
        "tutor:doubleedge",
        "tutor:dracometeor",
        "tutor:mimic",
        "tutor:scaleshot",
        "tutor:shockwave",
        "tutor:waterpulse"
    ],
    "labels": [
        "gen1"
    ],
    "pokedex": [
        "cobblemon.species.dragonair.desc1",
        "cobblemon.species.dragonair.desc2"
    ],
    "preEvolution": "dratini",
    "evolutions": [
        {
            "id": "dragonair_dragonite",
            "variant": "level_up",
            "result": "dragonite",
            "consumeHeldItem": false,
            "learnableMoves": [],
            "requirements": [
                {
                    "variant": "level",
                    "minLevel": 55
                }
            ]
        }
    ],
    "baseScale": 1.2,
    "hitbox": {
        "width": 1.1,
        "height": 1.9,
        "fixed": false
    },
    "baseFriendship": 35,
    "evYield": {
        "attack": 2
    },
    "height": 40,
    "weight": 165
}