{
    "implemented": true,
    "name": "ekans",
    "nationalPokedexNumber": 23,
    "primaryType": "poison",
    "abilities": [
        "intimidate",
        "shedskin",
        "h:unnerve"
    ],
    "baseStats": {
        "hp": 35,
        "attack": 60,
        "defence": 44,
        "special_attack": 40,
        "special_defence": 54,
        "speed": 55
    },
    "features": [
        "snake-pattern"
    ],
    "catchRate": 255,
    "maleRatio": 0.5,
    "shoulderMountable": false,
    "forms": [],
    "baseExperienceYield": 58,
    "experienceGroup": "mediumfast",
    "eggCycles": 20,
    "eggGroups": [
        "field",
        "dragon"
    ],
    "moves": [
        "1:wrap",
        "1:poisonsting",
        "4:leer",
        "8:acid",
        "12:bite",
        "16:haze",
        "20:glare",
        "24:poisonjab",
        "25:stockpile",
        "25:spitup",
        "25:swallow",
        "28:slam",
        "28:acidspray",
        "32:screech",
        "33:mudbomb",
        "36:toxic",
        "36:gastroacid",
        "38:belch",
        "44:coil",
        "49:gunkshot",
        "egg:beatup",
        "egg:crunch",
        "egg:disable",
        "egg:poisonfang",
        "egg:poisontail",
        "egg:pursuit",
        "egg:scaryface",
        "egg:snatch",
        "egg:spite",
        "egg:suckerpunch",
        "egg:switcheroo",
        "tm:attract",
        "tm:bide",
        "tm:brutalswing",
        "tm:bulldoze",
        "tm:captivate",
        "tm:confide",
        "tm:curse",
        "tm:darkpulse",
        "tm:dig",
        "tm:doubleteam",
        "tm:earthquake",
        "tm:endure",
        "tm:facade",
        "tm:fissure",
        "tm:frustration",
        "tm:headbutt",
        "tm:hiddenpower",
        "tm:infestation",
        "tm:irontail",
        "tm:megadrain",
        "tm:naturalgift",
        "tm:payback",
        "tm:poisonjab",
        "tm:protect",
        "tm:rage",
        "tm:raindance",
        "tm:rest",
        "tm:return",
        "tm:rockslide",
        "tm:rocktomb",
        "tm:round",
        "tm:secretpower",
        "tm:skullbash",
        "tm:sleeptalk",
        "tm:sludgebomb",
        "tm:sludgewave",
        "tm:strength",
        "tm:substitute",
        "tm:sunnyday",
        "tm:swagger",
        "tm:takedown",
        "tm:thief",
        "tm:torment",
        "tm:toxic",
        "tm:venoshock",
        "tutor:aquatail",
        "tutor:bind",
        "tutor:bodyslam",
        "tutor:doubleedge",
        "tutor:gastroacid",
        "tutor:gigadrain",
        "tutor:gunkshot",
        "tutor:mimic",
        "tutor:seedbomb",
        "tutor:snatch",
        "tutor:snore",
        "tutor:spite"
    ],
    "labels": [
        "gen1"
    ],
    "pokedex": [
        "cobblemon.species.ekans.desc1",
        "cobblemon.species.ekans.desc2"
    ],
    "evolutions": [
        {
            "id": "ekans_arbok",
            "variant": "level_up",
            "result": "arbok",
            "consumeHeldItem": false,
            "learnableMoves": [],
            "requirements": [
                {
                    "variant": "level",
                    "minLevel": 22
                }
            ]
        }
    ],
    "baseScale": 0.8,
    "hitbox": {
        "width": 1.7,
        "height": 0.4,
        "fixed": false
    },
    "baseFriendship": 70,
    "evYield": {
        "attack": 1
    },
    "height": 20,
    "weight": 69
}