{
  "implemented": true,
  "name": "electrode",
  "nationalPokedexNumber": 101,
  "primaryType": "electric",
  "abilities": ["soundproof", "static", "h:aftermath"],
  "baseStats": {
    "hp": 60,
    "attack": 50,
    "defence": 70,
    "special_attack": 80,
    "special_defence": 80,
    "speed": 150
  },
  "catchRate": 60,
  "maleRatio": -1,
  "shoulderMountable": false,
  "forms": [
    {
      "name": "normal"
    },
    {
      "name": "hisui",
      "secondaryType": "grass",
      "moves": [
        "1:thundershock",
        "5:tackle",
        "9:thunderwave",
        "15:spark",
        "21:energyball",
        "29:thunderbolt",
        "37:thunder",
        "47:chloroblast",
        "47:selfdestruct",
        "tutor:chargebeam",
        "tutor:energyball",
        "tutor:gigaimpact",
        "tutor:hyperbeam",
        "tutor:iceball",
        "tutor:magicalleaf",
        "tutor:rest",
        "tutor:swift",
        "tutor:thunderbolt",
        "tutor:wildcharge"
      ],
      "pokedex": [
        "cobblemon.form.electrode-hisui.desc1",
        "cobblemon.form.electrode-hisui.desc2"
      ],
      "weight": 710,
      "labels": ["gen1", "hisui_regional", "regional"],
      "preEvolution": "voltorb form=hisui"
    }
  ],
  "baseExperienceYield": 172,
  "experienceGroup": "mediumfast",
  "eggCycles": 20,
  "eggGroups": ["mineral"],
  "drops": {
    "amount": "1",
    "entries": [
      {
        "item": "minecraft:gunpowder",
        "quantityRange": "1-2",
        "percentage": 66
      }
    ]
  },
  "moves": [
    "1:tackle",
    "1:sonicboom",
    "1:thundershock",
    "1:lightscreen",
    "1:charge",
    "1:eerieimpulse",
    "1:magneticflux",
    "3:lightscreen",
    "6:sonicboom",
    "6:eerieimpulse",
    "9:thundershock",
    "9:spark",
    "11:rollout",
    "14:swift",
    "16:chargebeam",
    "19:selfdestruct",
    "22:electroball",
    "24:screech",
    "36:thunderbolt",
    "36:magnetrise",
    "41:discharge",
    "48:mirrorcoat",
    "54:gyroball",
    "60:explosion",
    "tm:bide",
    "tm:chargebeam",
    "tm:confide",
    "tm:curse",
    "tm:doubleteam",
    "tm:endure",
    "tm:facade",
    "tm:flash",
    "tm:foulplay",
    "tm:frustration",
    "tm:gigaimpact",
    "tm:gyroball",
    "tm:headbutt",
    "tm:hiddenpower",
    "tm:hyperbeam",
    "tm:lightscreen",
    "tm:naturalgift",
    "tm:protect",
    "tm:rage",
    "tm:raindance",
    "tm:reflect",
    "tm:rest",
    "tm:return",
    "tm:round",
    "tm:secretpower",
    "tm:selfdestruct",
    "tm:skullbash",
    "tm:sleeptalk",
    "tm:substitute",
    "tm:swagger",
    "tm:takedown",
    "tm:taunt",
    "tm:teleport",
    "tm:thief",
    "tm:thunder",
    "tm:thunderbolt",
    "tm:thunderwave",
    "tm:torment",
    "tm:toxic",
    "tm:voltswitch",
    "tm:wildcharge",
    "tm:zapcannon",
    "tutor:magiccoat",
    "tutor:magnetrise",
    "tutor:mimic",
    "tutor:shockwave",
    "tutor:signalbeam",
    "tutor:snore",
    "tutor:suckerpunch",
    "tutor:telekinesis"
  ],
  "labels": ["gen1", "kanto_regional", "regional"],
  "pokedex": [
    "cobblemon.species.electrode.desc1",
    "cobblemon.species.electrode.desc2"
  ],
  "preEvolution": "voltorb",
  "evolutions": [],
  "baseScale": 1.7,
  "hitbox": {
    "width": 0.6,
    "height": 0.6,
    "fixed": false
  },
  "baseFriendship": 70,
  "evYield": {
    "speed": 2
  },
  "height": 12,
  "weight": 666
}
