{
  "implemented": true,
  "name": "exeggcute",
  "nationalPokedexNumber": 102,
  "primaryType": "grass",
  "secondaryType": "psychic",
  "abilities": ["chlorophyll", "h:harvest"],
  "baseStats": {
    "hp": 60,
    "attack": 40,
    "defence": 80,
    "special_attack": 60,
    "special_defence": 45,
    "speed": 40
  },
  "catchRate": 90,
  "maleRatio": 0.5,
  "shoulderMountable": false,
  "forms": [],
  "baseExperienceYield": 65,
  "experienceGroup": "slow",
  "eggCycles": 20,
  "eggGroups": ["grass"],
  "drops": {
    "amount": "1",
    "entries": [
      {
        "item": "minecraft:egg",
        "quantityRange": "1-3",
        "percentage": 75
      }
    ]
  },
  "moves": [
    "1:absorb",
    "1:hypnosis",
    "1:barrage",
    "5:reflect",
    "10:leechseed",
    "15:megadrain",
    "20:confusion",
    "25:synthesis",
    "27:psybeam",
    "30:bulletseed",
    "35:gigadrain",
    "37:naturalgift",
    "40:extrasensory",
    "45:uproar",
    "50:worryseed",
    "50:bestow",
    "55:solarbeam",
    "egg:ancientpower",
    "egg:block",
    "egg:curse",
    "egg:ingrain",
    "egg:luckychant",
    "egg:moonlight",
    "egg:naturalgift",
    "egg:naturepower",
    "egg:poisonpowder",
    "egg:sleeppowder",
    "egg:stunspore",
    "tm:attract",
    "tm:bide",
    "tm:bulletseed",
    "tm:captivate",
    "tm:confide",
    "tm:doubleteam",
    "tm:dreameater",
    "tm:eggbomb",
    "tm:endure",
    "tm:energyball",
    "tm:explosion",
    "tm:facade",
    "tm:flash",
    "tm:frustration",
    "tm:gigadrain",
    "tm:grassknot",
    "tm:grassyterrain",
    "tm:headbutt",
    "tm:hiddenpower",
    "tm:infestation",
    "tm:leafstorm",
    "tm:lightscreen",
    "tm:naturepower",
    "tm:powerswap",
    "tm:protect",
    "tm:psychic",
    "tm:psychup",
    "tm:psywave",
    "tm:rage",
    "tm:reflect",
    "tm:rest",
    "tm:return",
    "tm:round",
    "tm:secretpower",
    "tm:seedbomb",
    "tm:selfdestruct",
    "tm:skillswap",
    "tm:sleeptalk",
    "tm:sludgebomb",
    "tm:snore",
    "tm:solarbeam",
    "tm:strength",
    "tm:substitute",
    "tm:sunnyday",
    "tm:swagger",
    "tm:swordsdance",
    "tm:takedown",
    "tm:teleport",
    "tm:thief",
    "tm:toxic",
    "tm:trickroom",
    "tm:uproar",
    "tutor:doubleedge",
    "tutor:grassyglide",
    "tutor:gravity",
    "tutor:mimic",
    "tutor:nightmare",
    "tutor:rollout",
    "tutor:telekinesis"
  ],
  "labels": ["gen1"],
  "pokedex": [
    "cobblemon.species.exeggcute.desc1",
    "cobblemon.species.exeggcute.desc2"
  ],
  "features": ["alolan"],
  "evolutions": [
    {
      "id": "exeggcute_exeggutor_alola",
      "variant": "item_interact",
      "result": "exeggutor form=alola",
      "consumeHeldItem": false,
      "learnableMoves": [],
      "requirements": [
        {
          "variant": "biome",
          "biomeCondition": "#minecraft:is_beach"
        }
      ],
      "requiredContext": "cobblemon:leaf_stone"
    },
    {
      "id": "exeggcute_exeggutor",
      "variant": "item_interact",
      "result": "exeggutor",
      "consumeHeldItem": false,
      "learnableMoves": [],
      "requirements": [],
      "requiredContext": "cobblemon:leaf_stone"
    }
  ],
  "baseScale": 1.0,
  "hitbox": {
    "width": 1.1,
    "height": 0.5,
    "fixed": false
  },
  "baseFriendship": 50,
  "evYield": {
    "defence": 1
  },
  "height": 4,
  "weight": 25
}
