{
    "implemented": true,
    "name": "gengar",
    "nationalPokedexNumber": 94,
    "primaryType": "ghost",
    "secondaryType": "poison",
    "abilities": [
        "cursedbody"
    ],
    "baseStats": {
        "hp": 60,
        "attack": 65,
        "defence": 60,
        "special_attack": 130,
        "special_defence": 75,
        "speed": 110
    },
    "catchRate": 45,
    "maleRatio": 0.5,
    "shoulderMountable": false,
    "forms": [
        {
            "name": "normal"
        },
        {
            "name": "mega",
            "abilities": [
                "shadowtag"
            ],
            "baseStats": {
                "hp": 60,
                "attack": 65,
                "defence": 80,
                "special_attack": 170,
                "special_defence": 95,
                "speed": 130
            },
            "baseExperienceYield": 270,
            "moves": [
                "0:shadowpunch",
                "1:disable",
                "1:hypnosis",
                "1:confuseray",
                "1:haze",
                "1:lick",
                "1:smog",
                "1:spite",
                "1:shadowpunch",
                "5:confuseray",
                "5:spite",
                "7:poisongas",
                "8:meanlook",
                "12:nightshade",
                "12:curse",
                "14:willowisp",
                "19:suckerpunch",
                "21:toxic",
                "28:payback",
                "30:shadowball",
                "36:darkpulse",
                "45:dreameater",
                "50:destinybond",
                "55:hex",
                "61:nightmare",
                "tm:attract",
                "tm:brickbreak",
                "tm:confide",
                "tm:darkpulse",
                "tm:dazzlinggleam",
                "tm:doubleteam",
                "tm:dreameater",
                "tm:embargo",
                "tm:energyball",
                "tm:explosion",
                "tm:facade",
                "tm:firepunch",
                "tm:fling",
                "tm:focusblast",
                "tm:foulplay",
                "tm:frustration",
                "tm:gigaimpact",
                "tm:headbutt",
                "tm:hiddenpower",
                "tm:hyperbeam",
                "tm:icepunch",
                "tm:infestation",
                "tm:megadrain",
                "tm:payback",
                "tm:poisonjab",
                "tm:poweruppunch",
                "tm:protect",
                "tm:psychic",
                "tm:psychup",
                "tm:raindance",
                "tm:rest",
                "tm:return",
                "tm:rocksmash",
                "tm:round",
                "tm:secretpower",
                "tm:seismictoss",
                "tm:selfdestruct",
                "tm:shadowball",
                "tm:shadowclaw",
                "tm:sleeptalk",
                "tm:sludgebomb",
                "tm:strength",
                "tm:substitute",
                "tm:sunnyday",
                "tm:swagger",
                "tm:taunt",
                "tm:thief",
                "tm:thunder",
                "tm:thunderbolt",
                "tm:thunderpunch",
                "tm:torment",
                "tm:toxic",
                "tm:trickroom",
                "tm:venoshock",
                "tm:willowisp",
                "tutor:allyswitch",
                "tutor:drainpunch",
                "tutor:focuspunch",
                "tutor:gigadrain",
                "tutor:icywind",
                "tutor:knockoff",
                "tutor:laserfocus",
                "tutor:painsplit",
                "tutor:roleplay",
                "tutor:skillswap",
                "tutor:snatch",
                "tutor:snore",
                "tutor:spite",
                "tutor:telekinesis",
                "tutor:trick",
                "tutor:uproar",
                "tutor:wonderroom"
            ],
            "labels": [
                "gen1",
                "mega_evolution"
            ],
            "pokedex": [
                "cobblemon.form.gengar-mega.desc1",
                "cobblemon.form.gengar-mega.desc2"
            ],
            "height": 14
        },
        {
            "name": "gmax",
            "baseExperienceYield": 225,
            "moves": [],
            "labels": [
                "gen1",
                "gmax"
            ],
            "pokedex": [
                "cobblemon.form.gengar-gmax.desc1",
                "cobblemon.form.gengar-gmax.desc2"
            ],
            "height": 200,
            "weight": 10000
        }
    ],
    "baseExperienceYield": 250,
    "experienceGroup": "mediumslow",
    "eggCycles": 20,
    "eggGroups": [
        "amorphous"
    ],
    "behaviour": {
        "moving": {
            "fly": {
                "canFly": true
            }
        }
    },
    "moves": [
        "1:disable",
        "1:hypnosis",
        "1:confuseray",
        "1:haze",
        "1:lick",
        "1:smog",
        "1:perishsong",
        "1:meanlook",
        "1:shadowpunch",
        "1:reflecttype",
        "7:poisongas",
        "12:payback",
        "16:spite",
        "20:curse",
        "21:toxic",
        "24:hex",
        "30:nightshade",
        "36:suckerpunch",
        "42:darkpulse",
        "48:shadowball",
        "54:destinybond",
        "60:dreameater",
        "61:nightmare",
        "tm:allyswitch",
        "tm:attract",
        "tm:bide",
        "tm:bodyslam",
        "tm:brickbreak",
        "tm:captivate",
        "tm:confide",
        "tm:darkpulse",
        "tm:dazzlinggleam",
        "tm:doubleteam",
        "tm:drainpunch",
        "tm:embargo",
        "tm:encore",
        "tm:endure",
        "tm:energyball",
        "tm:explosion",
        "tm:facade",
        "tm:firepunch",
        "tm:fling",
        "tm:focusblast",
        "tm:foulplay",
        "tm:frustration",
        "tm:gigadrain",
        "tm:gigaimpact",
        "tm:headbutt",
        "tm:hex",
        "tm:hiddenpower",
        "tm:hyperbeam",
        "tm:icepunch",
        "tm:icywind",
        "tm:imprison",
        "tm:infestation",
        "tm:megadrain",
        "tm:megakick",
        "tm:megapunch",
        "tm:metronome",
        "tm:nastyplot",
        "tm:naturalgift",
        "tm:payback",
        "tm:phantomforce",
        "tm:poisonjab",
        "tm:poweruppunch",
        "tm:protect",
        "tm:psychic",
        "tm:psychup",
        "tm:psywave",
        "tm:rage",
        "tm:raindance",
        "tm:rest",
        "tm:return",
        "tm:rocksmash",
        "tm:round",
        "tm:scaryface",
        "tm:secretpower",
        "tm:seismictoss",
        "tm:selfdestruct",
        "tm:shadowball",
        "tm:shadowclaw",
        "tm:skillswap",
        "tm:skullbash",
        "tm:sleeptalk",
        "tm:sludgebomb",
        "tm:sludgewave",
        "tm:snore",
        "tm:strength",
        "tm:submission",
        "tm:substitute",
        "tm:sunnyday",
        "tm:swagger",
        "tm:takedown",
        "tm:taunt",
        "tm:thief",
        "tm:thunder",
        "tm:thunderbolt",
        "tm:thunderpunch",
        "tm:torment",
        "tm:toxic",
        "tm:trick",
        "tm:trickroom",
        "tm:uproar",
        "tm:venoshock",
        "tm:willowisp",
        "tm:wonderroom",
        "tm:zapcannon",
        "tutor:corrosivegas",
        "tutor:counter",
        "tutor:doubleedge",
        "tutor:dynamicpunch",
        "tutor:focuspunch",
        "tutor:knockoff",
        "tutor:laserfocus",
        "tutor:mimic",
        "tutor:ominouswind",
        "tutor:painsplit",
        "tutor:poltergeist",
        "tutor:roleplay",
        "tutor:skittersmack",
        "tutor:snatch",
        "tutor:telekinesis"
    ],
    "labels": [
        "gen1"
    ],
    "pokedex": [
        "cobblemon.species.gengar.desc1",
        "cobblemon.species.gengar.desc2"
    ],
    "preEvolution": "haunter",
    "evolutions": [],
    "baseScale": 1.3,
    "hitbox": {
        "width": 0.8,
        "height": 1,
        "fixed": false
    },
    "baseFriendship": 50,
    "evYield": {
        "special_attack": 3
    },
    "height": 15,
    "weight": 405
}