{
    "implemented": true,
    "name": "golduck",
    "nationalPokedexNumber": 55,
    "primaryType": "water",
    "abilities": [
        "damp",
        "cloudnine",
        "h:swiftswim"
    ],
    "baseStats": {
        "hp": 80,
        "attack": 82,
        "defence": 78,
        "special_attack": 95,
        "special_defence": 80,
        "speed": 85
    },
    "catchRate": 75,
    "maleRatio": 0.5,
    "shoulderMountable": false,
    "forms": [],
    "baseExperienceYield": 175,
    "experienceGroup": "mediumfast",
    "eggCycles": 20,
    "eggGroups": [
        "water_1",
        "field"
    ],
    "behaviour": {
        "moving": {
            "swim": {
                "swimSpeed": 0.1,
                "canSwimInWater": true,
                "canBreatheUnderwater": true
            }
        }
    },
    "moves": [
        "1:scratch",
        "1:tailwhip",
        "1:watergun",
        "1:confusion",
        "1:yawn",
        "1:watersport",
        "1:mefirst",
        "1:aquajet",
        "9:furyswipes",
        "12:waterpulse",
        "15:disable",
        "18:zenheadbutt",
        "21:screech",
        "24:aquatail",
        "27:psybeam",
        "27:soak",
        "30:psychup",
        "36:amnesia",
        "40:hydropump",
        "45:wonderroom",
        "tm:aerialace",
        "tm:amnesia",
        "tm:attract",
        "tm:bide",
        "tm:blizzard",
        "tm:bodyslam",
        "tm:brickbreak",
        "tm:brine",
        "tm:bubblebeam",
        "tm:calmmind",
        "tm:captivate",
        "tm:confide",
        "tm:curse",
        "tm:dig",
        "tm:dive",
        "tm:doubleteam",
        "tm:encore",
        "tm:endure",
        "tm:facade",
        "tm:flash",
        "tm:fling",
        "tm:focusblast",
        "tm:frustration",
        "tm:futuresight",
        "tm:gigaimpact",
        "tm:hail",
        "tm:headbutt",
        "tm:hiddenpower",
        "tm:honeclaws",
        "tm:hydropump",
        "tm:hyperbeam",
        "tm:icebeam",
        "tm:icepunch",
        "tm:icywind",
        "tm:irontail",
        "tm:lightscreen",
        "tm:liquidation",
        "tm:lowkick",
        "tm:lowsweep",
        "tm:megakick",
        "tm:megapunch",
        "tm:muddywater",
        "tm:naturalgift",
        "tm:payday",
        "tm:poweruppunch",
        "tm:protect",
        "tm:psychic",
        "tm:psyshock",
        "tm:rage",
        "tm:raindance",
        "tm:rest",
        "tm:return",
        "tm:rockclimb",
        "tm:rocksmash",
        "tm:round",
        "tm:scald",
        "tm:screech",
        "tm:secretpower",
        "tm:seismictoss",
        "tm:shadowclaw",
        "tm:skullbash",
        "tm:sleeptalk",
        "tm:snore",
        "tm:strength",
        "tm:submission",
        "tm:substitute",
        "tm:surf",
        "tm:swagger",
        "tm:swift",
        "tm:takedown",
        "tm:toxic",
        "tm:waterfall",
        "tm:whirlpool",
        "tm:wonderroom",
        "tm:zenheadbutt",
        "tutor:counter",
        "tutor:doubleedge",
        "tutor:dynamicpunch",
        "tutor:flipturn",
        "tutor:focuspunch",
        "tutor:furycutter",
        "tutor:laserfocus",
        "tutor:mimic",
        "tutor:mudslap",
        "tutor:roleplay",
        "tutor:signalbeam",
        "tutor:telekinesis",
        "tutor:worryseed"
    ],
    "labels": [
        "gen1"
    ],
    "pokedex": [
        "cobblemon.species.golduck.desc1",
        "cobblemon.species.golduck.desc2"
    ],
    "preEvolution": "psyduck",
    "evolutions": [],
    "baseScale": 1.2,
    "hitbox": {
        "width": 0.8,
        "height": 1.5,
        "fixed": false
    },
    "baseFriendship": 50,
    "evYield": {
        "special_attack": 2
    },
    "height": 17,
    "weight": 766
}