{
    "implemented": true,
    "name": "gyarados",
    "nationalPokedexNumber": 130,
    "primaryType": "water",
    "secondaryType": "flying",
    "abilities": [
        "intimidate",
        "h:moxie"
    ],
    "baseStats": {
        "hp": 95,
        "attack": 125,
        "defence": 79,
        "special_attack": 60,
        "special_defence": 100,
        "speed": 81
    },
    "catchRate": 45,
    "maleRatio": 0.5,
    "shoulderMountable": false,
    "forms": [
        {
            "name": "normal"
        },
        {
            "name": "mega",
            "secondaryType": "dark",
            "abilities": [
                "moldbreaker"
            ],
            "baseStats": {
                "hp": 95,
                "attack": 155,
                "defence": 109,
                "special_attack": 70,
                "special_defence": 130,
                "speed": 81
            },
            "baseExperienceYield": 224,
            "moves": [
                "0:bite",
                "1:bind",
                "1:thrash",
                "1:leer",
                "1:bite",
                "1:dragonrage",
                "6:leer",
                "11:dragonrage",
                "16:bind",
                "21:rage",
                "24:twister",
                "26:dragontail",
                "27:icefang",
                "30:aquatail",
                "31:waterfall",
                "33:scaryface",
                "36:crunch",
                "41:outrage",
                "45:dragondance",
                "46:hydropump",
                "48:hurricane",
                "51:hyperbeam",
                "51:raindance",
                "tm:attract",
                "tm:blizzard",
                "tm:brutalswing",
                "tm:bulldoze",
                "tm:confide",
                "tm:darkpulse",
                "tm:dive",
                "tm:doubleteam",
                "tm:dragonpulse",
                "tm:dragontail",
                "tm:earthquake",
                "tm:facade",
                "tm:fireblast",
                "tm:flamethrower",
                "tm:frustration",
                "tm:gigaimpact",
                "tm:hail",
                "tm:headbutt",
                "tm:hiddenpower",
                "tm:hyperbeam",
                "tm:icebeam",
                "tm:incinerate",
                "tm:irontail",
                "tm:outrage",
                "tm:payback",
                "tm:protect",
                "tm:raindance",
                "tm:reflect",
                "tm:rest",
                "tm:return",
                "tm:roar",
                "tm:rocksmash",
                "tm:round",
                "tm:sandstorm",
                "tm:scald",
                "tm:secretpower",
                "tm:sleeptalk",
                "tm:stoneedge",
                "tm:strength",
                "tm:substitute",
                "tm:surf",
                "tm:swagger",
                "tm:taunt",
                "tm:thunder",
                "tm:thunderbolt",
                "tm:thunderwave",
                "tm:torment",
                "tm:toxic",
                "tm:waterfall",
                "tutor:aquatail",
                "tutor:bounce",
                "tutor:icywind",
                "tutor:ironhead",
                "tutor:snore",
                "tutor:spite",
                "tutor:uproar",
                "tutor:waterpulse"
            ],
            "labels": [
                "gen1",
                "mega_evolution"
            ],
            "pokedex": [
                "cobblemon.form.gyarados-mega.desc1",
                "cobblemon.form.gyarados-mega.desc2"
            ],
            "weight": 3050
        }
    ],
    "baseExperienceYield": 189,
    "experienceGroup": "slow",
    "eggCycles": 5,
    "eggGroups": [
        "water_2",
        "dragon"
    ],
	"behaviour": {
        "moving": {
            "swim": {
                "canSwimInWater": true,
                "canBreatheUnderwater": true,
                "canWalkOnWater": true
            }
        }
    },
    "moves": [
        "0:bite",
        "1:bind",
        "1:tackle",
        "1:leer",
        "1:bite",
        "1:dragonrage",
        "1:splash",
        "1:flail",
        "1:twister",
        "4:whirlpool",
        "8:icefang",
        "11:dragonrage",
        "12:brine",
        "16:bind",
        "16:scaryface",
        "21:rage",
        "21:waterfall",
        "24:crunch",
        "26:dragontail",
        "28:raindance",
        "32:aquatail",
        "36:dragondance",
        "40:hydropump",
        "44:hurricane",
        "48:thrash",
        "52:hyperbeam",
        "tm:attract",
        "tm:avalanche",
        "tm:bide",
        "tm:blizzard",
        "tm:bodyslam",
        "tm:bounce",
        "tm:brine",
        "tm:brutalswing",
        "tm:bubblebeam",
        "tm:bulldoze",
        "tm:captivate",
        "tm:confide",
        "tm:crunch",
        "tm:curse",
        "tm:darkpulse",
        "tm:dive",
        "tm:doubleteam",
        "tm:dragonbreath",
        "tm:dragondance",
        "tm:dragonpulse",
        "tm:dragontail",
        "tm:earthquake",
        "tm:endure",
        "tm:facade",
        "tm:fireblast",
        "tm:flamethrower",
        "tm:frustration",
        "tm:gigaimpact",
        "tm:hail",
        "tm:headbutt",
        "tm:hiddenpower",
        "tm:hurricane",
        "tm:hydropump",
        "tm:hyperbeam",
        "tm:icebeam",
        "tm:icefang",
        "tm:icywind",
        "tm:incinerate",
        "tm:ironhead",
        "tm:irontail",
        "tm:muddywater",
        "tm:naturalgift",
        "tm:outrage",
        "tm:payback",
        "tm:powerwhip",
        "tm:protect",
        "tm:raindance",
        "tm:reflect",
        "tm:rest",
        "tm:return",
        "tm:roar",
        "tm:rocksmash",
        "tm:round",
        "tm:sandstorm",
        "tm:scald",
        "tm:scaryface",
        "tm:secretpower",
        "tm:skullbash",
        "tm:sleeptalk",
        "tm:snore",
        "tm:stoneedge",
        "tm:strength",
        "tm:substitute",
        "tm:surf",
        "tm:swagger",
        "tm:takedown",
        "tm:taunt",
        "tm:thunder",
        "tm:thunderbolt",
        "tm:thunderwave",
        "tm:torment",
        "tm:toxic",
        "tm:uproar",
        "tm:waterfall",
        "tm:watergun",
        "tm:whirlpool",
        "tm:zapcannon",
        "tutor:doubleedge",
        "tutor:lashout",
        "tutor:mimic",
        "tutor:scaleshot",
        "tutor:spite",
        "tutor:waterpulse"
    ],
    "labels": [
        "gen1"
    ],
    "pokedex": [
        "cobblemon.species.gyarados.desc1",
        "cobblemon.species.gyarados.desc2"
    ],
    "preEvolution": "magikarp",
    "evolutions": [],
    "baseScale": 2.0,
    "hitbox": {
        "width": 1.5,
        "height": 1.6,
        "fixed": false
    },
    "baseFriendship": 50,
    "evYield": {
        "attack": 2
    },
    "height": 65,
    "weight": 2350
}