{
    "implemented": true,
    "name": "hitmonlee",
    "nationalPokedexNumber": 106,
    "primaryType": "fighting",
    "abilities": [
        "limber",
        "reckless",
        "h:unburden"
    ],
    "baseStats": {
        "hp": 50,
        "attack": 120,
        "defence": 53,
        "special_attack": 35,
        "special_defence": 110,
        "speed": 87
    },
    "catchRate": 45,
    "maleRatio": 1.0,
    "shoulderMountable": false,
    "forms": [],
    "baseExperienceYield": 159,
    "experienceGroup": "mediumfast",
    "eggCycles": 25,
    "eggGroups": [
        "human_like"
    ],
    "moves": [
        "0:brickbreak",
        "1:rollingkick",
        "1:tackle",
        "1:focusenergy",
        "1:fakeout",
        "1:helpinghand",
        "1:brickbreak",
        "1:feint",
        "1:lowsweep",
        "4:doublekick",
        "5:meditate",
        "8:lowkick",
        "12:endure",
        "16:revenge",
        "21:wideguard",
        "24:blazekick",
        "28:mindreader",
        "30:jumpkick",
        "32:megakick",
        "36:closecombat",
        "37:foresight",
        "40:reversal",
        "44:highjumpkick",
        "tm:attract",
        "tm:aurasphere",
        "tm:bide",
        "tm:blazekick",
        "tm:bodyslam",
        "tm:bounce",
        "tm:brickbreak",
        "tm:bulkup",
        "tm:bulldoze",
        "tm:captivate",
        "tm:closecombat",
        "tm:confide",
        "tm:curse",
        "tm:detect",
        "tm:doubleteam",
        "tm:earthquake",
        "tm:endure",
        "tm:facade",
        "tm:fling",
        "tm:focusblast",
        "tm:focusenergy",
        "tm:frustration",
        "tm:headbutt",
        "tm:helpinghand",
        "tm:hiddenpower",
        "tm:lowkick",
        "tm:lowsweep",
        "tm:megakick",
        "tm:megapunch",
        "tm:metronome",
        "tm:naturalgift",
        "tm:poisonjab",
        "tm:poweruppunch",
        "tm:protect",
        "tm:rage",
        "tm:raindance",
        "tm:rest",
        "tm:retaliate",
        "tm:return",
        "tm:revenge",
        "tm:reversal",
        "tm:rockclimb",
        "tm:rockslide",
        "tm:rocksmash",
        "tm:rocktomb",
        "tm:round",
        "tm:secretpower",
        "tm:seismictoss",
        "tm:skullbash",
        "tm:sleeptalk",
        "tm:snore",
        "tm:stompingtantrum",
        "tm:stoneedge",
        "tm:strength",
        "tm:submission",
        "tm:substitute",
        "tm:sunnyday",
        "tm:superpower",
        "tm:swagger",
        "tm:swift",
        "tm:takedown",
        "tm:thief",
        "tm:throatchop",
        "tm:toxic",
        "tm:uproar",
        "tm:workup",
        "tutor:coaching",
        "tutor:counter",
        "tutor:covet",
        "tutor:doubleedge",
        "tutor:dynamicpunch",
        "tutor:focuspunch",
        "tutor:knockoff",
        "tutor:laserfocus",
        "tutor:mimic",
        "tutor:mudslap",
        "tutor:roleplay",
        "tutor:suckerpunch",
        "tutor:vacuumwave"
    ],
    "labels": [
        "gen1"
    ],
    "pokedex": [
        "cobblemon.species.hitmonlee.desc1",
        "cobblemon.species.hitmonlee.desc2"
    ],
    "preEvolution": "tyrogue",
    "evolutions": [],
    "baseScale": 1.2,
    "hitbox": {
        "width": 0.6,
        "height": 1.3,
        "fixed": false
    },
    "baseFriendship": 50,
    "evYield": {
        "attack": 2
    },
    "height": 15,
    "weight": 498
}