{
    "implemented": true,
    "name": "hypno",
    "nationalPokedexNumber": 97,
    "primaryType": "psychic",
    "abilities": [
        "insomnia",
        "forewarn",
        "h:innerfocus"
    ],
    "baseStats": {
        "hp": 85,
        "attack": 73,
        "defence": 70,
        "special_attack": 73,
        "special_defence": 115,
        "speed": 67
    },
    "catchRate": 75,
    "maleRatio": 0.5,
    "shoulderMountable": false,
    "forms": [],
    "baseExperienceYield": 169,
    "experienceGroup": "mediumfast",
    "eggCycles": 20,
    "eggGroups": [
        "human_like"
    ],
    "moves": [
        "1:pound",
        "1:disable",
        "1:confusion",
        "1:hypnosis",
        "1:barrier",
        "1:nightmare",
        "1:futuresight",
        "1:switcheroo",
        "4:disable",
        "9:confusion",
        "13:poisongas",
        "18:meditate",
        "22:psybeam",
        "27:headbutt",
        "29:wakeupslap",
        "33:psychup",
        "36:psychic",
        "37:synchronoise",
        "41:zenheadbutt",
        "45:swagger",
        "46:nastyplot",
        "55:dreameater",
        "57:psyshock",
        "61:futuresight",
        "tm:attract",
        "tm:bide",
        "tm:brickbreak",
        "tm:calmmind",
        "tm:captivate",
        "tm:confide",
        "tm:curse",
        "tm:dazzlinggleam",
        "tm:doubleteam",
        "tm:dreameater",
        "tm:endure",
        "tm:facade",
        "tm:firepunch",
        "tm:flash",
        "tm:fling",
        "tm:focusblast",
        "tm:foulplay",
        "tm:frustration",
        "tm:gigaimpact",
        "tm:grassknot",
        "tm:headbutt",
        "tm:hiddenpower",
        "tm:hyperbeam",
        "tm:icepunch",
        "tm:lightscreen",
        "tm:lowsweep",
        "tm:naturalgift",
        "tm:poweruppunch",
        "tm:protect",
        "tm:psychic",
        "tm:psychup",
        "tm:psyshock",
        "tm:psywave",
        "tm:rage",
        "tm:raindance",
        "tm:reflect",
        "tm:rest",
        "tm:return",
        "tm:round",
        "tm:safeguard",
        "tm:secretpower",
        "tm:seismictoss",
        "tm:shadowball",
        "tm:skullbash",
        "tm:sleeptalk",
        "tm:submission",
        "tm:substitute",
        "tm:sunnyday",
        "tm:swagger",
        "tm:takedown",
        "tm:taunt",
        "tm:teleport",
        "tm:thief",
        "tm:thunderpunch",
        "tm:thunderwave",
        "tm:torment",
        "tm:toxic",
        "tm:triattack",
        "tm:trickroom",
        "tm:zapcannon",
        "tutor:allyswitch",
        "tutor:bodyslam",
        "tutor:counter",
        "tutor:doubleedge",
        "tutor:drainpunch",
        "tutor:dynamicpunch",
        "tutor:focuspunch",
        "tutor:lowkick",
        "tutor:magiccoat",
        "tutor:magicroom",
        "tutor:megakick",
        "tutor:megapunch",
        "tutor:metronome",
        "tutor:mimic",
        "tutor:recycle",
        "tutor:roleplay",
        "tutor:signalbeam",
        "tutor:skillswap",
        "tutor:snatch",
        "tutor:snore",
        "tutor:telekinesis",
        "tutor:trick",
        "tutor:zenheadbutt"
    ],
    "labels": [
        "gen1"
    ],
    "pokedex": [
        "cobblemon.species.hypno.desc1",
        "cobblemon.species.hypno.desc2"
    ],
    "preEvolution": "drowzee",
    "evolutions": [],
    "baseScale": 1.1,
    "hitbox": {
        "width": 0.5,
        "height": 1.3,
        "fixed": false
    },
    "baseFriendship": 70,
    "evYield": {
        "special_defence": 2
    },
    "height": 16,
    "weight": 756
}