{
    "implemented": true,
    "name": "kangaskhan",
    "nationalPokedexNumber": 115,
    "primaryType": "normal",
    "abilities": [
        "earlybird",
        "scrappy",
        "h:innerfocus"
    ],
    "baseStats": {
        "hp": 105,
        "attack": 95,
        "defence": 80,
        "special_attack": 40,
        "special_defence": 80,
        "speed": 90
    },
    "catchRate": 45,
    "maleRatio": 0.0,
    "shoulderMountable": false,
    "forms": [
        {
            "name": "normal"
        },
        {
            "name": "mega",
            "abilities": [
                "parentalbond"
            ],
            "baseStats": {
                "hp": 105,
                "attack": 125,
                "defence": 100,
                "special_attack": 60,
                "special_defence": 100,
                "speed": 100
            },
            "baseExperienceYield": 207,
            "moves": [
                "1:cometpunch",
                "1:leer",
                "6:fakeout",
                "11:tailwhip",
                "17:bite",
                "19:doublehit",
                "22:rage",
                "28:megapunch",
                "31:chipaway",
                "33:dizzypunch",
                "39:crunch",
                "43:endure",
                "44:outrage",
                "50:reversal",
                "50:suckerpunch",
                "egg:circlethrow",
                "egg:counter",
                "egg:crushclaw",
                "egg:disable",
                "egg:doubleedge",
                "egg:endeavor",
                "egg:focusenergy",
                "egg:focuspunch",
                "egg:foresight",
                "egg:hammerarm",
                "egg:stomp",
                "egg:trumpcard",
                "egg:uproar",
                "tm:aerialace",
                "tm:attract",
                "tm:blizzard",
                "tm:brickbreak",
                "tm:bulldoze",
                "tm:confide",
                "tm:cut",
                "tm:dig",
                "tm:doubleteam",
                "tm:earthquake",
                "tm:facade",
                "tm:fireblast",
                "tm:firepunch",
                "tm:flamethrower",
                "tm:fling",
                "tm:focusblast",
                "tm:frustration",
                "tm:gigaimpact",
                "tm:hail",
                "tm:headbutt",
                "tm:helpinghand",
                "tm:hiddenpower",
                "tm:hyperbeam",
                "tm:icebeam",
                "tm:icepunch",
                "tm:incinerate",
                "tm:irontail",
                "tm:outrage",
                "tm:poweruppunch",
                "tm:protect",
                "tm:raindance",
                "tm:rest",
                "tm:retaliate",
                "tm:return",
                "tm:roar",
                "tm:rockslide",
                "tm:rocksmash",
                "tm:rocktomb",
                "tm:round",
                "tm:safeguard",
                "tm:sandstorm",
                "tm:secretpower",
                "tm:seismictoss",
                "tm:shadowball",
                "tm:shadowclaw",
                "tm:sleeptalk",
                "tm:solarbeam",
                "tm:strength",
                "tm:substitute",
                "tm:sunnyday",
                "tm:surf",
                "tm:swagger",
                "tm:thief",
                "tm:thunder",
                "tm:thunderbolt",
                "tm:thunderpunch",
                "tm:toxic",
                "tm:workup",
                "tutor:aquatail",
                "tutor:covet",
                "tutor:drainpunch",
                "tutor:endeavor",
                "tutor:focuspunch",
                "tutor:icywind",
                "tutor:lowkick",
                "tutor:shockwave",
                "tutor:snore",
                "tutor:spite",
                "tutor:uproar",
                "tutor:waterpulse"
            ],
            "labels": [
                "gen1",
                "mega_evolution"
            ],
            "pokedex": [
                "cobblemon.form.kangaskhan-mega.desc1",
                "cobblemon.form.kangaskhan-mega.desc2"
            ],
            "weight": 1000
        }
    ],
    "baseExperienceYield": 172,
    "experienceGroup": "mediumfast",
    "eggCycles": 20,
    "eggGroups": [
        "monster"
    ],
    "moves": [
        "1:pound",
        "1:cometpunch",
        "1:tailwhip",
        "1:leer",
        "4:growl",
        "8:fakeout",
        "12:bite",
        "16:stomp",
        "20:focusenergy",
        "22:rage",
        "24:headbutt",
        "28:suckerpunch",
        "31:chipaway",
        "32:doublehit",
        "33:dizzypunch",
        "36:crunch",
        "40:endure",
        "44:reversal",
        "48:outrage",
        "52:lastresort",
        "egg:circlethrow",
        "egg:counter",
        "egg:crushclaw",
        "egg:disable",
        "egg:doubleedge",
        "egg:endeavor",
        "egg:focuspunch",
        "egg:foresight",
        "egg:hammerarm",
        "egg:trumpcard",
        "tm:aerialace",
        "tm:assurance",
        "tm:attract",
        "tm:avalanche",
        "tm:beatup",
        "tm:bide",
        "tm:blizzard",
        "tm:bodyslam",
        "tm:brickbreak",
        "tm:bubblebeam",
        "tm:bulldoze",
        "tm:captivate",
        "tm:confide",
        "tm:crunch",
        "tm:curse",
        "tm:cut",
        "tm:dig",
        "tm:doubleteam",
        "tm:drainpunch",
        "tm:earthquake",
        "tm:endure",
        "tm:facade",
        "tm:fireblast",
        "tm:firepunch",
        "tm:fissure",
        "tm:flamethrower",
        "tm:fling",
        "tm:focusblast",
        "tm:focusenergy",
        "tm:frustration",
        "tm:gigaimpact",
        "tm:hail",
        "tm:helpinghand",
        "tm:hiddenpower",
        "tm:hydropump",
        "tm:hyperbeam",
        "tm:icebeam",
        "tm:icepunch",
        "tm:icywind",
        "tm:incinerate",
        "tm:irontail",
        "tm:lowkick",
        "tm:megakick",
        "tm:megapunch",
        "tm:naturalgift",
        "tm:outrage",
        "tm:poweruppunch",
        "tm:protect",
        "tm:raindance",
        "tm:rest",
        "tm:retaliate",
        "tm:return",
        "tm:reversal",
        "tm:roar",
        "tm:rockclimb",
        "tm:rockslide",
        "tm:rocksmash",
        "tm:rocktomb",
        "tm:round",
        "tm:safeguard",
        "tm:sandstorm",
        "tm:secretpower",
        "tm:seismictoss",
        "tm:shadowball",
        "tm:shadowclaw",
        "tm:skullbash",
        "tm:sleeptalk",
        "tm:snore",
        "tm:solarbeam",
        "tm:strength",
        "tm:submission",
        "tm:substitute",
        "tm:sunnyday",
        "tm:surf",
        "tm:swagger",
        "tm:takedown",
        "tm:thief",
        "tm:thunder",
        "tm:thunderbolt",
        "tm:thunderpunch",
        "tm:toxic",
        "tm:uproar",
        "tm:watergun",
        "tm:whirlpool",
        "tm:workup",
        "tm:zapcannon",
        "tutor:aquatail",
        "tutor:covet",
        "tutor:dynamicpunch",
        "tutor:focuspunch",
        "tutor:furycutter",
        "tutor:mimic",
        "tutor:mudslap",
        "tutor:shockwave",
        "tutor:spite",
        "tutor:terrainpulse",
        "tutor:waterpulse"
    ],
    "labels": [
        "gen1"
    ],
    "pokedex": [
        "cobblemon.species.kangaskhan.desc1",
        "cobblemon.species.kangaskhan.desc2"
    ],
    "evolutions": [],
    "baseScale": 1.4,
    "hitbox": {
        "width": 1.2,
        "height": 1.9,
        "fixed": false
    },
    "baseFriendship": 50,
    "evYield": {
        "hp": 2
    },
    "height": 22,
    "weight": 800
}