{
    "implemented": true,
    "name": "machamp",
    "nationalPokedexNumber": 68,
    "primaryType": "fighting",
    "abilities": [
        "guts",
        "noguard",
        "h:steadfast"
    ],
    "baseStats": {
        "hp": 90,
        "attack": 130,
        "defence": 80,
        "special_attack": 65,
        "special_defence": 85,
        "speed": 55
    },
    "catchRate": 45,
    "maleRatio": 0.75,
    "shoulderMountable": false,
    "forms": [
        {
            "name": "normal"
        },
        {
            "name": "gmax",
            "baseExperienceYield": 227,
            "moves": [],
            "labels": [
                "gen1",
                "gmax"
            ],
            "pokedex": [
                "cobblemon.form.machamp-gmax.desc1",
                "cobblemon.form.machamp-gmax.desc2"
            ],
            "height": 250,
            "weight": 10000
        }
    ],
    "baseExperienceYield": 253,
    "experienceGroup": "mediumslow",
    "eggCycles": 20,
    "eggGroups": [
        "human_like"
    ],
    "moves": [
        "1:leer",
        "1:lowkick",
        "1:counter",
        "1:focusenergy",
        "1:bide",
        "1:revenge",
        "1:wideguard",
        "8:bide",
        "9:foresight",
        "12:lowsweep",
        "16:karatechop",
        "16:knockoff",
        "20:scaryface",
        "24:vitalthrow",
        "26:submission",
        "27:wakeupslap",
        "31:strength",
        "36:dualchop",
        "42:bulkup",
        "48:seismictoss",
        "54:dynamicpunch",
        "60:crosschop",
        "66:doubleedge",
        "tm:assurance",
        "tm:attract",
        "tm:bodyslam",
        "tm:brickbreak",
        "tm:bulkup",
        "tm:bulldoze",
        "tm:captivate",
        "tm:closecombat",
        "tm:confide",
        "tm:crosspoison",
        "tm:curse",
        "tm:darkestlariat",
        "tm:detect",
        "tm:dig",
        "tm:doubleteam",
        "tm:earthquake",
        "tm:encore",
        "tm:endure",
        "tm:facade",
        "tm:fireblast",
        "tm:firepunch",
        "tm:fissure",
        "tm:flamethrower",
        "tm:fling",
        "tm:focusblast",
        "tm:focusenergy",
        "tm:frustration",
        "tm:gigaimpact",
        "tm:headbutt",
        "tm:heavyslam",
        "tm:helpinghand",
        "tm:hiddenpower",
        "tm:highhorsepower",
        "tm:hyperbeam",
        "tm:icepunch",
        "tm:incinerate",
        "tm:lightscreen",
        "tm:lowkick",
        "tm:lowsweep",
        "tm:megakick",
        "tm:megapunch",
        "tm:metronome",
        "tm:naturalgift",
        "tm:payback",
        "tm:poisonjab",
        "tm:poweruppunch",
        "tm:protect",
        "tm:rage",
        "tm:raindance",
        "tm:rest",
        "tm:retaliate",
        "tm:return",
        "tm:revenge",
        "tm:reversal",
        "tm:rockblast",
        "tm:rockclimb",
        "tm:rockslide",
        "tm:rocksmash",
        "tm:rocktomb",
        "tm:round",
        "tm:scaryface",
        "tm:secretpower",
        "tm:skullbash",
        "tm:sleeptalk",
        "tm:smackdown",
        "tm:snore",
        "tm:stompingtantrum",
        "tm:stoneedge",
        "tm:substitute",
        "tm:sunnyday",
        "tm:superpower",
        "tm:swagger",
        "tm:takedown",
        "tm:thief",
        "tm:throatchop",
        "tm:thunderpunch",
        "tm:toxic",
        "tm:workup",
        "tutor:coaching",
        "tutor:focuspunch",
        "tutor:mimic",
        "tutor:mudslap",
        "tutor:roleplay",
        "tutor:vacuumwave"
    ],
    "labels": [
        "gen1"
    ],
    "pokedex": [
        "cobblemon.species.machamp.desc1",
        "cobblemon.species.machamp.desc2"
    ],
    "preEvolution": "machoke",
    "evolutions": [],
    "baseScale": 1.2,
    "hitbox": {
        "width": 1.0,
        "height": 1.8,
        "fixed": false
    },
    "baseFriendship": 50,
    "evYield": {
        "attack": 3
    },
    "height": 16,
    "weight": 1300
}