{
    "implemented": true,
    "name": "metapod",
    "nationalPokedexNumber": 11,
    "primaryType": "bug",
    "abilities": [
        "shedskin"
    ],
    "baseStats": {
        "hp": 50,
        "attack": 20,
        "defence": 55,
        "special_attack": 25,
        "special_defence": 25,
        "speed": 30
    },
    "catchRate": 120,
    "maleRatio": 0.5,
    "shoulderMountable": false,
    "features": [
        "valencian"
    ],
    "baseExperienceYield": 72,
    "experienceGroup": "mediumfast",
    "eggCycles": 15,
    "eggGroups": [
        "bug"
    ],
    "behaviour": {
        "resting": {
            "canSleep": true,
            "depth": "normal",
            "light": "0-4"
        },
        "moving": {
            "walk": {
                "canWalk": false
            },
            "swim": {
                "canSwimInWater": false
            },
            "canLook": false
        }
    },
    "drops": {
        "amount": "1",
        "entries": [
            {
                "item": "minecraft:string",
                "quantityRange": "1-2",
                "percentage": 66
            }
        ]
    },
    "moves": [
        "0:harden",
        "1:harden",
        "tm:electroweb",
        "tm:irondefense",
        "tutor:bugbite",
        "tutor:stringshot"
    ],
    "labels": [
        "gen1"
    ],
    "pokedex": [
        "cobblemon.species.metapod.desc1",
        "cobblemon.species.metapod.desc2"
    ],
    "preEvolution": "caterpie",
    "evolutions": [
        {
            "id": "metapod_butterfree",
            "variant": "level_up",
            "result": "butterfree",
            "consumeHeldItem": false,
            "learnableMoves": [],
            "requirements": [
                {
                    "variant": "level",
                    "minLevel": 10
                }
            ]
        }
    ],
    "baseScale": 0.8,
    "hitbox": {
        "width": 0.8,
        "height": 0.8,
        "fixed": false
    },
    "baseFriendship": 50,
    "evYield": {
        "defence": 2
    },
    "height": 7,
    "weight": 99,
    "forms": []
}