{
  "implemented": true,
  "name": "mrmime",
  "nationalPokedexNumber": 122,
  "primaryType": "psychic",
  "secondaryType": "fairy",
  "abilities": ["soundproof", "filter", "h:technician"],
  "baseStats": {
    "hp": 40,
    "attack": 45,
    "defence": 65,
    "special_attack": 100,
    "special_defence": 120,
    "speed": 90
  },
  "catchRate": 45,
  "maleRatio": 0.5,
  "shoulderMountable": false,
  "forms": [
    {
      "name": "normal"
    },
    {
      "name": "galar",
      "primaryType": "ice",
      "secondaryType": "psychic",
      "abilities": ["vitalspirit", "screencleaner", "h:icebody"],
      "baseStats": {
        "hp": 50,
        "attack": 65,
        "defence": 65,
        "special_attack": 90,
        "special_defence": 90,
        "speed": 100
      },
      "evYield": {
        "speed": 2
      },
      "moves": [
        "1:pound",
        "1:mimic",
        "1:lightscreen",
        "1:reflect",
        "1:protect",
        "1:safeguard",
        "1:batonpass",
        "1:encore",
        "1:rapidspin",
        "1:roleplay",
        "1:recycle",
        "1:copycat",
        "1:iceshard",
        "1:mistyterrain",
        "1:dazzlinggleam",
        "12:confusion",
        "16:allyswitch",
        "20:icywind",
        "24:doublekick",
        "28:psybeam",
        "32:hypnosis",
        "36:mirrorcoat",
        "40:suckerpunch",
        "44:freezedry",
        "48:psychic",
        "52:teeterdance",
        "egg:confuseray",
        "egg:fakeout",
        "egg:powersplit",
        "egg:tickle",
        "tm:allyswitch",
        "tm:attract",
        "tm:avalanche",
        "tm:batonpass",
        "tm:blizzard",
        "tm:bodyslam",
        "tm:brickbreak",
        "tm:calmmind",
        "tm:charm",
        "tm:dazzlinggleam",
        "tm:drainpunch",
        "tm:encore",
        "tm:endure",
        "tm:energyball",
        "tm:facade",
        "tm:fling",
        "tm:focusblast",
        "tm:foulplay",
        "tm:futuresight",
        "tm:gigaimpact",
        "tm:grassknot",
        "tm:guardswap",
        "tm:hail",
        "tm:helpinghand",
        "tm:hyperbeam",
        "tm:icebeam",
        "tm:icepunch",
        "tm:iciclespear",
        "tm:icywind",
        "tm:irondefense",
        "tm:lightscreen",
        "tm:magicroom",
        "tm:megakick",
        "tm:megapunch",
        "tm:metronome",
        "tm:mistyterrain",
        "tm:nastyplot",
        "tm:payback",
        "tm:powerswap",
        "tm:protect",
        "tm:psychic",
        "tm:psychicterrain",
        "tm:psyshock",
        "tm:raindance",
        "tm:reflect",
        "tm:rest",
        "tm:round",
        "tm:safeguard",
        "tm:screech",
        "tm:shadowball",
        "tm:skillswap",
        "tm:sleeptalk",
        "tm:snore",
        "tm:solarbeam",
        "tm:stompingtantrum",
        "tm:storedpower",
        "tm:substitute",
        "tm:sunnyday",
        "tm:taunt",
        "tm:thief",
        "tm:thunder",
        "tm:thunderbolt",
        "tm:thunderwave",
        "tm:trick",
        "tm:trickroom",
        "tm:uproar",
        "tm:wonderroom",
        "tm:zenheadbutt",
        "tutor:expandingforce",
        "tutor:tripleaxel"
      ],
      "pokedex": [
        "cobblemon.form.mrmime-galar.desc1",
        "cobblemon.form.mrmime-galar.desc2"
      ],
      "height": 14,
      "weight": 568,
      "labels": ["gen1", "galar_regional", "regional"],
      "evolutions": [
        {
          "id": "mrmime_mrrime",
          "variant": "level_up",
          "result": "mrrime",
          "consumeHeldItem": false,
          "learnableMoves": [],
          "requirements": [
            {
              "variant": "level",
              "minLevel": 42
            }
          ]
        }
      ]
    }
  ],
  "baseExperienceYield": 161,
  "experienceGroup": "mediumfast",
  "eggCycles": 25,
  "eggGroups": ["human_like"],
  "moves": [
    "1:pound",
    "1:barrier",
    "1:batonpass",
    "1:encore",
    "1:copycat",
    "1:powerswap",
    "1:guardswap",
    "1:wideguard",
    "1:quickguard",
    "6:meditate",
    "10:doubleslap",
    "12:confusion",
    "16:roleplay",
    "20:psywave",
    "20:protect",
    "24:recycle",
    "28:psybeam",
    "32:mimic",
    "36:lightscreen",
    "36:reflect",
    "36:safeguard",
    "40:suckerpunch",
    "44:dazzlinggleam",
    "48:psychic",
    "52:teeterdance",
    "egg:confuseray",
    "egg:fakeout",
    "egg:hypnosis",
    "egg:powersplit",
    "egg:tickle",
    "egg:wakeupslap",
    "tm:aerialace",
    "tm:allyswitch",
    "tm:attract",
    "tm:batonpass",
    "tm:bide",
    "tm:bodyslam",
    "tm:brickbreak",
    "tm:calmmind",
    "tm:captivate",
    "tm:chargebeam",
    "tm:charm",
    "tm:confide",
    "tm:curse",
    "tm:dazzlinggleam",
    "tm:doubleteam",
    "tm:drainpunch",
    "tm:dreameater",
    "tm:dynamicpunch",
    "tm:encore",
    "tm:endure",
    "tm:energyball",
    "tm:facade",
    "tm:firepunch",
    "tm:flash",
    "tm:fling",
    "tm:focusblast",
    "tm:foulplay",
    "tm:frustration",
    "tm:futuresight",
    "tm:gigaimpact",
    "tm:grassknot",
    "tm:guardswap",
    "tm:headbutt",
    "tm:helpinghand",
    "tm:hiddenpower",
    "tm:hyperbeam",
    "tm:icepunch",
    "tm:icywind",
    "tm:infestation",
    "tm:irondefense",
    "tm:lightscreen",
    "tm:magicalleaf",
    "tm:magicroom",
    "tm:megakick",
    "tm:megapunch",
    "tm:metronome",
    "tm:mistyterrain",
    "tm:mysticalfire",
    "tm:nastyplot",
    "tm:naturalgift",
    "tm:payback",
    "tm:powerswap",
    "tm:poweruppunch",
    "tm:protect",
    "tm:psychic",
    "tm:psychicterrain",
    "tm:psychup",
    "tm:psyshock",
    "tm:rage",
    "tm:raindance",
    "tm:reflect",
    "tm:rest",
    "tm:return",
    "tm:round",
    "tm:safeguard",
    "tm:secretpower",
    "tm:seismictoss",
    "tm:shadowball",
    "tm:skillswap",
    "tm:skullbash",
    "tm:sleeptalk",
    "tm:snore",
    "tm:solarbeam",
    "tm:storedpower",
    "tm:submission",
    "tm:substitute",
    "tm:sunnyday",
    "tm:swagger",
    "tm:takedown",
    "tm:taunt",
    "tm:teleport",
    "tm:thief",
    "tm:thunder",
    "tm:thunderbolt",
    "tm:thunderpunch",
    "tm:thunderwave",
    "tm:torment",
    "tm:toxic",
    "tm:trick",
    "tm:trickroom",
    "tm:uproar",
    "tm:wonderroom",
    "tm:zapcannon",
    "tm:zenheadbutt",
    "tutor:counter",
    "tutor:covet",
    "tutor:doubleedge",
    "tutor:expandingforce",
    "tutor:focuspunch",
    "tutor:magiccoat",
    "tutor:mudslap",
    "tutor:nightmare",
    "tutor:shockwave",
    "tutor:signalbeam",
    "tutor:snatch",
    "tutor:telekinesis"
  ],
  "labels": ["gen1", "kanto_regional", "regional"],
  "pokedex": ["cobblemon.species.mrmime.desc1", "cobblemon.species.mrmime.desc2"],
  "preEvolution": "mimejr",
  "baseScale": 0.7,
  "hitbox": {
    "width": 0.8,
    "height": 1.8,
    "fixed": false
  },
  "baseFriendship": 50,
  "evYield": {
    "special_defence": 2
  },
  "height": 13,
  "weight": 545
}
