{
    "implemented": true,
    "name": "nidoqueen",
    "nationalPokedexNumber": 31,
    "primaryType": "poison",
    "secondaryType": "ground",
    "abilities": [
        "poisonpoint",
        "rivalry",
        "h:sheerforce"
    ],
    "baseStats": {
        "hp": 90,
        "attack": 92,
        "defence": 87,
        "special_attack": 75,
        "special_defence": 85,
        "speed": 76
    },
    "catchRate": 45,
    "maleRatio": 0.0,
    "shoulderMountable": false,
    "forms": [],
    "baseExperienceYield": 253,
    "experienceGroup": "mediumslow",
    "eggCycles": 20,
    "eggGroups": [
        "undiscovered"
    ],
    "moves": [
        "0:superpower",
        "1:scratch",
        "1:doublekick",
        "1:tackle",
        "1:tailwhip",
        "1:poisonsting",
        "1:bite",
        "1:growl",
        "1:supersonic",
        "1:counter",
        "1:toxic",
        "1:furyswipes",
        "1:crunch",
        "1:flatter",
        "1:helpinghand",
        "1:superpower",
        "1:toxicspikes",
        "1:earthpower",
        "23:chipaway",
        "tm:aerialace",
        "tm:attract",
        "tm:avalanche",
        "tm:beatup",
        "tm:bide",
        "tm:blizzard",
        "tm:bodypress",
        "tm:bodyslam",
        "tm:brickbreak",
        "tm:bubblebeam",
        "tm:bulldoze",
        "tm:captivate",
        "tm:charm",
        "tm:confide",
        "tm:crunch",
        "tm:curse",
        "tm:cut",
        "tm:detect",
        "tm:dig",
        "tm:doubleteam",
        "tm:dragonpulse",
        "tm:dragontail",
        "tm:drillrun",
        "tm:earthpower",
        "tm:earthquake",
        "tm:echoedvoice",
        "tm:endure",
        "tm:facade",
        "tm:fireblast",
        "tm:firepunch",
        "tm:fissure",
        "tm:flamethrower",
        "tm:fling",
        "tm:focusblast",
        "tm:focusenergy",
        "tm:frustration",
        "tm:gigaimpact",
        "tm:headbutt",
        "tm:helpinghand",
        "tm:hex",
        "tm:hiddenpower",
        "tm:highhorsepower",
        "tm:honeclaws",
        "tm:horndrill",
        "tm:hyperbeam",
        "tm:icebeam",
        "tm:icepunch",
        "tm:icywind",
        "tm:incinerate",
        "tm:irontail",
        "tm:megakick",
        "tm:megapunch",
        "tm:mudshot",
        "tm:naturalgift",
        "tm:outrage",
        "tm:payday",
        "tm:poisonjab",
        "tm:poweruppunch",
        "tm:protect",
        "tm:quash",
        "tm:rage",
        "tm:raindance",
        "tm:reflect",
        "tm:rest",
        "tm:return",
        "tm:roar",
        "tm:rockblast",
        "tm:rockclimb",
        "tm:rockslide",
        "tm:rocksmash",
        "tm:rocktomb",
        "tm:round",
        "tm:sandstorm",
        "tm:sandtomb",
        "tm:secretpower",
        "tm:seismictoss",
        "tm:shadowball",
        "tm:shadowclaw",
        "tm:skullbash",
        "tm:sleeptalk",
        "tm:sludgebomb",
        "tm:sludgewave",
        "tm:smackdown",
        "tm:snore",
        "tm:stealthrock",
        "tm:stompingtantrum",
        "tm:stoneedge",
        "tm:strength",
        "tm:submission",
        "tm:substitute",
        "tm:sunnyday",
        "tm:superpower",
        "tm:surf",
        "tm:swagger",
        "tm:takedown",
        "tm:taunt",
        "tm:thief",
        "tm:throatchop",
        "tm:thunder",
        "tm:thunderbolt",
        "tm:thunderpunch",
        "tm:torment",
        "tm:toxicspikes",
        "tm:uproar",
        "tm:venomdrench",
        "tm:venoshock",
        "tm:watergun",
        "tm:whirlpool",
        "tutor:aquatail",
        "tutor:defensecurl",
        "tutor:doubleedge",
        "tutor:dynamicpunch",
        "tutor:focuspunch",
        "tutor:furycutter",
        "tutor:mimic",
        "tutor:mudslap",
        "tutor:scorchingsands",
        "tutor:shockwave",
        "tutor:superfang",
        "tutor:waterpulse"
    ],
    "labels": [
        "gen1"
    ],
    "pokedex": [
        "cobblemon.species.nidoqueen.desc1",
        "cobblemon.species.nidoqueen.desc2"
    ],
    "preEvolution": "nidorina",
    "evolutions": [],
    "baseScale": 1.2,
    "hitbox": {
        "width": 1.2,
        "height": 1.6,
        "fixed": false
    },
    "baseFriendship": 50,
    "evYield": {
        "hp": 3
    },
    "height": 13,
    "weight": 600
}