{
    "implemented": true,
    "name": "omanyte",
    "nationalPokedexNumber": 138,
    "primaryType": "rock",
    "secondaryType": "water",
    "abilities": [
        "swiftswim",
        "shellarmor",
        "h:weakarmor"
    ],
    "baseStats": {
        "hp": 35,
        "attack": 40,
        "defence": 100,
        "special_attack": 90,
        "special_defence": 55,
        "speed": 35
    },
    "catchRate": 45,
    "maleRatio": 0.875,
    "shoulderMountable": false,
    "forms": [],
    "baseExperienceYield": 71,
    "experienceGroup": "mediumfast",
    "eggCycles": 30,
    "eggGroups": [
        "water_1",
        "water_3"
    ],
    "behaviour": {
        "moving": {
            "swim": {
                "canSwimInWater": true,
                "canBreatheUnderwater": true
            }
        }
    },
    "moves": [
        "1:bind",
        "1:withdraw",
        "1:constrict",
        "5:rollout",
        "10:sandattack",
        "15:watergun",
        "20:leer",
        "25:mudshot",
        "26:rockthrow",
        "30:ancientpower",
        "34:hornattack",
        "35:brine",
        "41:protect",
        "45:rockblast",
        "46:spikecannon",
        "50:surf",
        "55:shellsmash",
        "60:hydropump",
        "egg:aurorabeam",
        "egg:bide",
        "egg:bite",
        "egg:bubblebeam",
        "egg:haze",
        "egg:knockoff",
        "egg:reflecttype",
        "egg:slam",
        "egg:supersonic",
        "egg:tickle",
        "egg:waterpulse",
        "egg:wringout",
        "tm:attract",
        "tm:blizzard",
        "tm:bodyslam",
        "tm:brine",
        "tm:captivate",
        "tm:confide",
        "tm:curse",
        "tm:dive",
        "tm:doubleteam",
        "tm:earthpower",
        "tm:endure",
        "tm:facade",
        "tm:frustration",
        "tm:gyroball",
        "tm:hail",
        "tm:headbutt",
        "tm:hiddenpower",
        "tm:hydropump",
        "tm:icebeam",
        "tm:icywind",
        "tm:irondefense",
        "tm:muddywater",
        "tm:mudshot",
        "tm:naturalgift",
        "tm:protect",
        "tm:rage",
        "tm:raindance",
        "tm:reflect",
        "tm:rest",
        "tm:return",
        "tm:rockblast",
        "tm:rockpolish",
        "tm:rockslide",
        "tm:rocksmash",
        "tm:rocktomb",
        "tm:round",
        "tm:sandstorm",
        "tm:scald",
        "tm:secretpower",
        "tm:sleeptalk",
        "tm:smackdown",
        "tm:snore",
        "tm:spikes",
        "tm:stealthrock",
        "tm:substitute",
        "tm:surf",
        "tm:swagger",
        "tm:takedown",
        "tm:thief",
        "tm:toxic",
        "tm:toxicspikes",
        "tm:waterfall",
        "tm:whirlpool",
        "tutor:doubleedge",
        "tutor:meteorbeam",
        "tutor:mimic"
    ],
    "labels": [
        "gen1"
    ],
    "pokedex": [
        "cobblemon.species.omanyte.desc1",
        "cobblemon.species.omanyte.desc2"
    ],
    "evolutions": [
        {
            "id": "omanyte_omastar",
            "variant": "level_up",
            "result": "omastar",
            "consumeHeldItem": false,
            "learnableMoves": [],
            "requirements": [
                {
                    "variant": "level",
                    "minLevel": 40
                }
            ]
        }
    ],
    "baseScale": 1.1,
    "hitbox": {
        "width": 0.5,
        "height": 0.5,
        "fixed": false
    },
    "baseFriendship": 50,
    "evYield": {
        "defence": 1
    },
    "height": 4,
    "weight": 75
}