{
    "implemented": true,
    "name": "parasect",
    "nationalPokedexNumber": 47,
    "primaryType": "bug",
    "secondaryType": "grass",
    "abilities": [
        "effectspore",
        "dryskin",
        "h:damp"
    ],
    "baseStats": {
        "hp": 60,
        "attack": 95,
        "defence": 80,
        "special_attack": 60,
        "special_defence": 80,
        "speed": 30
    },
    "catchRate": 75,
    "maleRatio": 0.5,
    "shoulderMountable": false,
    "forms": [],
    "baseExperienceYield": 142,
    "experienceGroup": "mediumfast",
    "eggCycles": 20,
    "eggGroups": [
        "bug",
        "grass"
    ],
    "drops": {
        "amount": "1",
        "entries": [
            {
                "item": "minecraft:red_mushroom"
            }
        ]
    },
    "moves": [
        "1:scratch",
        "1:leechseed",
        "1:poisonpowder",
        "1:stunspore",
        "1:sleeppowder",
        "1:screech",
        "1:crosspoison",
        "2:sleeppowder",
        "4:stunspore",
        "6:poisonpowder",
        "9:absorb",
        "12:growth",
        "15:furyswipes",
        "17:furycutter",
        "19:slash",
        "23:leechlife",
        "33:spore",
        "43:xscissor",
        "44:gigadrain",
        "51:aromatherapy",
        "59:ragepowder",
        "tm:aerialace",
        "tm:attract",
        "tm:bide",
        "tm:brickbreak",
        "tm:bulletseed",
        "tm:captivate",
        "tm:confide",
        "tm:curse",
        "tm:cut",
        "tm:dig",
        "tm:doubleteam",
        "tm:endure",
        "tm:energyball",
        "tm:facade",
        "tm:falseswipe",
        "tm:flash",
        "tm:frustration",
        "tm:gigaimpact",
        "tm:grassknot",
        "tm:headbutt",
        "tm:hiddenpower",
        "tm:honeclaws",
        "tm:hyperbeam",
        "tm:lightscreen",
        "tm:megadrain",
        "tm:naturalgift",
        "tm:naturepower",
        "tm:protect",
        "tm:rage",
        "tm:reflect",
        "tm:rest",
        "tm:return",
        "tm:rocksmash",
        "tm:round",
        "tm:secretpower",
        "tm:skullbash",
        "tm:sleeptalk",
        "tm:sludgebomb",
        "tm:solarbeam",
        "tm:strugglebug",
        "tm:substitute",
        "tm:sunnyday",
        "tm:swagger",
        "tm:sweetscent",
        "tm:swordsdance",
        "tm:takedown",
        "tm:thief",
        "tm:toxic",
        "tm:venoshock",
        "tm:xscissor",
        "tutor:afteryou",
        "tutor:bodyslam",
        "tutor:bugbite",
        "tutor:counter",
        "tutor:doubleedge",
        "tutor:gigadrain",
        "tutor:knockoff",
        "tutor:mimic",
        "tutor:seedbomb",
        "tutor:snore",
        "tutor:stringshot",
        "tutor:synthesis",
        "tutor:throatchop",
        "tutor:worryseed"
    ],
    "labels": [
        "gen1"
    ],
    "pokedex": [
        "cobblemon.species.parasect.desc1",
        "cobblemon.species.parasect.desc2"
    ],
    "preEvolution": "paras",
    "evolutions": [],
    "baseScale": 0.8,
    "hitbox": {
        "width": 1.2,
        "height": 1.3,
        "fixed": false
    },
    "baseFriendship": 70,
    "evYield": {
        "attack": 2,
        "defence": 1
    },
    "height": 10,
    "weight": 295
}