{
  "implemented": true,
  "name": "persian",
  "nationalPokedexNumber": 53,
  "primaryType": "normal",
  "abilities": ["limber", "technician", "h:unnerve"],
  "baseStats": {
    "hp": 65,
    "attack": 70,
    "defence": 60,
    "special_attack": 65,
    "special_defence": 65,
    "speed": 115
  },
  "catchRate": 90,
  "maleRatio": 0.5,
  "shoulderMountable": false,
  "forms": [
    {
      "name": "normal"
    },
    {
      "name": "alola",
      "primaryType": "dark",
      "abilities": ["furcoat", "technician", "h:rattled"],
      "baseStats": {
        "hp": 65,
        "attack": 60,
        "defence": 60,
        "special_attack": 75,
        "special_defence": 65,
        "speed": 115
      },
      "moves": [
        "0:powergem",
        "1:scratch",
        "1:growl",
        "1:hypnosis",
        "1:fakeout",
        "1:feint",
        "1:powergem",
        "1:switcheroo",
        "1:quash",
        "12:payday",
        "16:bite",
        "20:taunt",
        "22:feintattack",
        "24:assurance",
        "27:slash",
        "31:furyswipes",
        "36:screech",
        "42:nightslash",
        "48:nastyplot",
        "54:playrough",
        "56:captivate",
        "tm:aerialace",
        "tm:amnesia",
        "tm:assurance",
        "tm:attract",
        "tm:beatup",
        "tm:bodyslam",
        "tm:charm",
        "tm:confide",
        "tm:darkpulse",
        "tm:dig",
        "tm:doubleteam",
        "tm:dreameater",
        "tm:echoedvoice",
        "tm:embargo",
        "tm:endure",
        "tm:facade",
        "tm:faketears",
        "tm:foulplay",
        "tm:frustration",
        "tm:gigaimpact",
        "tm:gunkshot",
        "tm:headbutt",
        "tm:hiddenpower",
        "tm:hyperbeam",
        "tm:hypervoice",
        "tm:icywind",
        "tm:irontail",
        "tm:nastyplot",
        "tm:payback",
        "tm:payday",
        "tm:playrough",
        "tm:powergem",
        "tm:protect",
        "tm:psychup",
        "tm:raindance",
        "tm:rest",
        "tm:retaliate",
        "tm:return",
        "tm:roar",
        "tm:round",
        "tm:screech",
        "tm:seedbomb",
        "tm:shadowball",
        "tm:shadowclaw",
        "tm:sleeptalk",
        "tm:snarl",
        "tm:snore",
        "tm:substitute",
        "tm:sunnyday",
        "tm:swagger",
        "tm:swift",
        "tm:taunt",
        "tm:thief",
        "tm:throatchop",
        "tm:thunder",
        "tm:thunderbolt",
        "tm:torment",
        "tm:toxic",
        "tm:uproar",
        "tm:uturn",
        "tm:workup",
        "tutor:burningjealousy",
        "tutor:covet",
        "tutor:knockoff",
        "tutor:lashout",
        "tutor:lastresort",
        "tutor:shockwave",
        "tutor:skittersmack",
        "tutor:snatch",
        "tutor:spite",
        "tutor:waterpulse"
      ],
      "pokedex": [
        "cobblemon.form.persian-alola.desc1",
        "cobblemon.form.persian-alola.desc2"
      ],
      "height": 11,
      "weight": 330,
      "labels": ["gen1", "alola_regional", "regional"],
      "preEvolution": "meowth form=alola"
    }
  ],
  "baseExperienceYield": 154,
  "experienceGroup": "mediumfast",
  "eggCycles": 20,
  "eggGroups": ["field"],
  "drops": {
    "amount": "1",
    "entries": [
      {
        "item": "minecraft:gold_ingot",
        "percentage": 25
      }
    ]
  },
  "moves": [
    "0:powergem",
    "1:scratch",
    "1:growl",
    "1:hypnosis",
    "1:fakeout",
    "1:feint",
    "1:powergem",
    "1:switcheroo",
    "12:payday",
    "16:bite",
    "20:taunt",
    "22:feintattack",
    "24:assurance",
    "31:furyswipes",
    "36:screech",
    "42:slash",
    "48:nastyplot",
    "54:playrough",
    "56:captivate",
    "61:nightslash",
    "tm:aerialace",
    "tm:amnesia",
    "tm:assurance",
    "tm:attract",
    "tm:bide",
    "tm:bodyslam",
    "tm:bubblebeam",
    "tm:charm",
    "tm:confide",
    "tm:curse",
    "tm:cut",
    "tm:darkpulse",
    "tm:detect",
    "tm:dig",
    "tm:doubleteam",
    "tm:dreameater",
    "tm:echoedvoice",
    "tm:embargo",
    "tm:endure",
    "tm:facade",
    "tm:flash",
    "tm:foulplay",
    "tm:frustration",
    "tm:gigaimpact",
    "tm:gunkshot",
    "tm:headbutt",
    "tm:hiddenpower",
    "tm:honeclaws",
    "tm:hyperbeam",
    "tm:hypervoice",
    "tm:icywind",
    "tm:irontail",
    "tm:nastyplot",
    "tm:naturalgift",
    "tm:payback",
    "tm:payday",
    "tm:playrough",
    "tm:powergem",
    "tm:protect",
    "tm:psychup",
    "tm:rage",
    "tm:raindance",
    "tm:rest",
    "tm:retaliate",
    "tm:return",
    "tm:roar",
    "tm:round",
    "tm:screech",
    "tm:secretpower",
    "tm:seedbomb",
    "tm:shadowball",
    "tm:shadowclaw",
    "tm:skullbash",
    "tm:sleeptalk",
    "tm:snore",
    "tm:substitute",
    "tm:sunnyday",
    "tm:swagger",
    "tm:swift",
    "tm:takedown",
    "tm:taunt",
    "tm:thief",
    "tm:throatchop",
    "tm:thunder",
    "tm:thunderbolt",
    "tm:torment",
    "tm:toxic",
    "tm:uproar",
    "tm:uturn",
    "tm:watergun",
    "tm:workup",
    "tm:zapcannon",
    "tutor:covet",
    "tutor:defensecurl",
    "tutor:doubleedge",
    "tutor:knockoff",
    "tutor:lashout",
    "tutor:lastresort",
    "tutor:mimic",
    "tutor:mudslap",
    "tutor:nightmare",
    "tutor:shockwave",
    "tutor:skittersmack",
    "tutor:snatch",
    "tutor:spite",
    "tutor:waterpulse"
  ],
  "labels": ["gen1", "kanto_regional", "regional"],
  "pokedex": ["cobblemon.species.persian.desc1", "cobblemon.species.persian.desc2"],
  "preEvolution": "meowth",
  "evolutions": [],
  "baseScale": 0.8,
  "hitbox": {
    "width": 1.0,
    "height": 1.2,
    "fixed": false
  },
  "baseFriendship": 50,
  "evYield": {
    "speed": 2
  },
  "height": 10,
  "weight": 320
}
