{
  "implemented": true,
  "name": "raticate",
  "nationalPokedexNumber": 20,
  "primaryType": "normal",
  "abilities": ["runaway", "guts", "h:hustle"],
  "baseStats": {
    "hp": 55,
    "attack": 81,
    "defence": 60,
    "special_attack": 50,
    "special_defence": 70,
    "speed": 97
  },
  "features": ["alolan"],
  "catchRate": 127,
  "maleRatio": 0.5,
  "shoulderMountable": false,
  "forms": [
    {
      "name": "normal"
    },
    {
      "name": "alolan",
      "aspects": ["alolan"],
      "primaryType": "dark",
      "secondaryType": "normal",
      "abilities": ["gluttony", "hustle", "h:thickfat"],
      "baseStats": {
        "hp": 75,
        "attack": 71,
        "defence": 70,
        "special_attack": 40,
        "special_defence": 80,
        "speed": 77
      },
      "moves": [
        "0:scaryface",
        "1:swordsdance",
        "1:tackle",
        "1:tailwhip",
        "1:counter",
        "1:quickattack",
        "1:focusenergy",
        "1:furyswipes",
        "1:scaryface",
        "3:tailwhip",
        "6:quickattack",
        "9:focusenergy",
        "12:bite",
        "13:pursuit",
        "15:superfang",
        "18:crunch",
        "19:assurance",
        "26:hyperfang",
        "34:suckerpunch",
        "42:doubleedge",
        "44:endeavor",
        "tm:attract",
        "tm:blizzard",
        "tm:bulkup",
        "tm:confide",
        "tm:darkpulse",
        "tm:dig",
        "tm:doubleteam",
        "tm:embargo",
        "tm:facade",
        "tm:frustration",
        "tm:gigaimpact",
        "tm:grassknot",
        "tm:headbutt",
        "tm:hiddenpower",
        "tm:hyperbeam",
        "tm:icebeam",
        "tm:irontail",
        "tm:protect",
        "tm:quash",
        "tm:raindance",
        "tm:rest",
        "tm:return",
        "tm:roar",
        "tm:round",
        "tm:shadowball",
        "tm:shadowclaw",
        "tm:sleeptalk",
        "tm:sludgebomb",
        "tm:sludgewave",
        "tm:snarl",
        "tm:substitute",
        "tm:sunnyday",
        "tm:swagger",
        "tm:taunt",
        "tm:thief",
        "tm:torment",
        "tm:toxic",
        "tm:uturn",
        "tm:venoshock",
        "tutor:covet",
        "tutor:endeavor",
        "tutor:icywind",
        "tutor:knockoff",
        "tutor:lastresort",
        "tutor:shockwave",
        "tutor:snatch",
        "tutor:snore",
        "tutor:stompingtantrum",
        "tutor:throatchop",
        "tutor:uproar",
        "tutor:zenheadbutt"
      ],
      "pokedex": [
        "cobblemon.form.raticate-alola.desc1",
        "cobblemon.form.raticate-alola.desc2"
      ],
      "weight": 255,
      "preEvolution": "rattata form=alola",
      "labels": ["gen1", "alola_regional", "regional"]
    },
    {
      "name": "totem-alola",
      "primaryType": "dark",
      "secondaryType": "normal",
      "abilities": ["gluttony", "hustle", "h:thickfat"],
      "baseStats": {
        "hp": 75,
        "attack": 71,
        "defence": 70,
        "special_attack": 40,
        "special_defence": 80,
        "speed": 77
      },
      "moves": [
        "0:scaryface",
        "1:swordsdance",
        "1:tackle",
        "1:tailwhip",
        "1:quickattack",
        "1:focusenergy",
        "1:scaryface",
        "4:quickattack",
        "7:focusenergy",
        "10:bite",
        "13:pursuit",
        "16:hyperfang",
        "19:assurance",
        "24:crunch",
        "29:suckerpunch",
        "34:superfang",
        "39:doubleedge",
        "44:endeavor",
        "tm:attract",
        "tm:blizzard",
        "tm:bulkup",
        "tm:confide",
        "tm:darkpulse",
        "tm:doubleteam",
        "tm:embargo",
        "tm:facade",
        "tm:frustration",
        "tm:gigaimpact",
        "tm:grassknot",
        "tm:hiddenpower",
        "tm:hyperbeam",
        "tm:icebeam",
        "tm:protect",
        "tm:quash",
        "tm:raindance",
        "tm:rest",
        "tm:return",
        "tm:roar",
        "tm:round",
        "tm:shadowball",
        "tm:shadowclaw",
        "tm:sleeptalk",
        "tm:sludgebomb",
        "tm:sludgewave",
        "tm:snarl",
        "tm:substitute",
        "tm:sunnyday",
        "tm:swagger",
        "tm:swordsdance",
        "tm:taunt",
        "tm:thief",
        "tm:torment",
        "tm:toxic",
        "tm:uturn",
        "tm:venoshock",
        "tutor:covet",
        "tutor:endeavor",
        "tutor:icywind",
        "tutor:irontail",
        "tutor:knockoff",
        "tutor:lastresort",
        "tutor:shockwave",
        "tutor:snatch",
        "tutor:snore",
        "tutor:stompingtantrum",
        "tutor:superfang",
        "tutor:throatchop",
        "tutor:uproar",
        "tutor:zenheadbutt"
      ],
      "pokedex": [
        "cobblemon.form.raticate-totem-alola.desc1",
        "cobblemon.form.raticate-totem-alola.desc2"
      ],
      "height": 14,
      "weight": 1050
    }
  ],
  "baseExperienceYield": 145,
  "experienceGroup": "mediumfast",
  "eggCycles": 15,
  "eggGroups": ["field"],
  "moves": [
    "0:scaryface",
    "1:swordsdance",
    "1:tackle",
    "1:tailwhip",
    "1:counter",
    "1:quickattack",
    "1:focusenergy",
    "1:furyswipes",
    "1:scaryface",
    "3:tailwhip",
    "6:quickattack",
    "9:focusenergy",
    "12:bite",
    "13:pursuit",
    "15:superfang",
    "18:crunch",
    "19:assurance",
    "26:hyperfang",
    "34:suckerpunch",
    "42:doubleedge",
    "44:endeavor",
    "tm:attract",
    "tm:bide",
    "tm:blizzard",
    "tm:bubblebeam",
    "tm:captivate",
    "tm:chargebeam",
    "tm:confide",
    "tm:curse",
    "tm:cut",
    "tm:dig",
    "tm:doubleteam",
    "tm:endure",
    "tm:facade",
    "tm:frustration",
    "tm:gigaimpact",
    "tm:grassknot",
    "tm:headbutt",
    "tm:hiddenpower",
    "tm:hyperbeam",
    "tm:icebeam",
    "tm:irontail",
    "tm:naturalgift",
    "tm:pluck",
    "tm:protect",
    "tm:rage",
    "tm:raindance",
    "tm:rest",
    "tm:retaliate",
    "tm:return",
    "tm:roar",
    "tm:rocksmash",
    "tm:round",
    "tm:secretpower",
    "tm:shadowball",
    "tm:skullbash",
    "tm:sleeptalk",
    "tm:strength",
    "tm:substitute",
    "tm:sunnyday",
    "tm:swagger",
    "tm:takedown",
    "tm:taunt",
    "tm:thief",
    "tm:thunder",
    "tm:thunderbolt",
    "tm:thunderwave",
    "tm:toxic",
    "tm:uturn",
    "tm:watergun",
    "tm:wildcharge",
    "tm:workup",
    "tutor:bodyslam",
    "tutor:covet",
    "tutor:defensecurl",
    "tutor:endeavor",
    "tutor:icywind",
    "tutor:lastresort",
    "tutor:mimic",
    "tutor:mudslap",
    "tutor:shockwave",
    "tutor:snore",
    "tutor:stompingtantrum",
    "tutor:swift",
    "tutor:throatchop",
    "tutor:uproar",
    "tutor:zenheadbutt"
  ],
  "labels": ["gen1", "kanto_regional", "regional"],
  "pokedex": [
    "cobblemon.species.raticate.desc1",
    "cobblemon.species.raticate.desc2"
  ],
  "preEvolution": "rattata",
  "evolutions": [],
  "baseScale": 0.8,
  "hitbox": {
    "width": 0.7,
    "height": 1.1,
    "fixed": false
  },
  "baseFriendship": 70,
  "evYield": {
    "speed": 2
  },
  "height": 7,
  "weight": 185
}
