{
  "implemented": true,
  "name": "rattata",
  "nationalPokedexNumber": 19,
  "primaryType": "normal",
  "abilities": ["runaway", "guts", "h:hustle"],
  "baseStats": {
    "hp": 30,
    "attack": 56,
    "defence": 35,
    "special_attack": 25,
    "special_defence": 35,
    "speed": 72
  },
  "features": ["alolan"],
  "catchRate": 255,
  "maleRatio": 0.5,
  "shoulderMountable": false,
  "forms": [
    {
      "name": "normal"
    },
    {
      "name": "alolan",
      "aspects": ["alolan"],
      "primaryType": "dark",
      "secondaryType": "normal",
      "abilities": ["gluttony", "hustle", "h:thickfat"],
      "moves": [
        "1:tackle",
        "3:tailwhip",
        "6:quickattack",
        "9:focusenergy",
        "12:bite",
        "13:pursuit",
        "15:superfang",
        "18:crunch",
        "19:assurance",
        "21:hyperfang",
        "24:suckerpunch",
        "27:doubleedge",
        "34:endeavor",
        "egg:counter",
        "egg:finalgambit",
        "egg:furyswipes",
        "egg:mefirst",
        "egg:revenge",
        "egg:reversal",
        "egg:snatch",
        "egg:stockpile",
        "egg:swallow",
        "egg:switcheroo",
        "egg:uproar",
        "tm:attract",
        "tm:blizzard",
        "tm:confide",
        "tm:darkpulse",
        "tm:dig",
        "tm:doubleteam",
        "tm:embargo",
        "tm:facade",
        "tm:frustration",
        "tm:grassknot",
        "tm:headbutt",
        "tm:hiddenpower",
        "tm:icebeam",
        "tm:irontail",
        "tm:protect",
        "tm:quash",
        "tm:raindance",
        "tm:rest",
        "tm:return",
        "tm:round",
        "tm:shadowball",
        "tm:shadowclaw",
        "tm:sleeptalk",
        "tm:sludgebomb",
        "tm:snarl",
        "tm:substitute",
        "tm:sunnyday",
        "tm:swagger",
        "tm:taunt",
        "tm:thief",
        "tm:torment",
        "tm:toxic",
        "tm:uturn",
        "tutor:covet",
        "tutor:endeavor",
        "tutor:icywind",
        "tutor:lastresort",
        "tutor:shockwave",
        "tutor:snatch",
        "tutor:snore",
        "tutor:uproar",
        "tutor:zenheadbutt"
      ],
      "pokedex": [
        "cobblemon.form.rattata-alola.desc1",
        "cobblemon.form.rattata-alola.desc2"
      ],
      "weight": 38,
      "evolutions": [
        {
          "id": "rattata_raticate_alola",
          "variant": "level_up",
          "result": "raticate form=alola",
          "consumeHeldItem": false,
          "learnableMoves": [],
          "requirements": [
            {
              "variant": "time_range",
              "range": "night"
            },
            {
              "variant": "level",
              "minLevel": 20
            }
          ]
        }
      ],
      "labels": ["gen1", "alola_regional", "regional"]
    }
  ],
  "baseExperienceYield": 51,
  "experienceGroup": "mediumfast",
  "eggCycles": 15,
  "eggGroups": ["field"],
  "moves": [
    "1:tackle",
    "3:tailwhip",
    "6:quickattack",
    "9:focusenergy",
    "12:bite",
    "13:pursuit",
    "15:superfang",
    "18:crunch",
    "19:assurance",
    "21:hyperfang",
    "24:suckerpunch",
    "27:doubleedge",
    "34:endeavor",
    "egg:counter",
    "egg:finalgambit",
    "egg:flamewheel",
    "egg:furyswipes",
    "egg:lastresort",
    "egg:mefirst",
    "egg:revenge",
    "egg:reversal",
    "egg:screech",
    "egg:uproar",
    "tm:attract",
    "tm:bide",
    "tm:blizzard",
    "tm:bubblebeam",
    "tm:captivate",
    "tm:chargebeam",
    "tm:confide",
    "tm:curse",
    "tm:cut",
    "tm:dig",
    "tm:doubleteam",
    "tm:endure",
    "tm:facade",
    "tm:frustration",
    "tm:grassknot",
    "tm:headbutt",
    "tm:hiddenpower",
    "tm:icebeam",
    "tm:irontail",
    "tm:naturalgift",
    "tm:pluck",
    "tm:protect",
    "tm:rage",
    "tm:raindance",
    "tm:rest",
    "tm:retaliate",
    "tm:return",
    "tm:rocksmash",
    "tm:round",
    "tm:secretpower",
    "tm:shadowball",
    "tm:skullbash",
    "tm:sleeptalk",
    "tm:substitute",
    "tm:sunnyday",
    "tm:swagger",
    "tm:takedown",
    "tm:taunt",
    "tm:thief",
    "tm:thunder",
    "tm:thunderbolt",
    "tm:thunderwave",
    "tm:toxic",
    "tm:uturn",
    "tm:watergun",
    "tm:wildcharge",
    "tm:workup",
    "tutor:bodyslam",
    "tutor:covet",
    "tutor:defensecurl",
    "tutor:endeavor",
    "tutor:icywind",
    "tutor:lastresort",
    "tutor:mimic",
    "tutor:mudslap",
    "tutor:shockwave",
    "tutor:snore",
    "tutor:swift",
    "tutor:uproar",
    "tutor:zenheadbutt"
  ],
  "labels": ["gen1", "kanto_regional", "regional"],
  "pokedex": ["cobblemon.species.rattata.desc1", "cobblemon.species.rattata.desc2"],
  "evolutions": [
    {
      "id": "rattata_raticate",
      "variant": "level_up",
      "result": "raticate",
      "consumeHeldItem": false,
      "learnableMoves": [],
      "requirements": [
        {
          "variant": "level",
          "minLevel": 20
        }
      ]
    }
  ],
  "baseScale": 0.8,
  "hitbox": {
    "width": 0.6,
    "height": 0.5,
    "fixed": false
  },
  "baseFriendship": 70,
  "evYield": {
    "speed": 1
  },
  "height": 3,
  "weight": 35
}
