{
    "implemented": true,
    "name": "shellder",
    "nationalPokedexNumber": 90,
    "primaryType": "water",
    "abilities": [
        "shellarmor",
        "skilllink",
        "h:overcoat"
    ],
    "baseStats": {
        "hp": 30,
        "attack": 65,
        "defence": 100,
        "special_attack": 45,
        "special_defence": 25,
        "speed": 40
    },
    "catchRate": 190,
    "maleRatio": 0.5,
    "shoulderMountable": false,
    "forms": [],
    "baseExperienceYield": 61,
    "experienceGroup": "slow",
    "eggCycles": 20,
    "eggGroups": [
        "water_3"
    ],
    "behaviour": {
        "moving": {
            "swim": {
                "swimSpeed": 0.1,
                "canSwimInWater": false,
                "canBreatheUnderwater": true
            }
        }
    },
    "moves": [
        "1:tackle",
        "1:watergun",
        "4:withdraw",
        "8:iceshard",
        "12:leer",
        "16:whirlpool",
        "20:supersonic",
        "22:clamp",
        "24:aurorabeam",
        "28:protect",
        "32:razorshell",
        "36:irondefense",
        "40:icebeam",
        "44:shellsmash",
        "48:hydropump",
        "egg:aquaring",
        "egg:barrier",
        "egg:bubblebeam",
        "egg:lifedew",
        "egg:rapidspin",
        "egg:takedown",
        "egg:twineedle",
        "egg:waterpulse",
        "tm:attract",
        "tm:avalanche",
        "tm:bide",
        "tm:blizzard",
        "tm:brine",
        "tm:captivate",
        "tm:confide",
        "tm:curse",
        "tm:dive",
        "tm:doubleteam",
        "tm:endure",
        "tm:explosion",
        "tm:facade",
        "tm:frustration",
        "tm:hail",
        "tm:headbutt",
        "tm:hiddenpower",
        "tm:hydropump",
        "tm:icebeam",
        "tm:iciclespear",
        "tm:icywind",
        "tm:irondefense",
        "tm:liquidation",
        "tm:mudshot",
        "tm:naturalgift",
        "tm:payback",
        "tm:protect",
        "tm:rage",
        "tm:raindance",
        "tm:razorshell",
        "tm:reflect",
        "tm:rest",
        "tm:return",
        "tm:rockblast",
        "tm:round",
        "tm:screech",
        "tm:secretpower",
        "tm:selfdestruct",
        "tm:sleeptalk",
        "tm:snore",
        "tm:substitute",
        "tm:surf",
        "tm:swagger",
        "tm:swift",
        "tm:teleport",
        "tm:toxic",
        "tm:triattack",
        "tm:whirlpool",
        "tutor:doubleedge",
        "tutor:mimic"
    ],
    "labels": [
        "gen1"
    ],
    "pokedex": [
        "cobblemon.species.shellder.desc1",
        "cobblemon.species.shellder.desc2"
    ],
    "evolutions": [
        {
            "id": "shellder_cloyster",
            "variant": "item_interact",
            "result": "cloyster",
            "consumeHeldItem": false,
            "learnableMoves": [],
            "requirements": [],
            "requiredContext": "cobblemon:water_stone"
        }
    ],
    "baseScale": 0.8,
    "hitbox": {
        "width": 0.6,
        "height": 0.5,
        "fixed": false
    },
    "baseFriendship": 50,
    "evYield": {
        "defence": 1
    },
    "height": 3,
    "weight": 40
}