{
  "implemented": true,
  "name": "weezing",
  "nationalPokedexNumber": 110,
  "primaryType": "poison",
  "abilities": ["levitate", "neutralizinggas", "h:stench"],
  "baseStats": {
    "hp": 65,
    "attack": 90,
    "defence": 120,
    "special_attack": 85,
    "special_defence": 70,
    "speed": 60
  },
  "catchRate": 60,
  "maleRatio": 0.5,
  "shoulderMountable": false,
  "features": ["galarian"],
  "forms": [
    {
      "name": "normal"
    },
    {
      "name": "galar",
      "secondaryType": "fairy",
      "abilities": ["levitate", "neutralizinggas", "h:mistysurge"],
      "moves": [
        "0:doublehit",
        "1:tackle",
        "1:smokescreen",
        "1:haze",
        "1:smog",
        "1:poisongas",
        "1:heatwave",
        "1:defog",
        "1:doublehit",
        "1:fairywind",
        "1:aromaticmist",
        "1:strangesteam",
        "12:clearsmog",
        "16:assurance",
        "20:sludge",
        "24:aromatherapy",
        "28:selfdestruct",
        "32:sludgebomb",
        "38:toxic",
        "44:belch",
        "50:explosion",
        "56:memento",
        "62:destinybond",
        "68:mistyterrain",
        "tm:assurance",
        "tm:attract",
        "tm:brutalswing",
        "tm:darkpulse",
        "tm:dazzlinggleam",
        "tm:endure",
        "tm:facade",
        "tm:fireblast",
        "tm:flamethrower",
        "tm:gigaimpact",
        "tm:gyroball",
        "tm:heatwave",
        "tm:hyperbeam",
        "tm:mistyterrain",
        "tm:overheat",
        "tm:payback",
        "tm:playrough",
        "tm:protect",
        "tm:raindance",
        "tm:rest",
        "tm:round",
        "tm:screech",
        "tm:selfdestruct",
        "tm:shadowball",
        "tm:sleeptalk",
        "tm:sludgebomb",
        "tm:sludgewave",
        "tm:snore",
        "tm:substitute",
        "tm:sunnyday",
        "tm:taunt",
        "tm:thief",
        "tm:thunder",
        "tm:thunderbolt",
        "tm:toxicspikes",
        "tm:uproar",
        "tm:venomdrench",
        "tm:venoshock",
        "tm:willowisp",
        "tm:wonderroom",
        "tutor:corrosivegas",
        "tutor:mistyexplosion"
      ],
      "pokedex": [
        "cobblemon.form.weezing-galar.desc1",
        "cobblemon.form.weezing-galar.desc2"
      ],
      "height": 30,
      "weight": 160,
      "labels": ["gen1", "galar_regional", "regional"]
    }
  ],
  "baseExperienceYield": 172,
  "experienceGroup": "mediumfast",
  "eggCycles": 20,
  "eggGroups": ["amorphous"],
  "behaviour": {
    "moving": {
      "fly": {
        "canFly": true
      },
      "walk": {
        "canWalk": false
      }
    }
  },
  "moves": [
    "0:doublehit",
    "1:tackle",
    "1:psybeam",
    "1:smokescreen",
    "1:smog",
    "1:poisongas",
    "1:heatwave",
    "1:doublehit",
    "12:clearsmog",
    "16:assurance",
    "20:sludge",
    "24:haze",
    "28:selfdestruct",
    "32:sludgebomb",
    "38:toxic",
    "44:belch",
    "50:explosion",
    "56:memento",
    "62:destinybond",
    "tm:assurance",
    "tm:attract",
    "tm:bide",
    "tm:captivate",
    "tm:confide",
    "tm:curse",
    "tm:darkpulse",
    "tm:doubleteam",
    "tm:endure",
    "tm:facade",
    "tm:fireblast",
    "tm:flamethrower",
    "tm:flash",
    "tm:frustration",
    "tm:gigaimpact",
    "tm:gyroball",
    "tm:headbutt",
    "tm:heatwave",
    "tm:hiddenpower",
    "tm:hyperbeam",
    "tm:incinerate",
    "tm:infestation",
    "tm:naturalgift",
    "tm:payback",
    "tm:protect",
    "tm:rage",
    "tm:raindance",
    "tm:rest",
    "tm:return",
    "tm:round",
    "tm:screech",
    "tm:secretpower",
    "tm:selfdestruct",
    "tm:shadowball",
    "tm:sleeptalk",
    "tm:sludgebomb",
    "tm:sludgewave",
    "tm:snore",
    "tm:substitute",
    "tm:sunnyday",
    "tm:swagger",
    "tm:taunt",
    "tm:thief",
    "tm:thunder",
    "tm:thunderbolt",
    "tm:torment",
    "tm:toxicspikes",
    "tm:uproar",
    "tm:venomdrench",
    "tm:venoshock",
    "tm:willowisp",
    "tm:zapcannon",
    "tutor:corrosivegas",
    "tutor:mimic",
    "tutor:painsplit",
    "tutor:rollout",
    "tutor:shockwave",
    "tutor:spite"
  ],
  "labels": ["gen1", "kanto_regional", "regional"],
  "pokedex": ["cobblemon.species.weezing.desc1", "cobblemon.species.weezing.desc2"],
  "preEvolution": "koffing",
  "evolutions": [],
  "baseScale": 1.2,
  "hitbox": {
    "width": 1.12,
    "height": 1.2,
    "fixed": false
  },
  "baseFriendship": 50,
  "evYield": {
    "defence": 2
  },
  "height": 12,
  "weight": 95
}
