{
    "implemented": true,
    "name": "wigglytuff",
    "nationalPokedexNumber": 40,
    "primaryType": "normal",
    "secondaryType": "fairy",
    "abilities": [
        "cutecharm",
        "competitive",
        "h:frisk"
    ],
    "baseStats": {
        "hp": 140,
        "attack": 70,
        "defence": 45,
        "special_attack": 85,
        "special_defence": 50,
        "speed": 45
    },
    "catchRate": 50,
    "maleRatio": 0.25,
    "shoulderMountable": false,
    "forms": [],
    "baseExperienceYield": 218,
    "experienceGroup": "fast",
    "eggCycles": 10,
    "eggGroups": [
        "fairy"
    ],
    "moves": [
        "1:pound",
        "1:doubleslap",
        "1:bodyslam",
        "1:doubleedge",
        "1:sing",
        "1:disable",
        "1:mimic",
        "1:minimize",
        "1:defensecurl",
        "1:bide",
        "1:rest",
        "1:sweetkiss",
        "1:charm",
        "1:stockpile",
        "1:spitup",
        "1:swallow",
        "1:hypervoice",
        "1:covet",
        "1:gyroball",
        "1:copycat",
        "1:round",
        "1:echoedvoice",
        "1:disarmingvoice",
        "1:playrough",
        "tm:allyswitch",
        "tm:attract",
        "tm:batonpass",
        "tm:blizzard",
        "tm:bodyslam",
        "tm:bounce",
        "tm:brickbreak",
        "tm:bubblebeam",
        "tm:captivate",
        "tm:chargebeam",
        "tm:charm",
        "tm:confide",
        "tm:curse",
        "tm:dazzlinggleam",
        "tm:detect",
        "tm:dig",
        "tm:doubleteam",
        "tm:drainingkiss",
        "tm:drainpunch",
        "tm:dreameater",
        "tm:endure",
        "tm:facade",
        "tm:faketears",
        "tm:fireblast",
        "tm:firepunch",
        "tm:flamethrower",
        "tm:flash",
        "tm:fling",
        "tm:focusblast",
        "tm:frustration",
        "tm:gigaimpact",
        "tm:grassknot",
        "tm:gyroball",
        "tm:headbutt",
        "tm:helpinghand",
        "tm:hiddenpower",
        "tm:hyperbeam",
        "tm:hypervoice",
        "tm:icebeam",
        "tm:icepunch",
        "tm:icywind",
        "tm:incinerate",
        "tm:lightscreen",
        "tm:magicroom",
        "tm:megakick",
        "tm:megapunch",
        "tm:mistyterrain",
        "tm:naturalgift",
        "tm:playrough",
        "tm:poweruppunch",
        "tm:protect",
        "tm:psychic",
        "tm:psychup",
        "tm:psywave",
        "tm:rage",
        "tm:raindance",
        "tm:reflect",
        "tm:rest",
        "tm:retaliate",
        "tm:return",
        "tm:round",
        "tm:safeguard",
        "tm:screech",
        "tm:secretpower",
        "tm:seismictoss",
        "tm:selfdestruct",
        "tm:shadowball",
        "tm:skullbash",
        "tm:sleeptalk",
        "tm:snore",
        "tm:solarbeam",
        "tm:stealthrock",
        "tm:strength",
        "tm:submission",
        "tm:substitute",
        "tm:sunnyday",
        "tm:swagger",
        "tm:takedown",
        "tm:teleport",
        "tm:thunder",
        "tm:thunderbolt",
        "tm:thunderpunch",
        "tm:thunderwave",
        "tm:toxic",
        "tm:triattack",
        "tm:uproar",
        "tm:watergun",
        "tm:wildcharge",
        "tm:workup",
        "tm:zapcannon",
        "tutor:counter",
        "tutor:dynamicpunch",
        "tutor:endeavor",
        "tutor:expandingforce",
        "tutor:focuspunch",
        "tutor:gravity",
        "tutor:healbell",
        "tutor:knockoff",
        "tutor:laserfocus",
        "tutor:lastresort",
        "tutor:magiccoat",
        "tutor:mistyexplosion",
        "tutor:mudslap",
        "tutor:nightmare",
        "tutor:painsplit",
        "tutor:recycle",
        "tutor:roleplay",
        "tutor:rollout",
        "tutor:shockwave",
        "tutor:snatch",
        "tutor:steelroller",
        "tutor:telekinesis",
        "tutor:waterpulse"
    ],
    "labels": [
        "gen1"
    ],
    "pokedex": [
        "cobblemon.species.wigglytuff.desc1",
        "cobblemon.species.wigglytuff.desc2"
    ],
    "preEvolution": "jigglypuff",
    "evolutions": [],
    "baseScale": 1.0,
    "hitbox": {
        "width": 0.7,
        "height": 1.2,
        "fixed": false
    },
    "baseFriendship": 50,
    "evYield": {
        "hp": 3
    },
    "height": 10,
    "weight": 120
}