{
	"format_version": "1.8.0",
	"animations": {
		"animation.dratini.ground_idle": {
			"loop": true,
			"bones": {
				"body": {
					"position": [0, -3.8, -6]
				},
				"tail1": {
					"rotation": [10, 0, 0]
				},
				"tail2": {
					"rotation": [40, 0, 0]
				},
				"tail3": {
					"rotation": [40, 0, 0]
				},
				"tail5": {
					"rotation": [-5, 0, 0]
				},
				"tail6": {
					"rotation": [-5, 0, 0]
				}
			}
		},
		"animation.dratini.water_idle": {
			"loop": true,
			"bones": {
				"body": {
					"position": [0, -3.8, -6]
				},
				"tail1": {
					"rotation": [10, 0, 0]
				},
				"tail2": {
					"rotation": [40, 0, 0]
				},
				"tail3": {
					"rotation": [45, 0, 0]
				},
				"tail5": {
					"rotation": [-30, 0, 0]
				},
				"tail6": {
					"rotation": [-30, 0, 0]
				},
				"tail4": {
					"rotation": [30, 0, 0]
				}
			}
		},
		"animation.dratini.water_swim": {
			"loop": true,
			"bones": {
				"body": {
					"rotation": [5, 0, 0],
					"position": [0, -3.8, -6]
				},
				"tail1": {
					"rotation": [20, 0, 0]
				},
				"tail2": {
					"rotation": [40, 0, 0]
				},
				"tail3": {
					"rotation": [40, 0, 0]
				},
				"tail5": {
					"rotation": [-20, 0, 0]
				},
				"tail6": {
					"rotation": [-22.5, 0, 0]
				},
				"tail4": {
					"rotation": [20, 0, 0]
				}
			}
		}
	}
}