{
    "name": "electrike",
    "nationalPokedexNumber": 309,
    "primaryType": "electric",
    "abilities": [
        "static",
        "lightningrod",
        "h:minus"
    ],
    "baseStats": {
        "hp": 40,
        "attack": 45,
        "defence": 40,
        "special_attack": 65,
        "special_defence": 40,
        "speed": 65
    },
    "catchRate": 120,
    "maleRatio": 0.5,
    "shoulderMountable": false,
    "forms": [],
    "baseExperienceYield": 59,
    "experienceGroup": "slow",
    "eggCycles": 20,
    "eggGroups": [
        "field"
    ],
    "moves": [
        "1:tackle",
        "1:thunderwave",
        "4:leer",
        "8:howl",
        "12:quickattack",
        "16:odorsleuth",
        "16:shockwave",
        "20:bite",
        "24:thunderfang",
        "28:roar",
        "32:discharge",
        "36:charge",
        "40:wildcharge",
        "44:thunder",
        "egg:curse",
        "egg:flameburst",
        "egg:headbutt",
        "egg:spark",
        "egg:switcheroo",
        "tm:agility",
        "tm:attract",
        "tm:bodyslam",
        "tm:captivate",
        "tm:chargebeam",
        "tm:confide",
        "tm:crunch",
        "tm:doubleteam",
        "tm:eerieimpulse",
        "tm:electroball",
        "tm:endure",
        "tm:facade",
        "tm:firefang",
        "tm:flamethrower",
        "tm:flash",
        "tm:frustration",
        "tm:hiddenpower",
        "tm:icefang",
        "tm:irontail",
        "tm:lightscreen",
        "tm:naturalgift",
        "tm:protect",
        "tm:psychicfangs",
        "tm:raindance",
        "tm:rest",
        "tm:return",
        "tm:round",
        "tm:secretpower",
        "tm:sleeptalk",
        "tm:snarl",
        "tm:snore",
        "tm:strength",
        "tm:substitute",
        "tm:swagger",
        "tm:swift",
        "tm:thief",
        "tm:thunder",
        "tm:thunderbolt",
        "tm:thunderfang",
        "tm:thunderwave",
        "tm:toxic",
        "tm:uproar",
        "tm:voltswitch",
        "tm:wildcharge",
        "tutor:doubleedge",
        "tutor:magnetrise",
        "tutor:mimic",
        "tutor:mudslap",
        "tutor:risingvoltage",
        "tutor:signalbeam"
    ],
    "labels": [
        "gen3"
    ],
    "pokedex": [
        "cobblemon.species.electrike.desc1",
        "cobblemon.species.electrike.desc2"
    ],
    "evolutions": [
        {
            "id": "electrike_manectric",
            "variant": "level_up",
            "result": "manectric",
            "consumeHeldItem": false,
            "learnableMoves": [],
            "requirements": [
                {
                    "variant": "level",
                    "minLevel": 26
                }
            ]
        }
    ],
    "baseScale": 1.0,
    "hitbox": {
        "width": 1.0,
        "height": 1.0,
        "fixed": false
    },
    "baseFriendship": 50,
    "evYield": {
        "speed": 1
    },
    "height": 6,
    "weight": 152
}