{
    "name": "glalie",
    "nationalPokedexNumber": 362,
    "primaryType": "ice",
    "abilities": [
        "innerfocus",
        "icebody",
        "h:moody"
    ],
    "baseStats": {
        "hp": 80,
        "attack": 80,
        "defence": 80,
        "special_attack": 80,
        "special_defence": 80,
        "speed": 80
    },
    "catchRate": 75,
    "maleRatio": 0.5,
    "shoulderMountable": false,
    "forms": [
        {
            "name": "normal"
        },
        {
            "name": "mega",
            "abilities": [
                "refrigerate"
            ],
            "baseStats": {
                "hp": 80,
                "attack": 120,
                "defence": 80,
                "special_attack": 120,
                "special_defence": 80,
                "speed": 100
            },
            "baseExperienceYield": 203,
            "moves": [
                "0:freezedry",
                "1:leer",
                "1:doubleteam",
                "1:powdersnow",
                "1:sheercold",
                "1:iceshard",
                "1:freezedry",
                "5:doubleteam",
                "10:iceshard",
                "14:icywind",
                "19:bite",
                "23:icefang",
                "28:headbutt",
                "32:protect",
                "37:frostbreath",
                "41:crunch",
                "48:blizzard",
                "54:hail",
                "61:sheercold",
                "tm:attract",
                "tm:blizzard",
                "tm:bulldoze",
                "tm:confide",
                "tm:darkpulse",
                "tm:doubleteam",
                "tm:earthquake",
                "tm:explosion",
                "tm:facade",
                "tm:flash",
                "tm:frostbreath",
                "tm:frustration",
                "tm:gigaimpact",
                "tm:gyroball",
                "tm:hail",
                "tm:hiddenpower",
                "tm:hyperbeam",
                "tm:icebeam",
                "tm:lightscreen",
                "tm:payback",
                "tm:protect",
                "tm:raindance",
                "tm:rest",
                "tm:return",
                "tm:round",
                "tm:safeguard",
                "tm:secretpower",
                "tm:shadowball",
                "tm:sleeptalk",
                "tm:substitute",
                "tm:swagger",
                "tm:taunt",
                "tm:torment",
                "tm:toxic",
                "tutor:block",
                "tutor:icywind",
                "tutor:ironhead",
                "tutor:laserfocus",
                "tutor:signalbeam",
                "tutor:snore",
                "tutor:spite",
                "tutor:superfang",
                "tutor:waterpulse"
            ],
            "labels": [
                "gen3",
                "mega_evolution"
            ],
            "pokedex": [
                "cobblemon.form.glalie-mega.desc1",
                "cobblemon.form.glalie-mega.desc2"
            ],
            "height": 21,
            "weight": 3502
        }
    ],
    "baseExperienceYield": 168,
    "experienceGroup": "mediumfast",
    "eggCycles": 20,
    "eggGroups": [
        "fairy",
        "mineral"
    ],
    "moves": [
        "0:freezedry",
        "1:leer",
        "1:doubleteam",
        "1:powdersnow",
        "1:astonish",
        "1:sheercold",
        "1:freezedry",
        "15:iceshard",
        "20:protect",
        "25:icywind",
        "30:frostbreath",
        "35:bite",
        "40:icefang",
        "47:hail",
        "54:headbutt",
        "61:crunch",
        "68:blizzard",
        "tm:attract",
        "tm:avalanche",
        "tm:blizzard",
        "tm:bodyslam",
        "tm:bulldoze",
        "tm:captivate",
        "tm:confide",
        "tm:crunch",
        "tm:darkpulse",
        "tm:earthquake",
        "tm:endure",
        "tm:explosion",
        "tm:facade",
        "tm:faketears",
        "tm:flash",
        "tm:frustration",
        "tm:gigaimpact",
        "tm:gyroball",
        "tm:hail",
        "tm:hex",
        "tm:hiddenpower",
        "tm:hyperbeam",
        "tm:icebeam",
        "tm:icefang",
        "tm:iciclespear",
        "tm:icywind",
        "tm:ironhead",
        "tm:lightscreen",
        "tm:naturalgift",
        "tm:payback",
        "tm:protect",
        "tm:raindance",
        "tm:rest",
        "tm:return",
        "tm:round",
        "tm:safeguard",
        "tm:scaryface",
        "tm:secretpower",
        "tm:selfdestruct",
        "tm:shadowball",
        "tm:sleeptalk",
        "tm:snore",
        "tm:spikes",
        "tm:substitute",
        "tm:swagger",
        "tm:taunt",
        "tm:torment",
        "tm:toxic",
        "tm:weatherball",
        "tutor:block",
        "tutor:defensecurl",
        "tutor:doubleedge",
        "tutor:laserfocus",
        "tutor:mimic",
        "tutor:rollout",
        "tutor:signalbeam",
        "tutor:spite",
        "tutor:steelroller",
        "tutor:superfang",
        "tutor:waterpulse"
    ],
    "labels": [
        "gen3"
    ],
    "pokedex": [
        "cobblemon.species.glalie.desc1",
        "cobblemon.species.glalie.desc2"
    ],
    "preEvolution": "snorunt",
    "evolutions": [],
    "baseScale": 1.0,
    "hitbox": {
        "width": 1.0,
        "height": 1.0,
        "fixed": false
    },
    "baseFriendship": 50,
    "evYield": {
        "hp": 2
    },
    "height": 15,
    "weight": 2565
}