{
    "name": "kyogre",
    "nationalPokedexNumber": 382,
    "primaryType": "water",
    "abilities": [
        "drizzle"
    ],
    "baseStats": {
        "hp": 100,
        "attack": 100,
        "defence": 90,
        "special_attack": 150,
        "special_defence": 140,
        "speed": 90
    },
    "catchRate": 3,
    "maleRatio": -1,
    "shoulderMountable": false,
    "forms": [
        {
            "name": "primal",
            "abilities": [
                "primordialsea"
            ],
            "baseStats": {
                "hp": 100,
                "attack": 150,
                "defence": 90,
                "special_attack": 180,
                "special_defence": 160,
                "speed": 90
            },
            "baseExperienceYield": 347,
            "moves": [
                "1:ancientpower",
                "1:waterpulse",
                "5:scaryface",
                "15:aquatail",
                "20:bodyslam",
                "30:aquaring",
                "35:icebeam",
                "45:originpulse",
                "50:calmmind",
                "60:muddywater",
                "65:sheercold",
                "75:hydropump",
                "80:doubleedge",
                "90:waterspout",
                "tm:blizzard",
                "tm:brickbreak",
                "tm:bulldoze",
                "tm:calmmind",
                "tm:confide",
                "tm:dive",
                "tm:doubleteam",
                "tm:earthquake",
                "tm:facade",
                "tm:frustration",
                "tm:gigaimpact",
                "tm:hail",
                "tm:hiddenpower",
                "tm:hyperbeam",
                "tm:icebeam",
                "tm:protect",
                "tm:psychup",
                "tm:raindance",
                "tm:rest",
                "tm:return",
                "tm:roar",
                "tm:rockslide",
                "tm:rocksmash",
                "tm:rocktomb",
                "tm:round",
                "tm:safeguard",
                "tm:scald",
                "tm:secretpower",
                "tm:sleeptalk",
                "tm:strength",
                "tm:substitute",
                "tm:surf",
                "tm:swagger",
                "tm:thunder",
                "tm:thunderbolt",
                "tm:thunderwave",
                "tm:toxic",
                "tm:waterfall",
                "tutor:aquatail",
                "tutor:block",
                "tutor:icywind",
                "tutor:ironhead",
                "tutor:liquidation",
                "tutor:shockwave",
                "tutor:signalbeam",
                "tutor:snore",
                "tutor:uproar",
                "tutor:waterpulse"
            ],
            "pokedex": [
                "cobblemon.form.kyogre-primal.desc1",
                "cobblemon.form.kyogre-primal.desc2"
            ],
            "height": 98,
            "weight": 4300
        }
    ],
    "baseExperienceYield": 335,
    "experienceGroup": "slow",
    "eggCycles": 120,
    "eggGroups": [
        "undiscovered"
    ],
    "moves": [
        "1:bodyslam",
        "1:scaryface",
        "1:ancientpower",
        "1:waterpulse",
        "9:aquatail",
        "18:calmmind",
        "27:muddywater",
        "36:icebeam",
        "45:sheercold",
        "54:aquaring",
        "63:originpulse",
        "72:hydropump",
        "81:doubleedge",
        "90:waterspout",
        "tm:avalanche",
        "tm:blizzard",
        "tm:bodyslam",
        "tm:brickbreak",
        "tm:brine",
        "tm:bulldoze",
        "tm:calmmind",
        "tm:confide",
        "tm:dive",
        "tm:doubleteam",
        "tm:earthquake",
        "tm:endure",
        "tm:facade",
        "tm:frustration",
        "tm:gigaimpact",
        "tm:hail",
        "tm:heavyslam",
        "tm:hiddenpower",
        "tm:hydropump",
        "tm:hyperbeam",
        "tm:icebeam",
        "tm:icywind",
        "tm:ironhead",
        "tm:liquidation",
        "tm:muddywater",
        "tm:naturalgift",
        "tm:protect",
        "tm:psychup",
        "tm:raindance",
        "tm:rest",
        "tm:return",
        "tm:roar",
        "tm:rockslide",
        "tm:rocksmash",
        "tm:rocktomb",
        "tm:round",
        "tm:safeguard",
        "tm:scald",
        "tm:scaryface",
        "tm:secretpower",
        "tm:sleeptalk",
        "tm:snore",
        "tm:strength",
        "tm:substitute",
        "tm:surf",
        "tm:swagger",
        "tm:thunder",
        "tm:thunderbolt",
        "tm:thunderwave",
        "tm:toxic",
        "tm:uproar",
        "tm:waterfall",
        "tm:whirlpool",
        "tutor:block",
        "tutor:defensecurl",
        "tutor:headbutt",
        "tutor:mimic",
        "tutor:mudslap",
        "tutor:shockwave",
        "tutor:signalbeam",
        "tutor:swift"
    ],
    "labels": [
        "gen3",
        "legendary"
    ],
    "pokedex": [
        "cobblemon.species.kyogre.desc1",
        "cobblemon.species.kyogre.desc2"
    ],
    "evolutions": [],
    "baseScale": 1.0,
    "hitbox": {
        "width": 1.0,
        "height": 1.0,
        "fixed": false
    },
    "baseFriendship": 0,
    "evYield": {
        "special_attack": 3
    },
    "height": 45,
    "weight": 3520
}