{
    "name": "mawile",
    "nationalPokedexNumber": 303,
    "primaryType": "steel",
    "secondaryType": "fairy",
    "abilities": [
        "hypercutter",
        "intimidate",
        "h:sheerforce"
    ],
    "baseStats": {
        "hp": 50,
        "attack": 85,
        "defence": 85,
        "special_attack": 55,
        "special_defence": 55,
        "speed": 50
    },
    "catchRate": 45,
    "maleRatio": 0.5,
    "shoulderMountable": false,
    "forms": [
        {
            "name": "normal"
        },
        {
            "name": "mega",
            "abilities": [
                "hugepower"
            ],
            "baseStats": {
                "hp": 50,
                "attack": 105,
                "defence": 125,
                "special_attack": 55,
                "special_defence": 95,
                "speed": 50
            },
            "baseExperienceYield": 168,
            "moves": [
                "1:growl",
                "1:taunt",
                "1:astonish",
                "1:ironhead",
                "1:playrough",
                "1:fairywind",
                "5:faketears",
                "9:bite",
                "13:sweetscent",
                "17:visegrip",
                "21:feintattack",
                "25:batonpass",
                "29:crunch",
                "33:irondefense",
                "37:suckerpunch",
                "41:stockpile",
                "41:spitup",
                "41:swallow",
                "45:ironhead",
                "49:playrough",
                "egg:ancientpower",
                "egg:captivate",
                "egg:firefang",
                "egg:guardswap",
                "egg:icefang",
                "egg:metalburst",
                "egg:mistyterrain",
                "egg:poisonfang",
                "egg:poweruppunch",
                "egg:punishment",
                "egg:seismictoss",
                "egg:slam",
                "egg:suckerpunch",
                "egg:thunderfang",
                "egg:tickle",
                "tm:attract",
                "tm:brickbreak",
                "tm:chargebeam",
                "tm:confide",
                "tm:darkpulse",
                "tm:doubleteam",
                "tm:embargo",
                "tm:facade",
                "tm:falseswipe",
                "tm:fireblast",
                "tm:flamethrower",
                "tm:flashcannon",
                "tm:fling",
                "tm:focusblast",
                "tm:frustration",
                "tm:gigaimpact",
                "tm:grassknot",
                "tm:hiddenpower",
                "tm:hyperbeam",
                "tm:icebeam",
                "tm:incinerate",
                "tm:payback",
                "tm:protect",
                "tm:psychup",
                "tm:raindance",
                "tm:rest",
                "tm:return",
                "tm:rockslide",
                "tm:rocksmash",
                "tm:rocktomb",
                "tm:round",
                "tm:sandstorm",
                "tm:secretpower",
                "tm:shadowball",
                "tm:sleeptalk",
                "tm:sludgebomb",
                "tm:solarbeam",
                "tm:stoneedge",
                "tm:strength",
                "tm:substitute",
                "tm:sunnyday",
                "tm:swagger",
                "tm:swordsdance",
                "tm:taunt",
                "tm:torment",
                "tm:toxic",
                "tutor:focuspunch",
                "tutor:foulplay",
                "tutor:icepunch",
                "tutor:icywind",
                "tutor:irondefense",
                "tutor:ironhead",
                "tutor:knockoff",
                "tutor:laserfocus",
                "tutor:lastresort",
                "tutor:magnetrise",
                "tutor:painsplit",
                "tutor:snatch",
                "tutor:snore",
                "tutor:stealthrock",
                "tutor:superfang",
                "tutor:thunderpunch"
            ],
            "labels": [
                "gen3",
                "mega_evolution"
            ],
            "pokedex": [
                "cobblemon.form.mawile-mega.desc1",
                "cobblemon.form.mawile-mega.desc2"
            ],
            "height": 10,
            "weight": 235
        }
    ],
    "baseExperienceYield": 133,
    "experienceGroup": "fast",
    "eggCycles": 20,
    "eggGroups": [
        "field",
        "fairy"
    ],
    "moves": [
        "1:growl",
        "1:astonish",
        "4:fairywind",
        "8:batonpass",
        "12:bite",
        "16:stockpile",
        "16:spitup",
        "16:swallow",
        "17:visegrip",
        "20:suckerpunch",
        "21:feintattack",
        "24:irondefense",
        "28:crunch",
        "32:sweetscent",
        "36:ironhead",
        "40:taunt",
        "44:faketears",
        "48:playrough",
        "egg:ancientpower",
        "egg:captivate",
        "egg:metalburst",
        "egg:poisonfang",
        "egg:poweruppunch",
        "egg:punishment",
        "egg:seismictoss",
        "egg:slam",
        "egg:tickle",
        "tm:assurance",
        "tm:attract",
        "tm:batonpass",
        "tm:bodyslam",
        "tm:brickbreak",
        "tm:brutalswing",
        "tm:chargebeam",
        "tm:confide",
        "tm:crunch",
        "tm:darkpulse",
        "tm:doubleteam",
        "tm:drainingkiss",
        "tm:embargo",
        "tm:endure",
        "tm:facade",
        "tm:faketears",
        "tm:falseswipe",
        "tm:fireblast",
        "tm:firefang",
        "tm:flamethrower",
        "tm:flashcannon",
        "tm:fling",
        "tm:focusblast",
        "tm:foulplay",
        "tm:frustration",
        "tm:gigaimpact",
        "tm:grassknot",
        "tm:guardswap",
        "tm:helpinghand",
        "tm:hiddenpower",
        "tm:hyperbeam",
        "tm:icebeam",
        "tm:icefang",
        "tm:icepunch",
        "tm:icywind",
        "tm:incinerate",
        "tm:irondefense",
        "tm:ironhead",
        "tm:megakick",
        "tm:megapunch",
        "tm:mistyterrain",
        "tm:naturalgift",
        "tm:payback",
        "tm:playrough",
        "tm:protect",
        "tm:psychicfangs",
        "tm:psychup",
        "tm:raindance",
        "tm:rest",
        "tm:return",
        "tm:rockslide",
        "tm:rocksmash",
        "tm:rocktomb",
        "tm:round",
        "tm:sandstorm",
        "tm:secretpower",
        "tm:shadowball",
        "tm:sleeptalk",
        "tm:sludgebomb",
        "tm:snore",
        "tm:solarbeam",
        "tm:stealthrock",
        "tm:stoneedge",
        "tm:strength",
        "tm:substitute",
        "tm:sunnyday",
        "tm:swagger",
        "tm:swordsdance",
        "tm:taunt",
        "tm:thunderfang",
        "tm:thunderpunch",
        "tm:torment",
        "tm:toxic",
        "tutor:counter",
        "tutor:doubleedge",
        "tutor:dynamicpunch",
        "tutor:focuspunch",
        "tutor:headbutt",
        "tutor:knockoff",
        "tutor:laserfocus",
        "tutor:lastresort",
        "tutor:magnetrise",
        "tutor:mimic",
        "tutor:mudslap",
        "tutor:painsplit",
        "tutor:snatch",
        "tutor:steelbeam",
        "tutor:superfang"
    ],
    "labels": [
        "gen3"
    ],
    "pokedex": [
        "cobblemon.species.mawile.desc1",
        "cobblemon.species.mawile.desc2"
    ],
    "evolutions": [],
    "baseScale": 1.0,
    "hitbox": {
        "width": 1.0,
        "height": 1.0,
        "fixed": false
    },
    "baseFriendship": 50,
    "evYield": {
        "attack": 1,
        "defence": 1
    },
    "height": 6,
    "weight": 115
}