{
    "name": "spinda",
    "nationalPokedexNumber": 327,
    "primaryType": "normal",
    "abilities": [
        "owntempo",
        "tangledfeet",
        "h:contrary"
    ],
    "baseStats": {
        "hp": 60,
        "attack": 60,
        "defence": 60,
        "special_attack": 60,
        "special_defence": 60,
        "speed": 60
    },
    "catchRate": 255,
    "maleRatio": 0.5,
    "shoulderMountable": false,
    "forms": [],
    "baseExperienceYield": 126,
    "experienceGroup": "fast",
    "eggCycles": 15,
    "eggGroups": [
        "field",
        "human_like"
    ],
    "moves": [
        "1:tackle",
        "5:copycat",
        "10:feintattack",
        "14:psybeam",
        "19:hypnosis",
        "23:dizzypunch",
        "28:suckerpunch",
        "32:teeterdance",
        "37:uproar",
        "41:psychup",
        "46:doubleedge",
        "50:flail",
        "55:thrash",
        "egg:assist",
        "egg:batonpass",
        "egg:disable",
        "egg:encore",
        "egg:fakeout",
        "egg:faketears",
        "egg:guardsplit",
        "egg:icywind",
        "egg:psychocut",
        "egg:psychoshift",
        "egg:rapidspin",
        "egg:roleplay",
        "egg:smellingsalts",
        "egg:spotlight",
        "egg:trick",
        "egg:waterpulse",
        "egg:wish",
        "tm:attract",
        "tm:brickbreak",
        "tm:calmmind",
        "tm:captivate",
        "tm:confide",
        "tm:dig",
        "tm:doubleteam",
        "tm:dreameater",
        "tm:endure",
        "tm:facade",
        "tm:flash",
        "tm:fling",
        "tm:frustration",
        "tm:hiddenpower",
        "tm:naturalgift",
        "tm:poweruppunch",
        "tm:protect",
        "tm:psychic",
        "tm:psychup",
        "tm:raindance",
        "tm:rest",
        "tm:retaliate",
        "tm:return",
        "tm:rockslide",
        "tm:rocksmash",
        "tm:rocktomb",
        "tm:round",
        "tm:safeguard",
        "tm:secretpower",
        "tm:shadowball",
        "tm:sleeptalk",
        "tm:strength",
        "tm:substitute",
        "tm:sunnyday",
        "tm:swagger",
        "tm:thief",
        "tm:toxic",
        "tm:trickroom",
        "tm:wildcharge",
        "tm:workup",
        "tutor:bodyslam",
        "tutor:counter",
        "tutor:covet",
        "tutor:defensecurl",
        "tutor:drainpunch",
        "tutor:dynamicpunch",
        "tutor:firepunch",
        "tutor:focuspunch",
        "tutor:headbutt",
        "tutor:helpinghand",
        "tutor:hypervoice",
        "tutor:icepunch",
        "tutor:icywind",
        "tutor:lastresort",
        "tutor:lowkick",
        "tutor:megakick",
        "tutor:megapunch",
        "tutor:metronome",
        "tutor:mimic",
        "tutor:mudslap",
        "tutor:nightmare",
        "tutor:recycle",
        "tutor:roleplay",
        "tutor:rollout",
        "tutor:seismictoss",
        "tutor:shockwave",
        "tutor:skillswap",
        "tutor:snatch",
        "tutor:snore",
        "tutor:stompingtantrum",
        "tutor:swift",
        "tutor:thunderpunch",
        "tutor:trick",
        "tutor:uproar",
        "tutor:waterpulse",
        "tutor:zenheadbutt"
    ],
    "labels": [
        "gen3"
    ],
    "pokedex": [
        "cobblemon.species.spinda.desc1",
        "cobblemon.species.spinda.desc2"
    ],
    "evolutions": [],
    "baseScale": 1.0,
    "hitbox": {
        "width": 1.0,
        "height": 1.0,
        "fixed": false
    },
    "baseFriendship": 70,
    "evYield": {
        "special_attack": 1
    },
    "height": 11,
    "weight": 50
}