{
    "name": "torkoal",
    "nationalPokedexNumber": 324,
    "primaryType": "fire",
    "abilities": [
        "whitesmoke",
        "drought",
        "h:shellarmor"
    ],
    "baseStats": {
        "hp": 70,
        "attack": 85,
        "defence": 140,
        "special_attack": 85,
        "special_defence": 70,
        "speed": 20
    },
    "catchRate": 90,
    "maleRatio": 0.5,
    "shoulderMountable": false,
    "forms": [],
    "baseExperienceYield": 165,
    "experienceGroup": "mediumfast",
    "eggCycles": 20,
    "eggGroups": [
        "field"
    ],
    "moves": [
        "1:ember",
        "1:smog",
        "4:withdraw",
        "8:rapidspin",
        "12:smokescreen",
        "16:clearsmog",
        "20:flamewheel",
        "24:protect",
        "28:lavaplume",
        "32:bodyslam",
        "36:irondefense",
        "40:flamethrower",
        "44:curse",
        "48:heatwave",
        "52:amnesia",
        "56:inferno",
        "60:shellsmash",
        "64:eruption",
        "egg:ancientpower",
        "egg:fissure",
        "egg:flail",
        "egg:flameburst",
        "egg:skullbash",
        "egg:yawn",
        "tm:amnesia",
        "tm:attract",
        "tm:bodypress",
        "tm:bodyslam",
        "tm:bulldoze",
        "tm:captivate",
        "tm:confide",
        "tm:doubleteam",
        "tm:earthpower",
        "tm:earthquake",
        "tm:endure",
        "tm:explosion",
        "tm:facade",
        "tm:fireblast",
        "tm:firespin",
        "tm:flamecharge",
        "tm:flamethrower",
        "tm:frustration",
        "tm:gigaimpact",
        "tm:gyroball",
        "tm:heatcrash",
        "tm:heatwave",
        "tm:hiddenpower",
        "tm:hyperbeam",
        "tm:incinerate",
        "tm:irondefense",
        "tm:irontail",
        "tm:naturalgift",
        "tm:naturepower",
        "tm:overheat",
        "tm:protect",
        "tm:rest",
        "tm:return",
        "tm:rockslide",
        "tm:rocksmash",
        "tm:rocktomb",
        "tm:round",
        "tm:secretpower",
        "tm:selfdestruct",
        "tm:sleeptalk",
        "tm:sludgebomb",
        "tm:snore",
        "tm:solarbeam",
        "tm:stealthrock",
        "tm:stompingtantrum",
        "tm:stoneedge",
        "tm:strength",
        "tm:substitute",
        "tm:sunnyday",
        "tm:superpower",
        "tm:swagger",
        "tm:toxic",
        "tm:weatherball",
        "tm:willowisp",
        "tutor:afteryou",
        "tutor:burningjealousy",
        "tutor:doubleedge",
        "tutor:headbutt",
        "tutor:mimic",
        "tutor:mudslap",
        "tutor:rollout",
        "tutor:scorchingsands"
    ],
    "labels": [
        "gen3"
    ],
    "pokedex": [
        "cobblemon.species.torkoal.desc1",
        "cobblemon.species.torkoal.desc2"
    ],
    "evolutions": [],
    "baseScale": 1.0,
    "hitbox": {
        "width": 1.0,
        "height": 1.0,
        "fixed": false
    },
    "baseFriendship": 50,
    "evYield": {
        "defence": 2
    },
    "height": 5,
    "weight": 804
}