{
    "name": "zangoose",
    "nationalPokedexNumber": 335,
    "primaryType": "normal",
    "abilities": [
        "immunity",
        "h:toxicboost"
    ],
    "baseStats": {
        "hp": 73,
        "attack": 115,
        "defence": 60,
        "special_attack": 60,
        "special_defence": 60,
        "speed": 90
    },
    "catchRate": 90,
    "maleRatio": 0.5,
    "shoulderMountable": false,
    "forms": [],
    "baseExperienceYield": 160,
    "experienceGroup": "erratic",
    "eggCycles": 20,
    "eggGroups": [
        "field"
    ],
    "moves": [
        "1:scratch",
        "1:leer",
        "5:quickattack",
        "8:furycutter",
        "12:pursuit",
        "15:honeclaws",
        "19:slash",
        "22:revenge",
        "26:crushclaw",
        "29:falseswipe",
        "33:embargo",
        "36:detect",
        "40:xscissor",
        "43:taunt",
        "47:swordsdance",
        "50:closecombat",
        "egg:bellydrum",
        "egg:counter",
        "egg:curse",
        "egg:disable",
        "egg:doublehit",
        "egg:doublekick",
        "egg:feint",
        "egg:finalgambit",
        "egg:flail",
        "egg:furyswipes",
        "egg:irontail",
        "egg:metalclaw",
        "egg:nightslash",
        "egg:quickguard",
        "egg:razorwind",
        "tm:aerialace",
        "tm:attract",
        "tm:blizzard",
        "tm:brickbreak",
        "tm:captivate",
        "tm:confide",
        "tm:dig",
        "tm:doubleteam",
        "tm:embargo",
        "tm:endure",
        "tm:facade",
        "tm:falseswipe",
        "tm:fireblast",
        "tm:flamethrower",
        "tm:fling",
        "tm:focusblast",
        "tm:frustration",
        "tm:hiddenpower",
        "tm:icebeam",
        "tm:incinerate",
        "tm:naturalgift",
        "tm:payback",
        "tm:poisonjab",
        "tm:poweruppunch",
        "tm:protect",
        "tm:raindance",
        "tm:rest",
        "tm:retaliate",
        "tm:return",
        "tm:roar",
        "tm:rockclimb",
        "tm:rockslide",
        "tm:rocksmash",
        "tm:rocktomb",
        "tm:round",
        "tm:secretpower",
        "tm:shadowball",
        "tm:shadowclaw",
        "tm:sleeptalk",
        "tm:solarbeam",
        "tm:strength",
        "tm:substitute",
        "tm:sunnyday",
        "tm:swagger",
        "tm:swordsdance",
        "tm:taunt",
        "tm:thief",
        "tm:thunder",
        "tm:thunderbolt",
        "tm:toxic",
        "tm:workup",
        "tm:xscissor",
        "tutor:bodyslam",
        "tutor:defensecurl",
        "tutor:doubleedge",
        "tutor:dynamicpunch",
        "tutor:endeavor",
        "tutor:firepunch",
        "tutor:focuspunch",
        "tutor:gigadrain",
        "tutor:headbutt",
        "tutor:icepunch",
        "tutor:icywind",
        "tutor:irontail",
        "tutor:knockoff",
        "tutor:lastresort",
        "tutor:lowkick",
        "tutor:megakick",
        "tutor:megapunch",
        "tutor:mimic",
        "tutor:mudslap",
        "tutor:rollout",
        "tutor:seismictoss",
        "tutor:shockwave",
        "tutor:snore",
        "tutor:swift",
        "tutor:throatchop",
        "tutor:thunderpunch",
        "tutor:thunderwave",
        "tutor:waterpulse"
    ],
    "labels": [
        "gen3"
    ],
    "pokedex": [
        "cobblemon.species.zangoose.desc1",
        "cobblemon.species.zangoose.desc2"
    ],
    "evolutions": [],
    "baseScale": 1.0,
    "hitbox": {
        "width": 1.0,
        "height": 1.0,
        "fixed": false
    },
    "baseFriendship": 70,
    "evYield": {
        "attack": 2
    },
    "height": 13,
    "weight": 403
}