{
  "display": {
    "icon": {
      "item": "cobblemon:poke_ball"
    },
    "title": {
      "translate": "advancements.cobblemon.craft_poke_ball"
    },
    "description": {
      "translate": "advancements.cobblemon.craft_poke_ball.description"
    }
  },
  "parent": "cobblemon:harvest_apricorn",
  "criteria": {
    "requirement": {
      "trigger": "minecraft:inventory_changed",
      "conditions": {
        "items": [
          {
            "tag": "cobblemon:pokeballs"
          }
        ]
      }
    }
  }
}