{
  "parent": "cobblemon:root",
  "display": {
    "icon": {
      "item": "cobblemon:link_cable"
    },
    "title": {
      "translate": "advancements.cobblemon.first_evolution"
    },
    "description": {
      "translate": "advancements.cobblemon.first_evolution.description"
    },
    "frame": "task",
    "show_toast": true,
	"announce_to_chat": true,
	"hidden": false
  },
  "criteria": {
    "catch": {
      "trigger": "cobblemon:pokemon_evolved",
      "conditions": {
        "count": 1
      }
    }
  },
	"requirements": [
		[
			"catch"
		]
	]
}