{
	"format_version": "1.12.0",
	"minecraft:geometry": [
		{
			"description": {
				"identifier": "geometry.gastly",
				"texture_width": 32,
				"texture_height": 32,
				"visible_bounds_width": 2,
				"visible_bounds_height": 2.5,
				"visible_bounds_offset": [0, 0.75, 0]
			},
			"bones": [
				{
					"name": "gastly",
					"pivot": [0, 0, 0]
				},
				{
					"name": "body",
					"parent": "gastly",
					"pivot": [0, 0, 0]
				},
				{
					"name": "torso",
					"parent": "body",
					"pivot": [0, 4, 0],
					"cubes": [
						{"origin": [-3, 1, -3], "size": [6, 6, 6], "uv": [0, 0]}
					]
				},
				{
					"name": "mouth",
					"parent": "torso",
					"pivot": [0, 2, -3],
					"cubes": [
						{"origin": [-2.5, 1.6, -3], "size": [5, 1, 0], "inflate": 0.01, "uv": [22, 0]},
						{"origin": [-2.26, 1.6119, -3.05358], "size": [1, 1, 0], "pivot": [-1.76, 2.1119, -3.05358], "rotation": [-5, 0, 0], "uv": [22, 1]},
						{"origin": [1.26, 1.6119, -3.05358], "size": [1, 1, 0], "pivot": [1.76, 2.1119, -3.05358], "rotation": [-5, 0, 0], "uv": [22, 1], "mirror": true}
					]
				},
				{
					"name": "eye_right",
					"parent": "torso",
					"pivot": [-2.4, 5, -3],
					"rotation": [0, 0, 35],
					"cubes": [
						{"origin": [-5.4, 3, -3], "size": [5, 3, 0], "inflate": 0.01, "uv": [20, 28], "mirror": true},
						{"origin": [-1.9, 4, -3], "size": [1, 1, 0], "inflate": 0.02, "pivot": [-1.9, 4.5, -3], "rotation": [0, 0, -35], "uv": [24, 26], "mirror": true}
					]
				},
				{
					"name": "eye_left",
					"parent": "torso",
					"pivot": [2.4, 5, -3],
					"rotation": [0, 0, -35],
					"cubes": [
						{"origin": [0.4, 3, -3], "size": [5, 3, 0], "inflate": 0.01, "uv": [20, 28]},
						{"origin": [0.9, 4, -3], "size": [1, 1, 0], "inflate": 0.02, "pivot": [1.9, 4.5, -3], "rotation": [0, 0, 35], "uv": [24, 26]}
					]
				},
				{
					"name": "gas1",
					"parent": "body",
					"pivot": [0, 7, 0.75],
					"rotation": [-45, 0, 0],
					"cubes": [
						{"origin": [-4, 7, 0.75], "size": [8, 4, 0], "uv": [0, 16]}
					]
				},
				{
					"name": "gas4",
					"parent": "body",
					"pivot": [3, 4, 0.75],
					"rotation": [0, -45, 0],
					"cubes": [
						{"origin": [3, -0.5, 0.75], "size": [4, 9, 0], "uv": [16, 12]}
					]
				},
				{
					"name": "gas3",
					"parent": "body",
					"pivot": [-3, 4, 0.75],
					"rotation": [0, 45, 0],
					"cubes": [
						{"origin": [-7, -0.5, 0.75], "size": [4, 9, 0], "uv": [0, 20]}
					]
				},
				{
					"name": "gas2",
					"parent": "body",
					"pivot": [0, 1, 0.75],
					"rotation": [45, 0, 0],
					"cubes": [
						{"origin": [-4, -3, 0.75], "size": [8, 4, 0], "uv": [0, 12]}
					]
				}
			]
		}
	]
}